2 - Experimentos/1 - Ponte de Mosfets/80kHz/8 - 412Ohm_6.74mH/tensão resistor/F0000MTH.CSV

Record Length,2.500000e+03,,   0.000039000000,   1.60000,
Sample Interval,1.000000e-08,,   0.000039010000,   0.80000,
Trigger Point,-3.900000000000e+03,,   0.000039020000,   0.80000,
,,,   0.000039030000,   0.80000,
,,,   0.000039040000,   1.60000,
,,,   0.000039050000,   0.80000,
Source,MATH,,   0.000039060000,   0.80000,
Vertical Units,V,,   0.000039070000,   0.80000,
Vertical Scale,2.000000e+01,,   0.000039080000,   0.80000,
Vertical Offset,0.000000e+00,,   0.000039090000,   0.80000,
Horizontal Units,s,,   0.000039100000,   1.60000,
Horizontal Scale,2.500000e-06,,   0.000039110000,   1.60000,
Pt Fmt,Y,,   0.000039120000,   0.00000,
Yzero,0.000000e+00,,   0.000039130000,   0.80000,
Probe Atten,1.000000e+00,,   0.000039140000,   0.80000,
Model Number,TDS2004C,,   0.000039150000,   1.60000,
Serial Number,C012246,,   0.000039160000,   1.60000,
Firmware Version,FV:v24.18,,   0.000039170000,   1.60000,
,,,0.000039180000,   0.80000,
,,,0.000039190000,   0.80000,
,,,0.000039200000,   0.80000,
,,,0.000039210000,   0.80000,
,,,0.000039220000,   0.80000,
,,,0.000039230000,   0.80000,
,,,0.000039240000,   0.80000,
,,,0.000039250000,   0.00000,
,,,0.000039260000,   0.00000,
,,,0.000039270000,   0.80000,
,,,0.000039280000,   0.80000,
,,,0.000039290000,   0.80000,
,,,0.000039300000,   0.80000,
,,,0.000039310000,   0.80000,
,,,0.000039320000,   0.80000,
,,,0.000039330000,   0.80000,
,,,0.000039340000,   0.80000,
,,,0.000039350000,   0.80000,
,,,0.000039360000,   1.60000,
,,,0.000039370000,   0.80000,
,,,0.000039380000,   1.60000,
,,,0.000039390000,   0.80000,
,,,0.000039400000,   0.80000,
,,,0.000039410000,   0.80000,
,,,0.000039420000,   2.40000,
,,,0.000039430000,   0.80000,
,,,0.000039440000,   2.40000,
,,,0.000039450000,   1.60000,
,,,0.000039460000,   1.60000,
,,,0.000039470000,   0.80000,
,,,0.000039480000,   1.60000,
,,,0.000039490000,   1.60000,
,,,0.000039500000,   0.80000,
,,,0.000039510000,   1.60000,
,,,0.000039520000,   1.60000,
,,,0.000039530000,   1.60000,
,,,0.000039540000,   1.60000,
,,,0.000039550000,   1.60000,
,,,0.000039560000,   0.80000,
,,,0.000039570000,   2.40000,
,,,0.000039580000,   1.60000,
,,,0.000039590000,   2.40000,
,,,0.000039600000,   0.80000,
,,,0.000039610000,   1.60000,
,,,0.000039620000,   1.60000,
,,,0.000039630000,   1.60000,
,,,0.000039640000,   2.40000,
,,,0.000039650000,   2.40000,
,,,0.000039660000,   1.60000,
,,,0.000039670000,   1.60000,
,,,0.000039680000,   2.40000,
,,,0.000039690000,   1.60000,
,,,0.000039700000,   2.40000,
,,,0.000039710000,   2.40000,
,,,0.000039720000,   2.40000,
,,,0.000039730000,   2.40000,
,,,0.000039740000,   2.40000,
,,,0.000039750000,   2.40000,
,,,0.000039760000,   3.20000,
,,,0.000039770000,   2.40000,
,,,0.000039780000,   2.40000,
,,,0.000039790000,   2.40000,
,,,0.000039800000,   2.40000,
,,,0.000039810000,   2.40000,
,,,0.000039820000,   2.40000,
,,,0.000039830000,   2.40000,
,,,0.000039840000,   1.60000,
,,,0.000039850000,   2.40000,
,,,0.000039860000,   2.40000,
,,,0.000039870000,   2.40000,
,,,0.000039880000,   2.40000,
,,,0.000039890000,   1.60000,
,,,0.000039900000,   2.40000,
,,,0.000039910000,   2.40000,
,,,0.000039920000,   2.40000,
,,,0.000039930000,   2.40000,
,,,0.000039940000,   2.40000,
,,,0.000039950000,   2.40000,
,,,0.000039960000,   2.40000,
,,,0.000039970000,   3.20000,
,,,0.000039980000,   2.40000,
,,,0.000039990000,   3.20000,
,,,0.000040000000,   2.40000,
,,,0.000040010000,   2.40000,
,,,0.000040020000,   3.20000,
,,,0.000040030000,   3.20000,
,,,0.000040040000,   1.60000,
,,,0.000040050000,   1.60000,
,,,0.000040060000,   3.20000,
,,,0.000040070000,   2.40000,
,,,0.000040080000,   1.60000,
,,,0.000040090000,   3.20000,
,,,0.000040100000,   3.20000,
,,,0.000040110000,   3.20000,
,,,0.000040120000,   3.20000,
,,,0.000040130000,   2.40000,
,,,0.000040140000,   2.40000,
,,,0.000040150000,   2.40000,
,,,0.000040160000,   2.40000,
,,,0.000040170000,   2.40000,
,,,0.000040180000,   3.20000,
,,,0.000040190000,   2.40000,
,,,0.000040200000,   1.60000,
,,,0.000040210000,   3.20000,
,,,0.000040220000,   3.20000,
,,,0.000040230000,   2.40000,
,,,0.000040240000,   2.40000,
,,,0.000040250000,   2.40000,
,,,0.000040260000,   3.20000,
,,,0.000040270000,   3.20000,
,,,0.000040280000,   2.40000,
,,,0.000040290000,   3.20000,
,,,0.000040300000,   3.20000,
,,,0.000040310000,   3.20000,
,,,0.000040320000,   2.40000,
,,,0.000040330000,   3.20000,
,,,0.000040340000,   3.20000,
,,,0.000040350000,   3.20000,
,,,0.000040360000,   3.20000,
,,,0.000040370000,   3.20000,
,,,0.000040380000,   3.20000,
,,,0.000040390000,   3.20000,
,,,0.000040400000,   3.20000,
,,,0.000040410000,   3.20000,
,,,0.000040420000,   4.00000,
,,,0.000040430000,   4.00000,
,,,0.000040440000,   3.20000,
,,,0.000040450000,   3.20000,
,,,0.000040460000,   3.20000,
,,,0.000040470000,   3.20000,
,,,0.000040480000,   4.00000,
,,,0.000040490000,   3.20000,
,,,0.000040500000,   3.20000,
,,,0.000040510000,   3.20000,
,,,0.000040520000,   3.20000,
,,,0.000040530000,   3.20000,
,,,0.000040540000,   4.00000,
,,,0.000040550000,   3.20000,
,,,0.000040560000,   4.00000,
,,,0.000040570000,   4.00000,
,,,0.000040580000,   4.00000,
,,,0.000040590000,   4.00000,
,,,0.000040600000,   4.00000,
,,,0.000040610000,   4.00000,
,,,0.000040620000,   3.20000,
,,,0.000040630000,   4.00000,
,,,0.000040640000,   4.00000,
,,,0.000040650000,   4.00000,
,,,0.000040660000,   3.20000,
,,,0.000040670000,   3.20000,
,,,0.000040680000,   4.00000,
,,,0.000040690000,   4.00000,
,,,0.000040700000,   4.00000,
,,,0.000040710000,   4.00000,
,,,0.000040720000,   3.20000,
,,,0.000040730000,   4.00000,
,,,0.000040740000,   4.00000,
,,,0.000040750000,   4.00000,
,,,0.000040760000,   4.00000,
,,,0.000040770000,   4.00000,
,,,0.000040780000,   4.00000,
,,,0.000040790000,   4.00000,
,,,0.000040800000,   4.00000,
,,,0.000040810000,   4.00000,
,,,0.000040820000,   4.00000,
,,,0.000040830000,   4.00000,
,,,0.000040840000,   4.00000,
,,,0.000040850000,   4.80000,
,,,0.000040860000,   4.00000,
,,,0.000040870000,   4.80000,
,,,0.000040880000,   4.00000,
,,,0.000040890000,   4.00000,
,,,0.000040900000,   4.80000,
,,,0.000040910000,   4.80000,
,,,0.000040920000,   4.80000,
,,,0.000040930000,   4.00000,
,,,0.000040940000,   4.00000,
,,,0.000040950000,   3.20000,
,,,0.000040960000,   4.00000,
,,,0.000040970000,   4.00000,
,,,0.000040980000,   5.60000,
,,,0.000040990000,   4.00000,
,,,0.000041000000,   4.00000,
,,,0.000041010000,   4.80000,
,,,0.000041020000,   4.80000,
,,,0.000041030000,   3.20000,
,,,0.000041040000,   3.20000,
,,,0.000041050000,   4.80000,
,,,0.000041060000,   4.00000,
,,,0.000041070000,   4.00000,
,,,0.000041080000,   4.00000,
,,,0.000041090000,   4.00000,
,,,0.000041100000,   4.80000,
,,,0.000041110000,   4.00000,
,,,0.000041120000,   4.00000,
,,,0.000041130000,   4.00000,
,,,0.000041140000,   4.00000,
,,,0.000041150000,   4.00000,
,,,0.000041160000,   4.80000,
,,,0.000041170000,   4.80000,
,,,0.000041180000,   4.00000,
,,,0.000041190000,   4.80000,
,,,0.000041200000,   4.00000,
,,,0.000041210000,   4.80000,
,,,0.000041220000,   4.80000,
,,,0.000041230000,   4.00000,
,,,0.000041240000,   4.80000,
,,,0.000041250000,   4.80000,
,,,0.000041260000,   4.80000,
,,,0.000041270000,   4.80000,
,,,0.000041280000,   4.80000,
,,,0.000041290000,   5.60000,
,,,0.000041300000,   4.80000,
,,,0.000041310000,   4.80000,
,,,0.000041320000,   4.80000,
,,,0.000041330000,   4.80000,
,,,0.000041340000,   5.60000,
,,,0.000041350000,   4.80000,
,,,0.000041360000,   5.60000,
,,,0.000041370000,   4.80000,
,,,0.000041380000,   4.00000,
,,,0.000041390000,   4.80000,
,,,0.000041400000,   4.80000,
,,,0.000041410000,   4.80000,
,,,0.000041420000,   5.60000,
,,,0.000041430000,   4.80000,
,,,0.000041440000,   5.60000,
,,,0.000041450000,   4.80000,
,,,0.000041460000,   4.80000,
,,,0.000041470000,   4.80000,
,,,0.000041480000,   5.60000,
,,,0.000041490000,   4.80000,
,,,0.000041500000,   4.80000,
,,,0.000041510000,   5.60000,
,,,0.000041520000,   5.60000,
,,,0.000041530000,   5.60000,
,,,0.000041540000,   4.80000,
,,,0.000041550000,   5.60000,
,,,0.000041560000,   5.60000,
,,,0.000041570000,   5.60000,
,,,0.000041580000,   5.60000,
,,,0.000041590000,   4.80000,
,,,0.000041600000,   4.80000,
,,,0.000041610000,   4.80000,
,,,0.000041620000,   5.60000,
,,,0.000041630000,   4.80000,
,,,0.000041640000,   5.60000,
,,,0.000041650000,   4.80000,
,,,0.000041660000,   5.60000,
,,,0.000041670000,   4.00000,
,,,0.000041680000,   4.80000,
,,,0.000041690000,   5.60000,
,,,0.000041700000,   5.60000,
,,,0.000041710000,   5.60000,
,,,0.000041720000,   5.60000,
,,,0.000041730000,   5.60000,
,,,0.000041740000,   5.60000,
,,,0.000041750000,   5.60000,
,,,0.000041760000,   5.60000,
,,,0.000041770000,   4.80000,
,,,0.000041780000,   6.40000,
,,,0.000041790000,   5.60000,
,,,0.000041800000,   5.60000,
,,,0.000041810000,   5.60000,
,,,0.000041820000,   5.60000,
,,,0.000041830000,   4.80000,
,,,0.000041840000,   4.80000,
,,,0.000041850000,   4.80000,
,,,0.000041860000,   4.80000,
,,,0.000041870000,   4.80000,
,,,0.000041880000,   4.80000,
,,,0.000041890000,   4.80000,
,,,0.000041900000,   4.80000,
,,,0.000041910000,   4.80000,
,,,0.000041920000,   4.00000,
,,,0.000041930000,   4.80000,
,,,0.000041940000,   4.00000,
,,,0.000041950000,   4.80000,
,,,0.000041960000,   4.00000,
,,,0.000041970000,   4.80000,
,,,0.000041980000,   4.80000,
,,,0.000041990000,   4.00000,
,,,0.000042000000,   4.00000,
,,,0.000042010000,   4.00000,
,,,0.000042020000,   4.00000,
,,,0.000042030000,   3.20000,
,,,0.000042040000,   4.00000,
,,,0.000042050000,   3.20000,
,,,0.000042060000,   3.20000,
,,,0.000042070000,   4.00000,
,,,0.000042080000,   4.80000,
,,,0.000042090000,   5.60000,
,,,0.000042100000,   4.80000,
,,,0.000042110000,   5.60000,
,,,0.000042120000,   5.60000,
,,,0.000042130000,   4.80000,
,,,0.000042140000,   5.60000,
,,,0.000042150000,   6.40000,
,,,0.000042160000,   5.60000,
,,,0.000042170000,   6.40000,
,,,0.000042180000,   6.40000,
,,,0.000042190000,   6.40000,
,,,0.000042200000,   5.60000,
,,,0.000042210000,   6.40000,
,,,0.000042220000,   5.60000,
,,,0.000042230000,   5.60000,
,,,0.000042240000,   5.60000,
,,,0.000042250000,   5.60000,
,,,0.000042260000,   5.60000,
,,,0.000042270000,   5.60000,
,,,0.000042280000,   5.60000,
,,,0.000042290000,   5.60000,
,,,0.000042300000,   5.60000,
,,,0.000042310000,   6.40000,
,,,0.000042320000,   4.80000,
,,,0.000042330000,   5.60000,
,,,0.000042340000,   5.60000,
,,,0.000042350000,   5.60000,
,,,0.000042360000,   5.60000,
,,,0.000042370000,   5.60000,
,,,0.000042380000,   6.40000,
,,,0.000042390000,   5.60000,
,,,0.000042400000,   6.40000,
,,,0.000042410000,   6.40000,
,,,0.000042420000,   7.20000,
,,,0.000042430000,   7.20000,
,,,0.000042440000,   5.60000,
,,,0.000042450000,   6.40000,
,,,0.000042460000,   6.40000,
,,,0.000042470000,   6.40000,
,,,0.000042480000,   6.40000,
,,,0.000042490000,   5.60000,
,,,0.000042500000,   5.60000,
,,,0.000042510000,   6.40000,
,,,0.000042520000,   6.40000,
,,,0.000042530000,   6.40000,
,,,0.000042540000,   5.60000,
,,,0.000042550000,   5.60000,
,,,0.000042560000,   6.40000,
,,,0.000042570000,   5.60000,
,,,0.000042580000,   5.60000,
,,,0.000042590000,   4.80000,
,,,0.000042600000,   4.80000,
,,,0.000042610000,   4.80000,
,,,0.000042620000,   4.80000,
,,,0.000042630000,   4.00000,
,,,0.000042640000,   3.20000,
,,,0.000042650000,   3.20000,
,,,0.000042660000,   2.40000,
,,,0.000042670000,   3.20000,
,,,0.000042680000,   2.40000,
,,,0.000042690000,   1.60000,
,,,0.000042700000,   1.60000,
,,,0.000042710000,   2.40000,
,,,0.000042720000,   2.40000,
,,,0.000042730000,   2.40000,
,,,0.000042740000,   2.40000,
,,,0.000042750000,   2.40000,
,,,0.000042760000,   2.40000,
,,,0.000042770000,   2.40000,
,,,0.000042780000,   3.20000,
,,,0.000042790000,   3.20000,
,,,0.000042800000,   3.20000,
,,,0.000042810000,   3.20000,
,,,0.000042820000,   4.00000,
,,,0.000042830000,   4.80000,
,,,0.000042840000,   4.80000,
,,,0.000042850000,   5.60000,
,,,0.000042860000,   4.80000,
,,,0.000042870000,   5.60000,
,,,0.000042880000,   5.60000,
,,,0.000042890000,   5.60000,
,,,0.000042900000,   5.60000,
,,,0.000042910000,   5.60000,
,,,0.000042920000,   5.60000,
,,,0.000042930000,   6.40000,
,,,0.000042940000,   5.60000,
,,,0.000042950000,   5.60000,
,,,0.000042960000,   5.60000,
,,,0.000042970000,   4.80000,
,,,0.000042980000,   4.80000,
,,,0.000042990000,   4.80000,
,,,0.000043000000,   4.00000,
,,,0.000043010000,   4.80000,
,,,0.000043020000,   4.80000,
,,,0.000043030000,   4.80000,
,,,0.000043040000,   3.20000,
,,,0.000043050000,   4.80000,
,,,0.000043060000,   4.80000,
,,,0.000043070000,   4.80000,
,,,0.000043080000,   4.00000,
,,,0.000043090000,   4.80000,
,,,0.000043100000,   4.80000,
,,,0.000043110000,   4.00000,
,,,0.000043120000,   4.00000,
,,,0.000043130000,   4.00000,
,,,0.000043140000,   4.80000,
,,,0.000043150000,   5.60000,
,,,0.000043160000,   5.60000,
,,,0.000043170000,   4.80000,
,,,0.000043180000,   5.60000,
,,,0.000043190000,   4.80000,
,,,0.000043200000,   5.60000,
,,,0.000043210000,   4.80000,
,,,0.000043220000,   4.80000,
,,,0.000043230000,   5.60000,
,,,0.000043240000,   5.60000,
,,,0.000043250000,   4.80000,
,,,0.000043260000,   4.80000,
,,,0.000043270000,   4.80000,
,,,0.000043280000,   4.00000,
,,,0.000043290000,   4.80000,
,,,0.000043300000,   4.80000,
,,,0.000043310000,   5.60000,
,,,0.000043320000,   4.80000,
,,,0.000043330000,   4.80000,
,,,0.000043340000,   4.80000,
,,,0.000043350000,   4.80000,
,,,0.000043360000,   4.80000,
,,,0.000043370000,   4.80000,
,,,0.000043380000,   4.80000,
,,,0.000043390000,   4.80000,
,,,0.000043400000,   5.60000,
,,,0.000043410000,   4.80000,
,,,0.000043420000,   4.80000,
,,,0.000043430000,   4.00000,
,,,0.000043440000,   4.80000,
,,,0.000043450000,   4.80000,
,,,0.000043460000,   4.80000,
,,,0.000043470000,   4.80000,
,,,0.000043480000,   4.00000,
,,,0.000043490000,   4.80000,
,,,0.000043500000,   4.00000,
,,,0.000043510000,   4.80000,
,,,0.000043520000,   4.00000,
,,,0.000043530000,   4.00000,
,,,0.000043540000,   4.80000,
,,,0.000043550000,   4.00000,
,,,0.000043560000,   4.00000,
,,,0.000043570000,   3.20000,
,,,0.000043580000,   4.00000,
,,,0.000043590000,   3.20000,
,,,0.000043600000,   4.00000,
,,,0.000043610000,   3.20000,
,,,0.000043620000,   4.00000,
,,,0.000043630000,   4.00000,
,,,0.000043640000,   3.20000,
,,,0.000043650000,   3.20000,
,,,0.000043660000,   4.00000,
,,,0.000043670000,   3.20000,
,,,0.000043680000,   4.00000,
,,,0.000043690000,   3.20000,
,,,0.000043700000,   2.40000,
,,,0.000043710000,   3.20000,
,,,0.000043720000,   4.00000,
,,,0.000043730000,   3.20000,
,,,0.000043740000,   3.20000,
,,,0.000043750000,   3.20000,
,,,0.000043760000,   3.20000,
,,,0.000043770000,   3.20000,
,,,0.000043780000,   3.20000,
,,,0.000043790000,   3.20000,
,,,0.000043800000,   2.40000,
,,,0.000043810000,   3.20000,
,,,0.000043820000,   2.40000,
,,,0.000043830000,   3.20000,
,,,0.000043840000,   3.20000,
,,,0.000043850000,   3.20000,
,,,0.000043860000,   3.20000,
,,,0.000043870000,   4.00000,
,,,0.000043880000,   3.20000,
,,,0.000043890000,   3.20000,
,,,0.000043900000,   3.20000,
,,,0.000043910000,   4.00000,
,,,0.000043920000,   3.20000,
,,,0.000043930000,   3.20000,
,,,0.000043940000,   3.20000,
,,,0.000043950000,   3.20000,
,,,0.000043960000,   3.20000,
,,,0.000043970000,   3.20000,
,,,0.000043980000,   3.20000,
,,,0.000043990000,   3.20000,
,,,0.000044000000,   2.40000,
,,,0.000044010000,   3.20000,
,,,0.000044020000,   2.40000,
,,,0.000044030000,   2.40000,
,,,0.000044040000,   3.20000,
,,,0.000044050000,   3.20000,
,,,0.000044060000,   3.20000,
,,,0.000044070000,   2.40000,
,,,0.000044080000,   1.60000,
,,,0.000044090000,   3.20000,
,,,0.000044100000,   3.20000,
,,,0.000044110000,   2.40000,
,,,0.000044120000,   2.40000,
,,,0.000044130000,   3.20000,
,,,0.000044140000,   3.20000,
,,,0.000044150000,   3.20000,
,,,0.000044160000,   2.40000,
,,,0.000044170000,   3.20000,
,,,0.000044180000,   2.40000,
,,,0.000044190000,   3.20000,
,,,0.000044200000,   2.40000,
,,,0.000044210000,   1.60000,
,,,0.000044220000,   3.20000,
,,,0.000044230000,   2.40000,
,,,0.000044240000,   2.40000,
,,,0.000044250000,   2.40000,
,,,0.000044260000,   2.40000,
,,,0.000044270000,   2.40000,
,,,0.000044280000,   2.40000,
,,,0.000044290000,   3.20000,
,,,0.000044300000,   1.60000,
,,,0.000044310000,   2.40000,
,,,0.000044320000,   1.60000,
,,,0.000044330000,   1.60000,
,,,0.000044340000,   2.40000,
,,,0.000044350000,   2.40000,
,,,0.000044360000,   1.60000,
,,,0.000044370000,   2.40000,
,,,0.000044380000,   2.40000,
,,,0.000044390000,   2.40000,
,,,0.000044400000,   1.60000,
,,,0.000044410000,   1.60000,
,,,0.000044420000,   1.60000,
,,,0.000044430000,   1.60000,
,,,0.000044440000,   1.60000,
,,,0.000044450000,   1.60000,
,,,0.000044460000,   1.60000,
,,,0.000044470000,   1.60000,
,,,0.000044480000,   1.60000,
,,,0.000044490000,   2.40000,
,,,0.000044500000,   1.60000,
,,,0.000044510000,   1.60000,
,,,0.000044520000,   1.60000,
,,,0.000044530000,   1.60000,
,,,0.000044540000,   2.40000,
,,,0.000044550000,   1.60000,
,,,0.000044560000,   1.60000,
,,,0.000044570000,   1.60000,
,,,0.000044580000,   1.60000,
,,,0.000044590000,   1.60000,
,,,0.000044600000,   1.60000,
,,,0.000044610000,   0.80000,
,,,0.000044620000,   1.60000,
,,,0.000044630000,   0.80000,
,,,0.000044640000,   0.80000,
,,,0.000044650000,   1.60000,
,,,0.000044660000,   1.60000,
,,,0.000044670000,   1.60000,
,,,0.000044680000,   1.60000,
,,,0.000044690000,   0.80000,
,,,0.000044700000,   1.60000,
,,,0.000044710000,   1.60000,
,,,0.000044720000,   1.60000,
,,,0.000044730000,   1.60000,
,,,0.000044740000,   1.60000,
,,,0.000044750000,   0.80000,
,,,0.000044760000,   1.60000,
,,,0.000044770000,   1.60000,
,,,0.000044780000,   1.60000,
,,,0.000044790000,   1.60000,
,,,0.000044800000,   1.60000,
,,,0.000044810000,   0.80000,
,,,0.000044820000,   1.60000,
,,,0.000044830000,   1.60000,
,,,0.000044840000,   0.80000,
,,,0.000044850000,   0.80000,
,,,0.000044860000,   1.60000,
,,,0.000044870000,   0.80000,
,,,0.000044880000,   1.60000,
,,,0.000044890000,   0.80000,
,,,0.000044900000,   1.60000,
,,,0.000044910000,   1.60000,
,,,0.000044920000,   0.80000,
,,,0.000044930000,   1.60000,
,,,0.000044940000,   1.60000,
,,,0.000044950000,   1.60000,
,,,0.000044960000,   0.80000,
,,,0.000044970000,   0.80000,
,,,0.000044980000,   0.00000,
,,,0.000044990000,   1.60000,
,,,0.000045000000,   0.80000,
,,,0.000045010000,   0.80000,
,,,0.000045020000,   0.80000,
,,,0.000045030000,   0.80000,
,,,0.000045040000,   0.80000,
,,,0.000045050000,   0.80000,
,,,0.000045060000,   0.80000,
,,,0.000045070000,   0.00000,
,,,0.000045080000,   0.80000,
,,,0.000045090000,   0.00000,
,,,0.000045100000,   0.80000,
,,,0.000045110000,   0.80000,
,,,0.000045120000,   0.80000,
,,,0.000045130000,   0.80000,
,,,0.000045140000,   0.00000,
,,,0.000045150000,   0.80000,
,,,0.000045160000,   0.00000,
,,,0.000045170000,   0.00000,
,,,0.000045180000,   0.80000,
,,,0.000045190000,   0.80000,
,,,0.000045200000,   0.00000,
,,,0.000045210000,   0.00000,
,,,0.000045220000,   0.00000,
,,,0.000045230000,   0.00000,
,,,0.000045240000,   0.00000,
,,,0.000045250000,   0.00000,
,,,0.000045260000,   0.80000,
,,,0.000045270000,   0.00000,
,,,0.000045280000,   0.00000,
,,,0.000045290000,   0.00000,
,,,0.000045300000,   0.00000,
,,,0.000045310000,  -0.80000,
,,,0.000045320000,  -0.80000,
,,,0.000045330000,   0.00000,
,,,0.000045340000,   0.00000,
,,,0.000045350000,   0.00000,
,,,0.000045360000,   0.00000,
,,,0.000045370000,  -0.80000,
,,,0.000045380000,   0.00000,
,,,0.000045390000,   0.00000,
,,,0.000045400000,   0.00000,
,,,0.000045410000,   0.00000,
,,,0.000045420000,   0.00000,
,,,0.000045430000,   0.00000,
,,,0.000045440000,  -0.80000,
,,,0.000045450000,  -0.80000,
,,,0.000045460000,   0.00000,
,,,0.000045470000,  -0.80000,
,,,0.000045480000,   0.80000,
,,,0.000045490000,  -0.80000,
,,,0.000045500000,   0.00000,
,,,0.000045510000,   0.00000,
,,,0.000045520000,   0.00000,
,,,0.000045530000,   0.00000,
