2 - Experimentos/1 - Ponte de Mosfets/80kHz/6 - 35Ohm_3.19mH/tensao_indutor/F0001MTH.CSV

Record Length,2.500000e+03,,   0.000040300000,  32.80000,
Sample Interval,1.000000e-08,,   0.000040310000,  32.80000,
Trigger Point,-4.030000000000e+03,,   0.000040320000,  33.60000,
,,,   0.000040330000,  32.80000,
,,,   0.000040340000,  32.00000,
,,,   0.000040350000,  32.00000,
Source,MATH,,   0.000040360000,  32.00000,
Vertical Units,V,,   0.000040370000,  31.20000,
Vertical Scale,2.000000e+01,,   0.000040380000,  32.80000,
Vertical Offset,0.000000e+00,,   0.000040390000,  32.80000,
Horizontal Units,s,,   0.000040400000,  34.40000,
Horizontal Scale,2.500000e-06,,   0.000040410000,  32.00000,
Pt Fmt,Y,,   0.000040420000,  32.80000,
Yzero,0.000000e+00,,   0.000040430000,  34.40000,
Probe Atten,1.000000e+00,,   0.000040440000,  33.60000,
Model Number,TDS2004C,,   0.000040450000,  33.60000,
Serial Number,C012246,,   0.000040460000,  33.60000,
Firmware Version,FV:v24.18,,   0.000040470000,  32.80000,
,,,0.000040480000,  32.80000,
,,,0.000040490000,  33.60000,
,,,0.000040500000,  32.00000,
,,,0.000040510000,  32.80000,
,,,0.000040520000,  32.00000,
,,,0.000040530000,  33.60000,
,,,0.000040540000,  33.60000,
,,,0.000040550000,  32.00000,
,,,0.000040560000,  33.60000,
,,,0.000040570000,  33.60000,
,,,0.000040580000,  33.60000,
,,,0.000040590000,  32.80000,
,,,0.000040600000,  33.60000,
,,,0.000040610000,  32.80000,
,,,0.000040620000,  32.80000,
,,,0.000040630000,  34.40000,
,,,0.000040640000,  31.20000,
,,,0.000040650000,  32.00000,
,,,0.000040660000,  32.00000,
,,,0.000040670000,  32.80000,
,,,0.000040680000,  34.40000,
,,,0.000040690000,  32.80000,
,,,0.000040700000,  32.80000,
,,,0.000040710000,  33.60000,
,,,0.000040720000,  34.40000,
,,,0.000040730000,  32.00000,
,,,0.000040740000,  32.80000,
,,,0.000040750000,  31.20000,
,,,0.000040760000,  33.60000,
,,,0.000040770000,  32.80000,
,,,0.000040780000,  32.80000,
,,,0.000040790000,  32.00000,
,,,0.000040800000,  32.80000,
,,,0.000040810000,  32.00000,
,,,0.000040820000,  33.60000,
,,,0.000040830000,  33.60000,
,,,0.000040840000,  31.20000,
,,,0.000040850000,  32.80000,
,,,0.000040860000,  33.60000,
,,,0.000040870000,  32.80000,
,,,0.000040880000,  32.80000,
,,,0.000040890000,  32.80000,
,,,0.000040900000,  32.80000,
,,,0.000040910000,  33.60000,
,,,0.000040920000,  33.60000,
,,,0.000040930000,  32.00000,
,,,0.000040940000,  32.00000,
,,,0.000040950000,  33.60000,
,,,0.000040960000,  32.80000,
,,,0.000040970000,  32.80000,
,,,0.000040980000,  32.00000,
,,,0.000040990000,  32.80000,
,,,0.000041000000,  32.00000,
,,,0.000041010000,  32.00000,
,,,0.000041020000,  34.40000,
,,,0.000041030000,  32.80000,
,,,0.000041040000,  33.60000,
,,,0.000041050000,  32.80000,
,,,0.000041060000,  32.00000,
,,,0.000041070000,  32.00000,
,,,0.000041080000,  32.00000,
,,,0.000041090000,  32.80000,
,,,0.000041100000,  33.60000,
,,,0.000041110000,  34.40000,
,,,0.000041120000,  32.00000,
,,,0.000041130000,  32.80000,
,,,0.000041140000,  34.40000,
,,,0.000041150000,  32.80000,
,,,0.000041160000,  33.60000,
,,,0.000041170000,  33.60000,
,,,0.000041180000,  32.80000,
,,,0.000041190000,  33.60000,
,,,0.000041200000,  33.60000,
,,,0.000041210000,  32.80000,
,,,0.000041220000,  32.80000,
,,,0.000041230000,  32.80000,
,,,0.000041240000,  32.80000,
,,,0.000041250000,  32.00000,
,,,0.000041260000,  32.00000,
,,,0.000041270000,  32.80000,
,,,0.000041280000,  32.80000,
,,,0.000041290000,  32.80000,
,,,0.000041300000,  32.00000,
,,,0.000041310000,  32.00000,
,,,0.000041320000,  33.60000,
,,,0.000041330000,  32.80000,
,,,0.000041340000,  32.00000,
,,,0.000041350000,  32.00000,
,,,0.000041360000,  31.20000,
,,,0.000041370000,  32.80000,
,,,0.000041380000,  32.80000,
,,,0.000041390000,  33.60000,
,,,0.000041400000,  32.80000,
,,,0.000041410000,  32.80000,
,,,0.000041420000,  32.00000,
,,,0.000041430000,  32.00000,
,,,0.000041440000,  32.80000,
,,,0.000041450000,  32.80000,
,,,0.000041460000,  31.20000,
,,,0.000041470000,  31.20000,
,,,0.000041480000,  32.80000,
,,,0.000041490000,  32.80000,
,,,0.000041500000,  32.00000,
,,,0.000041510000,  32.00000,
,,,0.000041520000,  33.60000,
,,,0.000041530000,  32.00000,
,,,0.000041540000,  32.00000,
,,,0.000041550000,  32.00000,
,,,0.000041560000,  32.00000,
,,,0.000041570000,  32.80000,
,,,0.000041580000,  32.80000,
,,,0.000041590000,  32.00000,
,,,0.000041600000,  32.00000,
,,,0.000041610000,  32.00000,
,,,0.000041620000,  33.60000,
,,,0.000041630000,  32.00000,
,,,0.000041640000,  32.00000,
,,,0.000041650000,  31.20000,
,,,0.000041660000,  32.00000,
,,,0.000041670000,  33.60000,
,,,0.000041680000,  32.80000,
,,,0.000041690000,  30.40000,
,,,0.000041700000,  33.60000,
,,,0.000041710000,  32.00000,
,,,0.000041720000,  32.80000,
,,,0.000041730000,  32.80000,
,,,0.000041740000,  32.80000,
,,,0.000041750000,  31.20000,
,,,0.000041760000,  32.00000,
,,,0.000041770000,  32.80000,
,,,0.000041780000,  32.00000,
,,,0.000041790000,  34.40000,
,,,0.000041800000,  31.20000,
,,,0.000041810000,  32.80000,
,,,0.000041820000,  32.80000,
,,,0.000041830000,  32.00000,
,,,0.000041840000,  32.00000,
,,,0.000041850000,  32.00000,
,,,0.000041860000,  32.80000,
,,,0.000041870000,  31.20000,
,,,0.000041880000,  33.60000,
,,,0.000041890000,  32.80000,
,,,0.000041900000,  32.80000,
,,,0.000041910000,  32.00000,
,,,0.000041920000,  32.00000,
,,,0.000041930000,  32.00000,
,,,0.000041940000,  32.00000,
,,,0.000041950000,  32.80000,
,,,0.000041960000,  32.00000,
,,,0.000041970000,  32.00000,
,,,0.000041980000,  32.80000,
,,,0.000041990000,  32.00000,
,,,0.000042000000,  32.00000,
,,,0.000042010000,  31.20000,
,,,0.000042020000,  32.00000,
,,,0.000042030000,  32.80000,
,,,0.000042040000,  32.80000,
,,,0.000042050000,  32.00000,
,,,0.000042060000,  31.20000,
,,,0.000042070000,  32.80000,
,,,0.000042080000,  31.20000,
,,,0.000042090000,  33.60000,
,,,0.000042100000,  32.00000,
,,,0.000042110000,  32.00000,
,,,0.000042120000,  32.00000,
,,,0.000042130000,  32.80000,
,,,0.000042140000,  30.40000,
,,,0.000042150000,  32.00000,
,,,0.000042160000,  31.20000,
,,,0.000042170000,  32.00000,
,,,0.000042180000,  33.60000,
,,,0.000042190000,  32.00000,
,,,0.000042200000,  32.00000,
,,,0.000042210000,  31.20000,
,,,0.000042220000,  32.80000,
,,,0.000042230000,  32.80000,
,,,0.000042240000,  33.60000,
,,,0.000042250000,  32.00000,
,,,0.000042260000,  32.00000,
,,,0.000042270000,  33.60000,
,,,0.000042280000,  32.00000,
,,,0.000042290000,  31.20000,
,,,0.000042300000,  32.00000,
,,,0.000042310000,  31.20000,
,,,0.000042320000,  32.00000,
,,,0.000042330000,  32.00000,
,,,0.000042340000,  32.00000,
,,,0.000042350000,  31.20000,
,,,0.000042360000,  32.80000,
,,,0.000042370000,  32.00000,
,,,0.000042380000,  32.00000,
,,,0.000042390000,  31.20000,
,,,0.000042400000,  31.20000,
,,,0.000042410000,  32.80000,
,,,0.000042420000,  31.20000,
,,,0.000042430000,  32.00000,
,,,0.000042440000,  32.80000,
,,,0.000042450000,  32.80000,
,,,0.000042460000,  31.20000,
,,,0.000042470000,  33.60000,
,,,0.000042480000,  32.80000,
,,,0.000042490000,  31.20000,
,,,0.000042500000,  32.00000,
,,,0.000042510000,  32.80000,
,,,0.000042520000,  32.00000,
,,,0.000042530000,  31.20000,
,,,0.000042540000,  32.80000,
,,,0.000042550000,  33.60000,
,,,0.000042560000,  34.40000,
,,,0.000042570000,  32.00000,
,,,0.000042580000,  33.60000,
,,,0.000042590000,  32.00000,
,,,0.000042600000,  32.80000,
,,,0.000042610000,  32.80000,
,,,0.000042620000,  32.80000,
,,,0.000042630000,  32.00000,
,,,0.000042640000,  33.60000,
,,,0.000042650000,  32.00000,
,,,0.000042660000,  33.60000,
,,,0.000042670000,  32.00000,
,,,0.000042680000,  30.40000,
,,,0.000042690000,  32.00000,
,,,0.000042700000,  31.20000,
,,,0.000042710000,  33.60000,
,,,0.000042720000,  32.00000,
,,,0.000042730000,  32.00000,
,,,0.000042740000,  32.80000,
,,,0.000042750000,  32.00000,
,,,0.000042760000,  32.00000,
,,,0.000042770000,  31.20000,
,,,0.000042780000,  32.00000,
,,,0.000042790000,  31.20000,
,,,0.000042800000,  30.40000,
,,,0.000042810000,  31.20000,
,,,0.000042820000,  30.40000,
,,,0.000042830000,  30.40000,
,,,0.000042840000,  30.40000,
,,,0.000042850000,  31.20000,
,,,0.000042860000,  28.80000,
,,,0.000042870000,  28.00000,
,,,0.000042880000,  28.00000,
,,,0.000042890000,  28.80000,
,,,0.000042900000,  25.60000,
,,,0.000042910000,  26.40000,
,,,0.000042920000,  27.20000,
,,,0.000042930000,  24.80000,
,,,0.000042940000,  24.80000,
,,,0.000042950000,  21.60000,
,,,0.000042960000,  21.60000,
,,,0.000042970000,  21.60000,
,,,0.000042980000,  19.20000,
,,,0.000042990000,  18.40000,
,,,0.000043000000,  15.20000,
,,,0.000043010000,  12.00000,
,,,0.000043020000,  10.40000,
,,,0.000043030000,   8.80000,
,,,0.000043040000,   6.40000,
,,,0.000043050000,   3.20000,
,,,0.000043060000,   1.60000,
,,,0.000043070000,  -0.80000,
,,,0.000043080000,  -1.60000,
,,,0.000043090000,  -4.00000,
,,,0.000043100000,  -3.20000,
,,,0.000043110000,  -5.60000,
,,,0.000043120000,  -5.60000,
,,,0.000043130000,  -5.60000,
,,,0.000043140000,  -6.40000,
,,,0.000043150000,  -6.40000,
,,,0.000043160000,  -5.60000,
,,,0.000043170000,  -5.60000,
,,,0.000043180000,  -6.40000,
,,,0.000043190000,  -6.40000,
,,,0.000043200000,  -7.20000,
,,,0.000043210000,  -5.60000,
,,,0.000043220000,  -5.60000,
,,,0.000043230000,  -6.40000,
,,,0.000043240000,  -6.40000,
,,,0.000043250000,  -8.80000,
,,,0.000043260000,  -6.40000,
,,,0.000043270000,  -7.20000,
,,,0.000043280000,  -7.20000,
,,,0.000043290000,  -6.40000,
,,,0.000043300000,  -7.20000,
,,,0.000043310000,  -6.40000,
,,,0.000043320000,  -7.20000,
,,,0.000043330000,  -7.20000,
,,,0.000043340000,  -8.00000,
,,,0.000043350000,  -8.80000,
,,,0.000043360000,  -8.80000,
,,,0.000043370000,  -6.40000,
,,,0.000043380000,  -8.80000,
,,,0.000043390000,  -8.80000,
,,,0.000043400000,  -8.80000,
,,,0.000043410000,  -6.40000,
,,,0.000043420000,  -6.40000,
,,,0.000043430000,  -7.20000,
,,,0.000043440000,  -6.40000,
,,,0.000043450000,  -6.40000,
,,,0.000043460000,  -5.60000,
,,,0.000043470000,  -4.80000,
,,,0.000043480000,  -3.20000,
,,,0.000043490000,  -6.40000,
,,,0.000043500000,  -4.80000,
,,,0.000043510000,  -4.80000,
,,,0.000043520000,  -4.80000,
,,,0.000043530000,  -3.20000,
,,,0.000043540000,  -3.20000,
,,,0.000043550000,  -4.00000,
,,,0.000043560000,  -4.00000,
,,,0.000043570000,  -3.20000,
,,,0.000043580000,  -4.80000,
,,,0.000043590000,  -3.20000,
,,,0.000043600000,  -3.20000,
,,,0.000043610000,  -5.60000,
,,,0.000043620000,  -5.60000,
,,,0.000043630000,  -6.40000,
,,,0.000043640000,  -8.00000,
,,,0.000043650000,  -8.00000,
,,,0.000043660000,  -8.80000,
,,,0.000043670000, -12.80000,
,,,0.000043680000, -12.80000,
,,,0.000043690000, -16.80000,
,,,0.000043700000, -18.40000,
,,,0.000043710000, -20.80000,
,,,0.000043720000, -20.80000,
,,,0.000043730000, -23.20000,
,,,0.000043740000, -24.00000,
,,,0.000043750000, -26.40000,
,,,0.000043760000, -28.00000,
,,,0.000043770000, -27.20000,
,,,0.000043780000, -28.80000,
,,,0.000043790000, -31.20000,
,,,0.000043800000, -32.00000,
,,,0.000043810000, -32.00000,
,,,0.000043820000, -33.60000,
,,,0.000043830000, -34.40000,
,,,0.000043840000, -33.60000,
,,,0.000043850000, -35.20000,
,,,0.000043860000, -35.20000,
,,,0.000043870000, -33.60000,
,,,0.000043880000, -35.20000,
,,,0.000043890000, -36.00000,
,,,0.000043900000, -35.20000,
,,,0.000043910000, -34.40000,
,,,0.000043920000, -36.00000,
,,,0.000043930000, -35.20000,
,,,0.000043940000, -34.40000,
,,,0.000043950000, -34.40000,
,,,0.000043960000, -33.60000,
,,,0.000043970000, -34.40000,
,,,0.000043980000, -33.60000,
,,,0.000043990000, -33.60000,
,,,0.000044000000, -34.40000,
,,,0.000044010000, -34.40000,
,,,0.000044020000, -34.40000,
,,,0.000044030000, -35.20000,
,,,0.000044040000, -34.40000,
,,,0.000044050000, -35.20000,
,,,0.000044060000, -34.40000,
,,,0.000044070000, -33.60000,
,,,0.000044080000, -35.20000,
,,,0.000044090000, -33.60000,
,,,0.000044100000, -36.00000,
,,,0.000044110000, -35.20000,
,,,0.000044120000, -36.00000,
,,,0.000044130000, -34.40000,
,,,0.000044140000, -35.20000,
,,,0.000044150000, -36.00000,
,,,0.000044160000, -35.20000,
,,,0.000044170000, -36.00000,
,,,0.000044180000, -36.00000,
,,,0.000044190000, -36.00000,
,,,0.000044200000, -35.20000,
,,,0.000044210000, -36.00000,
,,,0.000044220000, -35.20000,
,,,0.000044230000, -33.60000,
,,,0.000044240000, -36.00000,
,,,0.000044250000, -34.40000,
,,,0.000044260000, -34.40000,
,,,0.000044270000, -34.40000,
,,,0.000044280000, -34.40000,
,,,0.000044290000, -35.20000,
,,,0.000044300000, -36.00000,
,,,0.000044310000, -34.40000,
,,,0.000044320000, -34.40000,
,,,0.000044330000, -34.40000,
,,,0.000044340000, -34.40000,
,,,0.000044350000, -35.20000,
,,,0.000044360000, -34.40000,
,,,0.000044370000, -36.00000,
,,,0.000044380000, -36.80000,
,,,0.000044390000, -36.00000,
,,,0.000044400000, -36.00000,
,,,0.000044410000, -35.20000,
,,,0.000044420000, -33.60000,
,,,0.000044430000, -35.20000,
,,,0.000044440000, -36.00000,
,,,0.000044450000, -35.20000,
,,,0.000044460000, -35.20000,
,,,0.000044470000, -35.20000,
,,,0.000044480000, -35.20000,
,,,0.000044490000, -35.20000,
,,,0.000044500000, -36.00000,
,,,0.000044510000, -35.20000,
,,,0.000044520000, -35.20000,
,,,0.000044530000, -34.40000,
,,,0.000044540000, -35.20000,
,,,0.000044550000, -35.20000,
,,,0.000044560000, -36.00000,
,,,0.000044570000, -36.00000,
,,,0.000044580000, -33.60000,
,,,0.000044590000, -35.20000,
,,,0.000044600000, -36.80000,
,,,0.000044610000, -35.20000,
,,,0.000044620000, -35.20000,
,,,0.000044630000, -36.00000,
,,,0.000044640000, -35.20000,
,,,0.000044650000, -34.40000,
,,,0.000044660000, -36.80000,
,,,0.000044670000, -34.40000,
,,,0.000044680000, -34.40000,
,,,0.000044690000, -36.80000,
,,,0.000044700000, -36.00000,
,,,0.000044710000, -36.00000,
,,,0.000044720000, -36.00000,
,,,0.000044730000, -36.00000,
,,,0.000044740000, -35.20000,
,,,0.000044750000, -35.20000,
,,,0.000044760000, -35.20000,
,,,0.000044770000, -35.20000,
,,,0.000044780000, -35.20000,
,,,0.000044790000, -34.40000,
,,,0.000044800000, -34.40000,
,,,0.000044810000, -36.00000,
,,,0.000044820000, -36.00000,
,,,0.000044830000, -35.20000,
,,,0.000044840000, -36.00000,
,,,0.000044850000, -34.40000,
,,,0.000044860000, -35.20000,
,,,0.000044870000, -33.60000,
,,,0.000044880000, -34.40000,
,,,0.000044890000, -35.20000,
,,,0.000044900000, -34.40000,
,,,0.000044910000, -34.40000,
,,,0.000044920000, -35.20000,
,,,0.000044930000, -34.40000,
,,,0.000044940000, -35.20000,
,,,0.000044950000, -34.40000,
,,,0.000044960000, -35.20000,
,,,0.000044970000, -34.40000,
,,,0.000044980000, -35.20000,
,,,0.000044990000, -35.20000,
,,,0.000045000000, -34.40000,
,,,0.000045010000, -33.60000,
,,,0.000045020000, -35.20000,
,,,0.000045030000, -35.20000,
,,,0.000045040000, -34.40000,
,,,0.000045050000, -34.40000,
,,,0.000045060000, -34.40000,
,,,0.000045070000, -35.20000,
,,,0.000045080000, -34.40000,
,,,0.000045090000, -34.40000,
,,,0.000045100000, -35.20000,
,,,0.000045110000, -33.60000,
,,,0.000045120000, -35.20000,
,,,0.000045130000, -33.60000,
,,,0.000045140000, -33.60000,
,,,0.000045150000, -34.40000,
,,,0.000045160000, -36.00000,
,,,0.000045170000, -36.00000,
,,,0.000045180000, -35.20000,
,,,0.000045190000, -34.40000,
,,,0.000045200000, -35.20000,
,,,0.000045210000, -35.20000,
,,,0.000045220000, -34.40000,
,,,0.000045230000, -36.00000,
,,,0.000045240000, -35.20000,
,,,0.000045250000, -34.40000,
,,,0.000045260000, -35.20000,
,,,0.000045270000, -36.00000,
,,,0.000045280000, -35.20000,
,,,0.000045290000, -34.40000,
,,,0.000045300000, -34.40000,
,,,0.000045310000, -34.40000,
,,,0.000045320000, -35.20000,
,,,0.000045330000, -35.20000,
,,,0.000045340000, -35.20000,
,,,0.000045350000, -34.40000,
,,,0.000045360000, -35.20000,
,,,0.000045370000, -35.20000,
,,,0.000045380000, -35.20000,
,,,0.000045390000, -35.20000,
,,,0.000045400000, -34.40000,
,,,0.000045410000, -33.60000,
,,,0.000045420000, -35.20000,
,,,0.000045430000, -35.20000,
,,,0.000045440000, -35.20000,
,,,0.000045450000, -35.20000,
,,,0.000045460000, -35.20000,
,,,0.000045470000, -35.20000,
,,,0.000045480000, -35.20000,
,,,0.000045490000, -36.00000,
,,,0.000045500000, -36.00000,
,,,0.000045510000, -35.20000,
,,,0.000045520000, -33.60000,
,,,0.000045530000, -34.40000,
,,,0.000045540000, -34.40000,
,,,0.000045550000, -34.40000,
,,,0.000045560000, -34.40000,
,,,0.000045570000, -34.40000,
,,,0.000045580000, -33.60000,
,,,0.000045590000, -34.40000,
,,,0.000045600000, -34.40000,
,,,0.000045610000, -35.20000,
,,,0.000045620000, -36.00000,
,,,0.000045630000, -33.60000,
,,,0.000045640000, -35.20000,
,,,0.000045650000, -35.20000,
,,,0.000045660000, -35.20000,
,,,0.000045670000, -34.40000,
,,,0.000045680000, -34.40000,
,,,0.000045690000, -34.40000,
,,,0.000045700000, -34.40000,
,,,0.000045710000, -34.40000,
,,,0.000045720000, -35.20000,
,,,0.000045730000, -36.00000,
,,,0.000045740000, -34.40000,
,,,0.000045750000, -34.40000,
,,,0.000045760000, -34.40000,
,,,0.000045770000, -35.20000,
,,,0.000045780000, -33.60000,
,,,0.000045790000, -34.40000,
,,,0.000045800000, -34.40000,
,,,0.000045810000, -35.20000,
,,,0.000045820000, -34.40000,
,,,0.000045830000, -34.40000,
,,,0.000045840000, -34.40000,
,,,0.000045850000, -35.20000,
,,,0.000045860000, -34.40000,
,,,0.000045870000, -34.40000,
,,,0.000045880000, -35.20000,
,,,0.000045890000, -33.60000,
,,,0.000045900000, -35.20000,
,,,0.000045910000, -33.60000,
,,,0.000045920000, -34.40000,
,,,0.000045930000, -34.40000,
,,,0.000045940000, -34.40000,
,,,0.000045950000, -35.20000,
,,,0.000045960000, -35.20000,
,,,0.000045970000, -34.40000,
,,,0.000045980000, -35.20000,
,,,0.000045990000, -34.40000,
,,,0.000046000000, -35.20000,
,,,0.000046010000, -35.20000,
,,,0.000046020000, -34.40000,
,,,0.000046030000, -35.20000,
,,,0.000046040000, -34.40000,
,,,0.000046050000, -33.60000,
,,,0.000046060000, -33.60000,
,,,0.000046070000, -34.40000,
,,,0.000046080000, -35.20000,
,,,0.000046090000, -33.60000,
,,,0.000046100000, -34.40000,
,,,0.000046110000, -34.40000,
,,,0.000046120000, -33.60000,
,,,0.000046130000, -35.20000,
,,,0.000046140000, -35.20000,
,,,0.000046150000, -34.40000,
,,,0.000046160000, -34.40000,
,,,0.000046170000, -35.20000,
,,,0.000046180000, -32.80000,
,,,0.000046190000, -34.40000,
,,,0.000046200000, -35.20000,
,,,0.000046210000, -35.20000,
,,,0.000046220000, -35.20000,
,,,0.000046230000, -33.60000,
,,,0.000046240000, -34.40000,
,,,0.000046250000, -34.40000,
,,,0.000046260000, -35.20000,
,,,0.000046270000, -32.80000,
,,,0.000046280000, -34.40000,
,,,0.000046290000, -34.40000,
,,,0.000046300000, -35.20000,
,,,0.000046310000, -36.00000,
,,,0.000046320000, -34.40000,
,,,0.000046330000, -34.40000,
,,,0.000046340000, -34.40000,
,,,0.000046350000, -36.00000,
,,,0.000046360000, -33.60000,
,,,0.000046370000, -34.40000,
,,,0.000046380000, -34.40000,
,,,0.000046390000, -34.40000,
,,,0.000046400000, -33.60000,
,,,0.000046410000, -34.40000,
,,,0.000046420000, -35.20000,
,,,0.000046430000, -35.20000,
,,,0.000046440000, -33.60000,
,,,0.000046450000, -34.40000,
,,,0.000046460000, -35.20000,
,,,0.000046470000, -34.40000,
,,,0.000046480000, -33.60000,
,,,0.000046490000, -36.00000,
,,,0.000046500000, -34.40000,
,,,0.000046510000, -33.60000,
,,,0.000046520000, -33.60000,
,,,0.000046530000, -34.40000,
,,,0.000046540000, -35.20000,
,,,0.000046550000, -35.20000,
,,,0.000046560000, -33.60000,
,,,0.000046570000, -34.40000,
,,,0.000046580000, -36.00000,
,,,0.000046590000, -34.40000,
,,,0.000046600000, -34.40000,
,,,0.000046610000, -35.20000,
,,,0.000046620000, -33.60000,
,,,0.000046630000, -34.40000,
,,,0.000046640000, -36.00000,
,,,0.000046650000, -33.60000,
,,,0.000046660000, -33.60000,
,,,0.000046670000, -34.40000,
,,,0.000046680000, -34.40000,
,,,0.000046690000, -35.20000,
,,,0.000046700000, -33.60000,
,,,0.000046710000, -34.40000,
,,,0.000046720000, -35.20000,
,,,0.000046730000, -33.60000,
,,,0.000046740000, -33.60000,
,,,0.000046750000, -33.60000,
,,,0.000046760000, -35.20000,
,,,0.000046770000, -34.40000,
,,,0.000046780000, -34.40000,
,,,0.000046790000, -35.20000,
,,,0.000046800000, -34.40000,
,,,0.000046810000, -33.60000,
,,,0.000046820000, -36.00000,
,,,0.000046830000, -33.60000,
