2 - Experimentos/1 - Ponte de Mosfets/40kHz/7 - 100Ohm_3.19mH/tensão indutor/F0001MTH.CSV

Record Length,2.500000e+03,,   0.000030000000,  32.00000,
Sample Interval,2.000000e-08,,   0.000030020000,  32.80000,
Trigger Point,-1.500000000000e+03,,   0.000030040000,  32.00000,
,,,   0.000030060000,  32.80000,
,,,   0.000030080000,  32.00000,
,,,   0.000030100000,  32.00000,
Source,MATH,,   0.000030120000,  32.00000,
Vertical Units,V,,   0.000030140000,  32.00000,
Vertical Scale,2.000000e+01,,   0.000030160000,  32.00000,
Vertical Offset,0.000000e+00,,   0.000030180000,  32.00000,
Horizontal Units,s,,   0.000030200000,  32.80000,
Horizontal Scale,5.000000e-06,,   0.000030220000,  32.00000,
Pt Fmt,Y,,   0.000030240000,  32.00000,
Yzero,0.000000e+00,,   0.000030260000,  32.80000,
Probe Atten,1.000000e+00,,   0.000030280000,  32.00000,
Model Number,TDS2004C,,   0.000030300000,  32.00000,
Serial Number,C012246,,   0.000030320000,  32.80000,
Firmware Version,FV:v24.18,,   0.000030340000,  32.80000,
,,,0.000030360000,  32.00000,
,,,0.000030380000,  31.20000,
,,,0.000030400000,  32.00000,
,,,0.000030420000,  32.00000,
,,,0.000030440000,  32.00000,
,,,0.000030460000,  32.00000,
,,,0.000030480000,  32.80000,
,,,0.000030500000,  32.00000,
,,,0.000030520000,  32.00000,
,,,0.000030540000,  32.00000,
,,,0.000030560000,  31.20000,
,,,0.000030580000,  32.00000,
,,,0.000030600000,  31.20000,
,,,0.000030620000,  32.00000,
,,,0.000030640000,  32.00000,
,,,0.000030660000,  31.20000,
,,,0.000030680000,  31.20000,
,,,0.000030700000,  31.20000,
,,,0.000030720000,  31.20000,
,,,0.000030740000,  32.00000,
,,,0.000030760000,  32.00000,
,,,0.000030780000,  31.20000,
,,,0.000030800000,  31.20000,
,,,0.000030820000,  32.00000,
,,,0.000030840000,  31.20000,
,,,0.000030860000,  32.00000,
,,,0.000030880000,  32.00000,
,,,0.000030900000,  31.20000,
,,,0.000030920000,  32.00000,
,,,0.000030940000,  31.20000,
,,,0.000030960000,  32.80000,
,,,0.000030980000,  31.20000,
,,,0.000031000000,  31.20000,
,,,0.000031020000,  31.20000,
,,,0.000031040000,  31.20000,
,,,0.000031060000,  31.20000,
,,,0.000031080000,  31.20000,
,,,0.000031100000,  31.20000,
,,,0.000031120000,  31.20000,
,,,0.000031140000,  31.20000,
,,,0.000031160000,  31.20000,
,,,0.000031180000,  31.20000,
,,,0.000031200000,  32.00000,
,,,0.000031220000,  31.20000,
,,,0.000031240000,  32.00000,
,,,0.000031260000,  30.40000,
,,,0.000031280000,  31.20000,
,,,0.000031300000,  31.20000,
,,,0.000031320000,  30.40000,
,,,0.000031340000,  31.20000,
,,,0.000031360000,  31.20000,
,,,0.000031380000,  30.40000,
,,,0.000031400000,  31.20000,
,,,0.000031420000,  30.40000,
,,,0.000031440000,  30.40000,
,,,0.000031460000,  31.20000,
,,,0.000031480000,  30.40000,
,,,0.000031500000,  30.40000,
,,,0.000031520000,  31.20000,
,,,0.000031540000,  30.40000,
,,,0.000031560000,  30.40000,
,,,0.000031580000,  30.40000,
,,,0.000031600000,  31.20000,
,,,0.000031620000,  31.20000,
,,,0.000031640000,  31.20000,
,,,0.000031660000,  30.40000,
,,,0.000031680000,  31.20000,
,,,0.000031700000,  31.20000,
,,,0.000031720000,  30.40000,
,,,0.000031740000,  31.20000,
,,,0.000031760000,  31.20000,
,,,0.000031780000,  31.20000,
,,,0.000031800000,  30.40000,
,,,0.000031820000,  31.20000,
,,,0.000031840000,  30.40000,
,,,0.000031860000,  29.60000,
,,,0.000031880000,  30.40000,
,,,0.000031900000,  31.20000,
,,,0.000031920000,  30.40000,
,,,0.000031940000,  30.40000,
,,,0.000031960000,  30.40000,
,,,0.000031980000,  30.40000,
,,,0.000032000000,  30.40000,
,,,0.000032020000,  30.40000,
,,,0.000032040000,  30.40000,
,,,0.000032060000,  30.40000,
,,,0.000032080000,  31.20000,
,,,0.000032100000,  30.40000,
,,,0.000032120000,  30.40000,
,,,0.000032140000,  30.40000,
,,,0.000032160000,  29.60000,
,,,0.000032180000,  30.40000,
,,,0.000032200000,  31.20000,
,,,0.000032220000,  30.40000,
,,,0.000032240000,  30.40000,
,,,0.000032260000,  30.40000,
,,,0.000032280000,  31.20000,
,,,0.000032300000,  30.40000,
,,,0.000032320000,  30.40000,
,,,0.000032340000,  29.60000,
,,,0.000032360000,  29.60000,
,,,0.000032380000,  30.40000,
,,,0.000032400000,  30.40000,
,,,0.000032420000,  30.40000,
,,,0.000032440000,  30.40000,
,,,0.000032460000,  30.40000,
,,,0.000032480000,  29.60000,
,,,0.000032500000,  30.40000,
,,,0.000032520000,  29.60000,
,,,0.000032540000,  30.40000,
,,,0.000032560000,  30.40000,
,,,0.000032580000,  29.60000,
,,,0.000032600000,  29.60000,
,,,0.000032620000,  29.60000,
,,,0.000032640000,  29.60000,
,,,0.000032660000,  29.60000,
,,,0.000032680000,  29.60000,
,,,0.000032700000,  30.40000,
,,,0.000032720000,  29.60000,
,,,0.000032740000,  30.40000,
,,,0.000032760000,  29.60000,
,,,0.000032780000,  29.60000,
,,,0.000032800000,  29.60000,
,,,0.000032820000,  29.60000,
,,,0.000032840000,  29.60000,
,,,0.000032860000,  30.40000,
,,,0.000032880000,  29.60000,
,,,0.000032900000,  29.60000,
,,,0.000032920000,  29.60000,
,,,0.000032940000,  30.40000,
,,,0.000032960000,  29.60000,
,,,0.000032980000,  29.60000,
,,,0.000033000000,  28.80000,
,,,0.000033020000,  29.60000,
,,,0.000033040000,  29.60000,
,,,0.000033060000,  30.40000,
,,,0.000033080000,  28.80000,
,,,0.000033100000,  29.60000,
,,,0.000033120000,  29.60000,
,,,0.000033140000,  30.40000,
,,,0.000033160000,  28.80000,
,,,0.000033180000,  29.60000,
,,,0.000033200000,  28.80000,
,,,0.000033220000,  30.40000,
,,,0.000033240000,  29.60000,
,,,0.000033260000,  28.80000,
,,,0.000033280000,  29.60000,
,,,0.000033300000,  29.60000,
,,,0.000033320000,  28.80000,
,,,0.000033340000,  28.80000,
,,,0.000033360000,  29.60000,
,,,0.000033380000,  28.80000,
,,,0.000033400000,  29.60000,
,,,0.000033420000,  29.60000,
,,,0.000033440000,  29.60000,
,,,0.000033460000,  28.80000,
,,,0.000033480000,  29.60000,
,,,0.000033500000,  28.80000,
,,,0.000033520000,  29.60000,
,,,0.000033540000,  29.60000,
,,,0.000033560000,  28.80000,
,,,0.000033580000,  29.60000,
,,,0.000033600000,  30.40000,
,,,0.000033620000,  29.60000,
,,,0.000033640000,  28.80000,
,,,0.000033660000,  29.60000,
,,,0.000033680000,  28.80000,
,,,0.000033700000,  28.80000,
,,,0.000033720000,  28.80000,
,,,0.000033740000,  29.60000,
,,,0.000033760000,  29.60000,
,,,0.000033780000,  28.80000,
,,,0.000033800000,  29.60000,
,,,0.000033820000,  29.60000,
,,,0.000033840000,  28.80000,
,,,0.000033860000,  28.80000,
,,,0.000033880000,  28.80000,
,,,0.000033900000,  28.80000,
,,,0.000033920000,  28.80000,
,,,0.000033940000,  28.80000,
,,,0.000033960000,  28.80000,
,,,0.000033980000,  29.60000,
,,,0.000034000000,  28.80000,
,,,0.000034020000,  28.00000,
,,,0.000034040000,  28.80000,
,,,0.000034060000,  28.80000,
,,,0.000034080000,  28.00000,
,,,0.000034100000,  28.00000,
,,,0.000034120000,  28.80000,
,,,0.000034140000,  28.80000,
,,,0.000034160000,  28.80000,
,,,0.000034180000,  28.80000,
,,,0.000034200000,  28.00000,
,,,0.000034220000,  28.80000,
,,,0.000034240000,  28.80000,
,,,0.000034260000,  28.80000,
,,,0.000034280000,  28.80000,
,,,0.000034300000,  28.00000,
,,,0.000034320000,  28.80000,
,,,0.000034340000,  28.80000,
,,,0.000034360000,  28.80000,
,,,0.000034380000,  28.00000,
,,,0.000034400000,  28.80000,
,,,0.000034420000,  28.00000,
,,,0.000034440000,  28.80000,
,,,0.000034460000,  28.00000,
,,,0.000034480000,  28.80000,
,,,0.000034500000,  28.80000,
,,,0.000034520000,  28.00000,
,,,0.000034540000,  28.00000,
,,,0.000034560000,  28.80000,
,,,0.000034580000,  28.00000,
,,,0.000034600000,  28.00000,
,,,0.000034620000,  28.80000,
,,,0.000034640000,  28.80000,
,,,0.000034660000,  27.20000,
,,,0.000034680000,  28.00000,
,,,0.000034700000,  28.00000,
,,,0.000034720000,  28.80000,
,,,0.000034740000,  28.00000,
,,,0.000034760000,  28.80000,
,,,0.000034780000,  28.00000,
,,,0.000034800000,  28.00000,
,,,0.000034820000,  28.00000,
,,,0.000034840000,  28.00000,
,,,0.000034860000,  28.00000,
,,,0.000034880000,  28.00000,
,,,0.000034900000,  27.20000,
,,,0.000034920000,  28.00000,
,,,0.000034940000,  27.20000,
,,,0.000034960000,  28.80000,
,,,0.000034980000,  28.00000,
,,,0.000035000000,  28.00000,
,,,0.000035020000,  28.00000,
,,,0.000035040000,  28.00000,
,,,0.000035060000,  28.00000,
,,,0.000035080000,  27.20000,
,,,0.000035100000,  28.00000,
,,,0.000035120000,  28.00000,
,,,0.000035140000,  28.80000,
,,,0.000035160000,  27.20000,
,,,0.000035180000,  27.20000,
,,,0.000035200000,  28.00000,
,,,0.000035220000,  27.20000,
,,,0.000035240000,  28.00000,
,,,0.000035260000,  27.20000,
,,,0.000035280000,  27.20000,
,,,0.000035300000,  27.20000,
,,,0.000035320000,  28.00000,
,,,0.000035340000,  27.20000,
,,,0.000035360000,  28.80000,
,,,0.000035380000,  27.20000,
,,,0.000035400000,  28.00000,
,,,0.000035420000,  28.00000,
,,,0.000035440000,  27.20000,
,,,0.000035460000,  27.20000,
,,,0.000035480000,  28.00000,
,,,0.000035500000,  27.20000,
,,,0.000035520000,  28.00000,
,,,0.000035540000,  28.00000,
,,,0.000035560000,  27.20000,
,,,0.000035580000,  27.20000,
,,,0.000035600000,  28.00000,
,,,0.000035620000,  26.40000,
,,,0.000035640000,  27.20000,
,,,0.000035660000,  27.20000,
,,,0.000035680000,  27.20000,
,,,0.000035700000,  27.20000,
,,,0.000035720000,  27.20000,
,,,0.000035740000,  27.20000,
,,,0.000035760000,  28.00000,
,,,0.000035780000,  28.00000,
,,,0.000035800000,  28.00000,
,,,0.000035820000,  28.00000,
,,,0.000035840000,  27.20000,
,,,0.000035860000,  27.20000,
,,,0.000035880000,  27.20000,
,,,0.000035900000,  28.00000,
,,,0.000035920000,  27.20000,
,,,0.000035940000,  27.20000,
,,,0.000035960000,  26.40000,
,,,0.000035980000,  27.20000,
,,,0.000036000000,  27.20000,
,,,0.000036020000,  26.40000,
,,,0.000036040000,  26.40000,
,,,0.000036060000,  27.20000,
,,,0.000036080000,  25.60000,
,,,0.000036100000,  25.60000,
,,,0.000036120000,  24.80000,
,,,0.000036140000,  24.80000,
,,,0.000036160000,  23.20000,
,,,0.000036180000,  21.60000,
,,,0.000036200000,  20.00000,
,,,0.000036220000,  18.40000,
,,,0.000036240000,  16.00000,
,,,0.000036260000,  12.80000,
,,,0.000036280000,   8.00000,
,,,0.000036300000,   3.20000,
,,,0.000036320000,  -2.40000,
,,,0.000036340000,  -8.00000,
,,,0.000036360000, -12.00000,
,,,0.000036380000, -12.80000,
,,,0.000036400000, -13.60000,
,,,0.000036420000, -12.80000,
,,,0.000036440000, -12.00000,
,,,0.000036460000, -11.20000,
,,,0.000036480000, -11.20000,
,,,0.000036500000, -11.20000,
,,,0.000036520000, -12.00000,
,,,0.000036540000, -12.00000,
,,,0.000036560000, -12.80000,
,,,0.000036580000, -13.60000,
,,,0.000036600000, -14.40000,
,,,0.000036620000, -14.40000,
,,,0.000036640000, -14.40000,
,,,0.000036660000, -14.40000,
,,,0.000036680000, -14.40000,
,,,0.000036700000, -13.60000,
,,,0.000036720000, -12.80000,
,,,0.000036740000, -12.00000,
,,,0.000036760000, -12.00000,
,,,0.000036780000, -10.40000,
,,,0.000036800000,  -9.60000,
,,,0.000036820000,  -9.60000,
,,,0.000036840000,  -9.60000,
,,,0.000036860000,  -9.60000,
,,,0.000036880000, -12.00000,
,,,0.000036900000, -16.00000,
,,,0.000036920000, -20.00000,
,,,0.000036940000, -22.40000,
,,,0.000036960000, -25.60000,
,,,0.000036980000, -28.80000,
,,,0.000037000000, -32.80000,
,,,0.000037020000, -36.80000,
,,,0.000037040000, -38.40000,
,,,0.000037060000, -39.20000,
,,,0.000037080000, -40.80000,
,,,0.000037100000, -40.80000,
,,,0.000037120000, -40.80000,
,,,0.000037140000, -39.20000,
,,,0.000037160000, -38.40000,
,,,0.000037180000, -37.60000,
,,,0.000037200000, -37.60000,
,,,0.000037220000, -36.80000,
,,,0.000037240000, -36.80000,
,,,0.000037260000, -36.80000,
,,,0.000037280000, -36.80000,
,,,0.000037300000, -37.60000,
,,,0.000037320000, -38.40000,
,,,0.000037340000, -38.40000,
,,,0.000037360000, -38.40000,
,,,0.000037380000, -38.40000,
,,,0.000037400000, -39.20000,
,,,0.000037420000, -39.20000,
,,,0.000037440000, -40.00000,
,,,0.000037460000, -39.20000,
,,,0.000037480000, -38.40000,
,,,0.000037500000, -37.60000,
,,,0.000037520000, -38.40000,
,,,0.000037540000, -37.60000,
,,,0.000037560000, -37.60000,
,,,0.000037580000, -38.40000,
,,,0.000037600000, -37.60000,
,,,0.000037620000, -37.60000,
,,,0.000037640000, -38.40000,
,,,0.000037660000, -37.60000,
,,,0.000037680000, -38.40000,
,,,0.000037700000, -37.60000,
,,,0.000037720000, -38.40000,
,,,0.000037740000, -37.60000,
,,,0.000037760000, -38.40000,
,,,0.000037780000, -37.60000,
,,,0.000037800000, -38.40000,
,,,0.000037820000, -37.60000,
,,,0.000037840000, -37.60000,
,,,0.000037860000, -38.40000,
,,,0.000037880000, -36.80000,
,,,0.000037900000, -37.60000,
,,,0.000037920000, -37.60000,
,,,0.000037940000, -38.40000,
,,,0.000037960000, -37.60000,
,,,0.000037980000, -37.60000,
,,,0.000038000000, -37.60000,
,,,0.000038020000, -36.80000,
,,,0.000038040000, -38.40000,
,,,0.000038060000, -37.60000,
,,,0.000038080000, -36.80000,
,,,0.000038100000, -37.60000,
,,,0.000038120000, -37.60000,
,,,0.000038140000, -38.40000,
,,,0.000038160000, -37.60000,
,,,0.000038180000, -37.60000,
,,,0.000038200000, -37.60000,
,,,0.000038220000, -37.60000,
,,,0.000038240000, -37.60000,
,,,0.000038260000, -37.60000,
,,,0.000038280000, -36.80000,
,,,0.000038300000, -37.60000,
,,,0.000038320000, -37.60000,
,,,0.000038340000, -37.60000,
,,,0.000038360000, -37.60000,
,,,0.000038380000, -37.60000,
,,,0.000038400000, -37.60000,
,,,0.000038420000, -36.80000,
,,,0.000038440000, -36.80000,
,,,0.000038460000, -36.80000,
,,,0.000038480000, -36.80000,
,,,0.000038500000, -36.80000,
,,,0.000038520000, -36.80000,
,,,0.000038540000, -36.80000,
,,,0.000038560000, -36.80000,
,,,0.000038580000, -37.60000,
,,,0.000038600000, -37.60000,
,,,0.000038620000, -36.80000,
,,,0.000038640000, -37.60000,
,,,0.000038660000, -36.80000,
,,,0.000038680000, -36.80000,
,,,0.000038700000, -37.60000,
,,,0.000038720000, -36.80000,
,,,0.000038740000, -37.60000,
,,,0.000038760000, -37.60000,
,,,0.000038780000, -36.80000,
,,,0.000038800000, -36.80000,
,,,0.000038820000, -36.80000,
,,,0.000038840000, -36.80000,
,,,0.000038860000, -36.80000,
,,,0.000038880000, -36.80000,
,,,0.000038900000, -36.80000,
,,,0.000038920000, -36.80000,
,,,0.000038940000, -36.80000,
,,,0.000038960000, -36.00000,
,,,0.000038980000, -36.80000,
,,,0.000039000000, -36.00000,
,,,0.000039020000, -36.80000,
,,,0.000039040000, -36.00000,
,,,0.000039060000, -36.80000,
,,,0.000039080000, -36.00000,
,,,0.000039100000, -36.00000,
,,,0.000039120000, -36.00000,
,,,0.000039140000, -36.00000,
,,,0.000039160000, -35.20000,
,,,0.000039180000, -36.00000,
,,,0.000039200000, -36.00000,
,,,0.000039220000, -36.00000,
,,,0.000039240000, -36.80000,
,,,0.000039260000, -36.00000,
,,,0.000039280000, -36.80000,
,,,0.000039300000, -36.80000,
,,,0.000039320000, -36.00000,
,,,0.000039340000, -36.00000,
,,,0.000039360000, -36.00000,
,,,0.000039380000, -36.00000,
,,,0.000039400000, -36.00000,
,,,0.000039420000, -36.00000,
,,,0.000039440000, -35.20000,
,,,0.000039460000, -36.80000,
,,,0.000039480000, -35.20000,
,,,0.000039500000, -36.80000,
,,,0.000039520000, -36.80000,
,,,0.000039540000, -36.00000,
,,,0.000039560000, -36.00000,
,,,0.000039580000, -36.00000,
,,,0.000039600000, -36.00000,
,,,0.000039620000, -36.00000,
,,,0.000039640000, -36.00000,
,,,0.000039660000, -36.00000,
,,,0.000039680000, -36.00000,
,,,0.000039700000, -35.20000,
,,,0.000039720000, -36.00000,
,,,0.000039740000, -36.00000,
,,,0.000039760000, -35.20000,
,,,0.000039780000, -36.00000,
,,,0.000039800000, -36.00000,
,,,0.000039820000, -36.00000,
,,,0.000039840000, -36.00000,
,,,0.000039860000, -35.20000,
,,,0.000039880000, -36.00000,
,,,0.000039900000, -35.20000,
,,,0.000039920000, -36.80000,
,,,0.000039940000, -36.00000,
,,,0.000039960000, -35.20000,
,,,0.000039980000, -36.00000,
,,,0.000040000000, -35.20000,
,,,0.000040020000, -35.20000,
,,,0.000040040000, -36.00000,
,,,0.000040060000, -35.20000,
,,,0.000040080000, -35.20000,
,,,0.000040100000, -36.00000,
,,,0.000040120000, -35.20000,
,,,0.000040140000, -35.20000,
,,,0.000040160000, -36.00000,
,,,0.000040180000, -36.00000,
,,,0.000040200000, -34.40000,
,,,0.000040220000, -34.40000,
,,,0.000040240000, -35.20000,
,,,0.000040260000, -35.20000,
,,,0.000040280000, -36.00000,
,,,0.000040300000, -35.20000,
,,,0.000040320000, -35.20000,
,,,0.000040340000, -36.00000,
,,,0.000040360000, -36.00000,
,,,0.000040380000, -36.00000,
,,,0.000040400000, -35.20000,
,,,0.000040420000, -34.40000,
,,,0.000040440000, -35.20000,
,,,0.000040460000, -35.20000,
,,,0.000040480000, -34.40000,
,,,0.000040500000, -35.20000,
,,,0.000040520000, -34.40000,
,,,0.000040540000, -34.40000,
,,,0.000040560000, -35.20000,
,,,0.000040580000, -35.20000,
,,,0.000040600000, -35.20000,
,,,0.000040620000, -34.40000,
,,,0.000040640000, -34.40000,
,,,0.000040660000, -34.40000,
,,,0.000040680000, -35.20000,
,,,0.000040700000, -35.20000,
,,,0.000040720000, -35.20000,
,,,0.000040740000, -35.20000,
,,,0.000040760000, -34.40000,
,,,0.000040780000, -35.20000,
,,,0.000040800000, -35.20000,
,,,0.000040820000, -34.40000,
,,,0.000040840000, -35.20000,
,,,0.000040860000, -34.40000,
,,,0.000040880000, -34.40000,
,,,0.000040900000, -34.40000,
,,,0.000040920000, -34.40000,
,,,0.000040940000, -34.40000,
,,,0.000040960000, -34.40000,
,,,0.000040980000, -34.40000,
,,,0.000041000000, -35.20000,
,,,0.000041020000, -34.40000,
,,,0.000041040000, -34.40000,
,,,0.000041060000, -34.40000,
,,,0.000041080000, -34.40000,
,,,0.000041100000, -34.40000,
,,,0.000041120000, -35.20000,
,,,0.000041140000, -34.40000,
,,,0.000041160000, -35.20000,
,,,0.000041180000, -34.40000,
,,,0.000041200000, -34.40000,
,,,0.000041220000, -34.40000,
,,,0.000041240000, -34.40000,
,,,0.000041260000, -34.40000,
,,,0.000041280000, -33.60000,
,,,0.000041300000, -33.60000,
,,,0.000041320000, -34.40000,
,,,0.000041340000, -33.60000,
,,,0.000041360000, -34.40000,
,,,0.000041380000, -34.40000,
,,,0.000041400000, -34.40000,
,,,0.000041420000, -34.40000,
,,,0.000041440000, -34.40000,
,,,0.000041460000, -33.60000,
,,,0.000041480000, -34.40000,
,,,0.000041500000, -34.40000,
,,,0.000041520000, -34.40000,
,,,0.000041540000, -33.60000,
,,,0.000041560000, -34.40000,
,,,0.000041580000, -34.40000,
,,,0.000041600000, -33.60000,
,,,0.000041620000, -34.40000,
,,,0.000041640000, -34.40000,
,,,0.000041660000, -33.60000,
,,,0.000041680000, -33.60000,
,,,0.000041700000, -34.40000,
,,,0.000041720000, -33.60000,
,,,0.000041740000, -33.60000,
,,,0.000041760000, -33.60000,
,,,0.000041780000, -33.60000,
,,,0.000041800000, -34.40000,
,,,0.000041820000, -33.60000,
,,,0.000041840000, -33.60000,
,,,0.000041860000, -33.60000,
,,,0.000041880000, -33.60000,
,,,0.000041900000, -33.60000,
,,,0.000041920000, -33.60000,
,,,0.000041940000, -33.60000,
,,,0.000041960000, -32.80000,
,,,0.000041980000, -33.60000,
,,,0.000042000000, -33.60000,
,,,0.000042020000, -33.60000,
,,,0.000042040000, -33.60000,
,,,0.000042060000, -33.60000,
,,,0.000042080000, -33.60000,
,,,0.000042100000, -33.60000,
,,,0.000042120000, -34.40000,
,,,0.000042140000, -33.60000,
,,,0.000042160000, -33.60000,
,,,0.000042180000, -33.60000,
,,,0.000042200000, -33.60000,
,,,0.000042220000, -32.80000,
,,,0.000042240000, -33.60000,
,,,0.000042260000, -32.80000,
,,,0.000042280000, -33.60000,
,,,0.000042300000, -32.80000,
,,,0.000042320000, -32.80000,
,,,0.000042340000, -33.60000,
,,,0.000042360000, -32.80000,
,,,0.000042380000, -32.80000,
,,,0.000042400000, -32.80000,
,,,0.000042420000, -32.80000,
,,,0.000042440000, -32.80000,
,,,0.000042460000, -32.80000,
,,,0.000042480000, -32.80000,
,,,0.000042500000, -32.80000,
,,,0.000042520000, -32.80000,
,,,0.000042540000, -33.60000,
,,,0.000042560000, -32.80000,
,,,0.000042580000, -33.60000,
,,,0.000042600000, -33.60000,
,,,0.000042620000, -32.80000,
,,,0.000042640000, -33.60000,
,,,0.000042660000, -33.60000,
,,,0.000042680000, -32.80000,
,,,0.000042700000, -32.80000,
,,,0.000042720000, -33.60000,
,,,0.000042740000, -32.80000,
,,,0.000042760000, -32.00000,
,,,0.000042780000, -32.80000,
,,,0.000042800000, -32.80000,
,,,0.000042820000, -32.80000,
,,,0.000042840000, -32.80000,
,,,0.000042860000, -32.80000,
,,,0.000042880000, -32.00000,
,,,0.000042900000, -32.80000,
,,,0.000042920000, -32.80000,
,,,0.000042940000, -33.60000,
,,,0.000042960000, -32.00000,
,,,0.000042980000, -32.80000,
,,,0.000043000000, -32.80000,
,,,0.000043020000, -32.80000,
,,,0.000043040000, -32.80000,
,,,0.000043060000, -32.80000,
