2 - Experimentos/1 - Ponte de Mosfets/80kHz/10 - 490Ohm_1.52mH/tensão indutor/F0001MTH.CSV

Record Length,2.500000e+03,,   0.000039000000,  24.80000,
Sample Interval,1.000000e-08,,   0.000039010000,  25.60000,
Trigger Point,-3.900000000000e+03,,   0.000039020000,  25.60000,
,,,   0.000039030000,  24.80000,
,,,   0.000039040000,  24.80000,
,,,   0.000039050000,  24.00000,
Source,MATH,,   0.000039060000,  24.80000,
Vertical Units,V,,   0.000039070000,  24.80000,
Vertical Scale,2.000000e+01,,   0.000039080000,  24.80000,
Vertical Offset,0.000000e+00,,   0.000039090000,  23.20000,
Horizontal Units,s,,   0.000039100000,  24.80000,
Horizontal Scale,2.500000e-06,,   0.000039110000,  24.00000,
Pt Fmt,Y,,   0.000039120000,  24.00000,
Yzero,0.000000e+00,,   0.000039130000,  23.20000,
Probe Atten,1.000000e+00,,   0.000039140000,  24.00000,
Model Number,TDS2004C,,   0.000039150000,  24.00000,
Serial Number,C012246,,   0.000039160000,  23.20000,
Firmware Version,FV:v24.18,,   0.000039170000,  24.00000,
,,,0.000039180000,  24.00000,
,,,0.000039190000,  23.20000,
,,,0.000039200000,  24.00000,
,,,0.000039210000,  23.20000,
,,,0.000039220000,  23.20000,
,,,0.000039230000,  23.20000,
,,,0.000039240000,  22.40000,
,,,0.000039250000,  23.20000,
,,,0.000039260000,  22.40000,
,,,0.000039270000,  21.60000,
,,,0.000039280000,  21.60000,
,,,0.000039290000,  22.40000,
,,,0.000039300000,  23.20000,
,,,0.000039310000,  21.60000,
,,,0.000039320000,  21.60000,
,,,0.000039330000,  22.40000,
,,,0.000039340000,  22.40000,
,,,0.000039350000,  21.60000,
,,,0.000039360000,  21.60000,
,,,0.000039370000,  21.60000,
,,,0.000039380000,  21.60000,
,,,0.000039390000,  20.80000,
,,,0.000039400000,  21.60000,
,,,0.000039410000,  20.80000,
,,,0.000039420000,  20.80000,
,,,0.000039430000,  21.60000,
,,,0.000039440000,  20.80000,
,,,0.000039450000,  20.00000,
,,,0.000039460000,  20.80000,
,,,0.000039470000,  20.00000,
,,,0.000039480000,  20.00000,
,,,0.000039490000,  20.80000,
,,,0.000039500000,  20.80000,
,,,0.000039510000,  20.80000,
,,,0.000039520000,  20.00000,
,,,0.000039530000,  20.80000,
,,,0.000039540000,  20.80000,
,,,0.000039550000,  20.00000,
,,,0.000039560000,  20.80000,
,,,0.000039570000,  20.80000,
,,,0.000039580000,  20.80000,
,,,0.000039590000,  20.00000,
,,,0.000039600000,  20.80000,
,,,0.000039610000,  20.00000,
,,,0.000039620000,  20.00000,
,,,0.000039630000,  20.00000,
,,,0.000039640000,  20.00000,
,,,0.000039650000,  20.00000,
,,,0.000039660000,  19.20000,
,,,0.000039670000,  20.00000,
,,,0.000039680000,  20.00000,
,,,0.000039690000,  20.00000,
,,,0.000039700000,  19.20000,
,,,0.000039710000,  19.20000,
,,,0.000039720000,  19.20000,
,,,0.000039730000,  20.80000,
,,,0.000039740000,  20.00000,
,,,0.000039750000,  19.20000,
,,,0.000039760000,  20.00000,
,,,0.000039770000,  19.20000,
,,,0.000039780000,  19.20000,
,,,0.000039790000,  19.20000,
,,,0.000039800000,  19.20000,
,,,0.000039810000,  20.00000,
,,,0.000039820000,  18.40000,
,,,0.000039830000,  19.20000,
,,,0.000039840000,  20.00000,
,,,0.000039850000,  19.20000,
,,,0.000039860000,  19.20000,
,,,0.000039870000,  18.40000,
,,,0.000039880000,  18.40000,
,,,0.000039890000,  19.20000,
,,,0.000039900000,  19.20000,
,,,0.000039910000,  20.00000,
,,,0.000039920000,  18.40000,
,,,0.000039930000,  18.40000,
,,,0.000039940000,  18.40000,
,,,0.000039950000,  19.20000,
,,,0.000039960000,  19.20000,
,,,0.000039970000,  17.60000,
,,,0.000039980000,  18.40000,
,,,0.000039990000,  17.60000,
,,,0.000040000000,  18.40000,
,,,0.000040010000,  17.60000,
,,,0.000040020000,  17.60000,
,,,0.000040030000,  16.80000,
,,,0.000040040000,  17.60000,
,,,0.000040050000,  16.80000,
,,,0.000040060000,  17.60000,
,,,0.000040070000,  16.80000,
,,,0.000040080000,  16.80000,
,,,0.000040090000,  16.80000,
,,,0.000040100000,  16.80000,
,,,0.000040110000,  16.80000,
,,,0.000040120000,  16.80000,
,,,0.000040130000,  17.60000,
,,,0.000040140000,  16.80000,
,,,0.000040150000,  16.80000,
,,,0.000040160000,  16.80000,
,,,0.000040170000,  16.00000,
,,,0.000040180000,  16.00000,
,,,0.000040190000,  16.80000,
,,,0.000040200000,  16.00000,
,,,0.000040210000,  16.00000,
,,,0.000040220000,  16.00000,
,,,0.000040230000,  16.00000,
,,,0.000040240000,  16.00000,
,,,0.000040250000,  16.00000,
,,,0.000040260000,  15.20000,
,,,0.000040270000,  16.00000,
,,,0.000040280000,  16.80000,
,,,0.000040290000,  16.80000,
,,,0.000040300000,  16.00000,
,,,0.000040310000,  16.00000,
,,,0.000040320000,  16.00000,
,,,0.000040330000,  16.00000,
,,,0.000040340000,  16.00000,
,,,0.000040350000,  16.00000,
,,,0.000040360000,  16.00000,
,,,0.000040370000,  16.00000,
,,,0.000040380000,  16.00000,
,,,0.000040390000,  15.20000,
,,,0.000040400000,  15.20000,
,,,0.000040410000,  15.20000,
,,,0.000040420000,  16.00000,
,,,0.000040430000,  15.20000,
,,,0.000040440000,  15.20000,
,,,0.000040450000,  16.00000,
,,,0.000040460000,  15.20000,
,,,0.000040470000,  15.20000,
,,,0.000040480000,  16.00000,
,,,0.000040490000,  15.20000,
,,,0.000040500000,  15.20000,
,,,0.000040510000,  14.40000,
,,,0.000040520000,  15.20000,
,,,0.000040530000,  15.20000,
,,,0.000040540000,  14.40000,
,,,0.000040550000,  15.20000,
,,,0.000040560000,  15.20000,
,,,0.000040570000,  16.00000,
,,,0.000040580000,  15.20000,
,,,0.000040590000,  15.20000,
,,,0.000040600000,  15.20000,
,,,0.000040610000,  14.40000,
,,,0.000040620000,  16.00000,
,,,0.000040630000,  14.40000,
,,,0.000040640000,  15.20000,
,,,0.000040650000,  13.60000,
,,,0.000040660000,  14.40000,
,,,0.000040670000,  14.40000,
,,,0.000040680000,  14.40000,
,,,0.000040690000,  14.40000,
,,,0.000040700000,  14.40000,
,,,0.000040710000,  14.40000,
,,,0.000040720000,  14.40000,
,,,0.000040730000,  14.40000,
,,,0.000040740000,  12.80000,
,,,0.000040750000,  14.40000,
,,,0.000040760000,  13.60000,
,,,0.000040770000,  14.40000,
,,,0.000040780000,  13.60000,
,,,0.000040790000,  13.60000,
,,,0.000040800000,  13.60000,
,,,0.000040810000,  12.80000,
,,,0.000040820000,  13.60000,
,,,0.000040830000,  13.60000,
,,,0.000040840000,  13.60000,
,,,0.000040850000,  12.80000,
,,,0.000040860000,  13.60000,
,,,0.000040870000,  13.60000,
,,,0.000040880000,  13.60000,
,,,0.000040890000,  13.60000,
,,,0.000040900000,  13.60000,
,,,0.000040910000,  12.80000,
,,,0.000040920000,  12.80000,
,,,0.000040930000,  13.60000,
,,,0.000040940000,  12.80000,
,,,0.000040950000,  12.80000,
,,,0.000040960000,  12.80000,
,,,0.000040970000,  12.80000,
,,,0.000040980000,  12.80000,
,,,0.000040990000,  12.80000,
,,,0.000041000000,  12.80000,
,,,0.000041010000,  12.80000,
,,,0.000041020000,  12.00000,
,,,0.000041030000,  12.80000,
,,,0.000041040000,  12.00000,
,,,0.000041050000,  12.00000,
,,,0.000041060000,  12.00000,
,,,0.000041070000,  12.00000,
,,,0.000041080000,  12.00000,
,,,0.000041090000,  12.80000,
,,,0.000041100000,  12.00000,
,,,0.000041110000,  12.00000,
,,,0.000041120000,  12.00000,
,,,0.000041130000,  12.80000,
,,,0.000041140000,  12.00000,
,,,0.000041150000,  12.80000,
,,,0.000041160000,  12.80000,
,,,0.000041170000,  12.80000,
,,,0.000041180000,  12.80000,
,,,0.000041190000,  12.00000,
,,,0.000041200000,  12.00000,
,,,0.000041210000,  12.00000,
,,,0.000041220000,  11.20000,
,,,0.000041230000,  12.00000,
,,,0.000041240000,  12.00000,
,,,0.000041250000,  12.00000,
,,,0.000041260000,  12.00000,
,,,0.000041270000,  12.80000,
,,,0.000041280000,  12.00000,
,,,0.000041290000,  12.00000,
,,,0.000041300000,  12.00000,
,,,0.000041310000,  12.00000,
,,,0.000041320000,  12.00000,
,,,0.000041330000,  12.00000,
,,,0.000041340000,  12.00000,
,,,0.000041350000,  12.00000,
,,,0.000041360000,  12.00000,
,,,0.000041370000,  12.80000,
,,,0.000041380000,  11.20000,
,,,0.000041390000,  12.00000,
,,,0.000041400000,  12.00000,
,,,0.000041410000,  12.00000,
,,,0.000041420000,  11.20000,
,,,0.000041430000,  11.20000,
,,,0.000041440000,  12.00000,
,,,0.000041450000,  11.20000,
,,,0.000041460000,  11.20000,
,,,0.000041470000,  12.00000,
,,,0.000041480000,  12.00000,
,,,0.000041490000,  12.00000,
,,,0.000041500000,  11.20000,
,,,0.000041510000,  12.00000,
,,,0.000041520000,  12.00000,
,,,0.000041530000,  11.20000,
,,,0.000041540000,  11.20000,
,,,0.000041550000,  10.40000,
,,,0.000041560000,  12.00000,
,,,0.000041570000,  10.40000,
,,,0.000041580000,  10.40000,
,,,0.000041590000,  11.20000,
,,,0.000041600000,  10.40000,
,,,0.000041610000,  11.20000,
,,,0.000041620000,  10.40000,
,,,0.000041630000,  10.40000,
,,,0.000041640000,  10.40000,
,,,0.000041650000,  10.40000,
,,,0.000041660000,  10.40000,
,,,0.000041670000,  10.40000,
,,,0.000041680000,   9.60000,
,,,0.000041690000,   9.60000,
,,,0.000041700000,   9.60000,
,,,0.000041710000,   9.60000,
,,,0.000041720000,   9.60000,
,,,0.000041730000,   8.80000,
,,,0.000041740000,   9.60000,
,,,0.000041750000,  10.40000,
,,,0.000041760000,  10.40000,
,,,0.000041770000,   9.60000,
,,,0.000041780000,   9.60000,
,,,0.000041790000,   9.60000,
,,,0.000041800000,   9.60000,
,,,0.000041810000,   9.60000,
,,,0.000041820000,  10.40000,
,,,0.000041830000,   9.60000,
,,,0.000041840000,   9.60000,
,,,0.000041850000,  10.40000,
,,,0.000041860000,   9.60000,
,,,0.000041870000,   9.60000,
,,,0.000041880000,   9.60000,
,,,0.000041890000,   9.60000,
,,,0.000041900000,   9.60000,
,,,0.000041910000,   8.80000,
,,,0.000041920000,  10.40000,
,,,0.000041930000,   9.60000,
,,,0.000041940000,  10.40000,
,,,0.000041950000,  10.40000,
,,,0.000041960000,   8.80000,
,,,0.000041970000,   9.60000,
,,,0.000041980000,   9.60000,
,,,0.000041990000,   8.80000,
,,,0.000042000000,   8.80000,
,,,0.000042010000,   8.00000,
,,,0.000042020000,   8.80000,
,,,0.000042030000,   8.80000,
,,,0.000042040000,   8.80000,
,,,0.000042050000,   8.80000,
,,,0.000042060000,   9.60000,
,,,0.000042070000,   8.80000,
,,,0.000042080000,   8.80000,
,,,0.000042090000,   8.00000,
,,,0.000042100000,   8.00000,
,,,0.000042110000,   8.00000,
,,,0.000042120000,   8.00000,
,,,0.000042130000,   8.00000,
,,,0.000042140000,   8.00000,
,,,0.000042150000,   8.00000,
,,,0.000042160000,   8.00000,
,,,0.000042170000,   7.20000,
,,,0.000042180000,   7.20000,
,,,0.000042190000,   7.20000,
,,,0.000042200000,   5.60000,
,,,0.000042210000,   6.40000,
,,,0.000042220000,   5.60000,
,,,0.000042230000,   6.40000,
,,,0.000042240000,   4.80000,
,,,0.000042250000,   4.00000,
,,,0.000042260000,   4.00000,
,,,0.000042270000,   3.20000,
,,,0.000042280000,   2.40000,
,,,0.000042290000,   0.80000,
,,,0.000042300000,   0.00000,
,,,0.000042310000,  -0.80000,
,,,0.000042320000,  -2.40000,
,,,0.000042330000,  -4.00000,
,,,0.000042340000,  -5.60000,
,,,0.000042350000,  -8.00000,
,,,0.000042360000,  -9.60000,
,,,0.000042370000, -12.00000,
,,,0.000042380000, -12.80000,
,,,0.000042390000, -15.20000,
,,,0.000042400000, -17.60000,
,,,0.000042410000, -20.00000,
,,,0.000042420000, -20.80000,
,,,0.000042430000, -21.60000,
,,,0.000042440000, -23.20000,
,,,0.000042450000, -24.00000,
,,,0.000042460000, -24.00000,
,,,0.000042470000, -25.60000,
,,,0.000042480000, -25.60000,
,,,0.000042490000, -26.40000,
,,,0.000042500000, -26.40000,
,,,0.000042510000, -26.40000,
,,,0.000042520000, -27.20000,
,,,0.000042530000, -27.20000,
,,,0.000042540000, -27.20000,
,,,0.000042550000, -26.40000,
,,,0.000042560000, -27.20000,
,,,0.000042570000, -27.20000,
,,,0.000042580000, -27.20000,
,,,0.000042590000, -26.40000,
,,,0.000042600000, -26.40000,
,,,0.000042610000, -26.40000,
,,,0.000042620000, -27.20000,
,,,0.000042630000, -27.20000,
,,,0.000042640000, -26.40000,
,,,0.000042650000, -26.40000,
,,,0.000042660000, -26.40000,
,,,0.000042670000, -26.40000,
,,,0.000042680000, -27.20000,
,,,0.000042690000, -27.20000,
,,,0.000042700000, -27.20000,
,,,0.000042710000, -27.20000,
,,,0.000042720000, -27.20000,
,,,0.000042730000, -27.20000,
,,,0.000042740000, -27.20000,
,,,0.000042750000, -27.20000,
,,,0.000042760000, -27.20000,
,,,0.000042770000, -26.40000,
,,,0.000042780000, -27.20000,
,,,0.000042790000, -27.20000,
,,,0.000042800000, -25.60000,
,,,0.000042810000, -25.60000,
,,,0.000042820000, -24.80000,
,,,0.000042830000, -24.80000,
,,,0.000042840000, -24.00000,
,,,0.000042850000, -24.80000,
,,,0.000042860000, -23.20000,
,,,0.000042870000, -24.00000,
,,,0.000042880000, -22.40000,
,,,0.000042890000, -23.20000,
,,,0.000042900000, -23.20000,
,,,0.000042910000, -22.40000,
,,,0.000042920000, -21.60000,
,,,0.000042930000, -21.60000,
,,,0.000042940000, -22.40000,
,,,0.000042950000, -22.40000,
,,,0.000042960000, -23.20000,
,,,0.000042970000, -24.80000,
,,,0.000042980000, -25.60000,
,,,0.000042990000, -25.60000,
,,,0.000043000000, -25.60000,
,,,0.000043010000, -27.20000,
,,,0.000043020000, -27.20000,
,,,0.000043030000, -28.80000,
,,,0.000043040000, -29.60000,
,,,0.000043050000, -32.00000,
,,,0.000043060000, -32.80000,
,,,0.000043070000, -35.20000,
,,,0.000043080000, -36.00000,
,,,0.000043090000, -36.80000,
,,,0.000043100000, -38.40000,
,,,0.000043110000, -40.00000,
,,,0.000043120000, -40.80000,
,,,0.000043130000, -42.40000,
,,,0.000043140000, -43.20000,
,,,0.000043150000, -44.00000,
,,,0.000043160000, -45.60000,
,,,0.000043170000, -46.40000,
,,,0.000043180000, -47.20000,
,,,0.000043190000, -47.20000,
,,,0.000043200000, -48.80000,
,,,0.000043210000, -48.80000,
,,,0.000043220000, -48.00000,
,,,0.000043230000, -48.80000,
,,,0.000043240000, -48.80000,
,,,0.000043250000, -48.00000,
,,,0.000043260000, -48.00000,
,,,0.000043270000, -48.00000,
,,,0.000043280000, -48.00000,
,,,0.000043290000, -47.20000,
,,,0.000043300000, -47.20000,
,,,0.000043310000, -47.20000,
,,,0.000043320000, -46.40000,
,,,0.000043330000, -46.40000,
,,,0.000043340000, -45.60000,
,,,0.000043350000, -46.40000,
,,,0.000043360000, -46.40000,
,,,0.000043370000, -45.60000,
,,,0.000043380000, -44.80000,
,,,0.000043390000, -45.60000,
,,,0.000043400000, -45.60000,
,,,0.000043410000, -46.40000,
,,,0.000043420000, -44.80000,
,,,0.000043430000, -45.60000,
,,,0.000043440000, -45.60000,
,,,0.000043450000, -45.60000,
,,,0.000043460000, -45.60000,
,,,0.000043470000, -44.80000,
,,,0.000043480000, -44.80000,
,,,0.000043490000, -45.60000,
,,,0.000043500000, -45.60000,
,,,0.000043510000, -45.60000,
,,,0.000043520000, -45.60000,
,,,0.000043530000, -44.80000,
,,,0.000043540000, -44.80000,
,,,0.000043550000, -45.60000,
,,,0.000043560000, -45.60000,
,,,0.000043570000, -45.60000,
,,,0.000043580000, -44.00000,
,,,0.000043590000, -44.80000,
,,,0.000043600000, -44.00000,
,,,0.000043610000, -44.00000,
,,,0.000043620000, -44.00000,
,,,0.000043630000, -43.20000,
,,,0.000043640000, -44.00000,
,,,0.000043650000, -44.00000,
,,,0.000043660000, -44.00000,
,,,0.000043670000, -43.20000,
,,,0.000043680000, -43.20000,
,,,0.000043690000, -43.20000,
,,,0.000043700000, -42.40000,
,,,0.000043710000, -42.40000,
,,,0.000043720000, -42.40000,
,,,0.000043730000, -42.40000,
,,,0.000043740000, -42.40000,
,,,0.000043750000, -42.40000,
,,,0.000043760000, -41.60000,
,,,0.000043770000, -40.80000,
,,,0.000043780000, -42.40000,
,,,0.000043790000, -41.60000,
,,,0.000043800000, -41.60000,
,,,0.000043810000, -40.80000,
,,,0.000043820000, -40.80000,
,,,0.000043830000, -40.00000,
,,,0.000043840000, -41.60000,
,,,0.000043850000, -40.80000,
,,,0.000043860000, -40.80000,
,,,0.000043870000, -40.00000,
,,,0.000043880000, -40.80000,
,,,0.000043890000, -40.00000,
,,,0.000043900000, -40.00000,
,,,0.000043910000, -40.00000,
,,,0.000043920000, -39.20000,
,,,0.000043930000, -39.20000,
,,,0.000043940000, -39.20000,
,,,0.000043950000, -38.40000,
,,,0.000043960000, -39.20000,
,,,0.000043970000, -39.20000,
,,,0.000043980000, -38.40000,
,,,0.000043990000, -38.40000,
,,,0.000044000000, -38.40000,
,,,0.000044010000, -38.40000,
,,,0.000044020000, -37.60000,
,,,0.000044030000, -37.60000,
,,,0.000044040000, -38.40000,
,,,0.000044050000, -38.40000,
,,,0.000044060000, -36.80000,
,,,0.000044070000, -36.80000,
,,,0.000044080000, -36.80000,
,,,0.000044090000, -37.60000,
,,,0.000044100000, -36.80000,
,,,0.000044110000, -36.80000,
,,,0.000044120000, -36.00000,
,,,0.000044130000, -36.00000,
,,,0.000044140000, -35.20000,
,,,0.000044150000, -36.80000,
,,,0.000044160000, -36.00000,
,,,0.000044170000, -35.20000,
,,,0.000044180000, -36.00000,
,,,0.000044190000, -35.20000,
,,,0.000044200000, -36.00000,
,,,0.000044210000, -35.20000,
,,,0.000044220000, -35.20000,
,,,0.000044230000, -35.20000,
,,,0.000044240000, -35.20000,
,,,0.000044250000, -34.40000,
,,,0.000044260000, -35.20000,
,,,0.000044270000, -35.20000,
,,,0.000044280000, -35.20000,
,,,0.000044290000, -34.40000,
,,,0.000044300000, -35.20000,
,,,0.000044310000, -35.20000,
,,,0.000044320000, -34.40000,
,,,0.000044330000, -34.40000,
,,,0.000044340000, -34.40000,
,,,0.000044350000, -34.40000,
,,,0.000044360000, -34.40000,
,,,0.000044370000, -34.40000,
,,,0.000044380000, -34.40000,
,,,0.000044390000, -34.40000,
,,,0.000044400000, -34.40000,
,,,0.000044410000, -33.60000,
,,,0.000044420000, -33.60000,
,,,0.000044430000, -34.40000,
,,,0.000044440000, -33.60000,
,,,0.000044450000, -33.60000,
,,,0.000044460000, -33.60000,
,,,0.000044470000, -33.60000,
,,,0.000044480000, -33.60000,
,,,0.000044490000, -33.60000,
,,,0.000044500000, -33.60000,
,,,0.000044510000, -32.80000,
,,,0.000044520000, -33.60000,
,,,0.000044530000, -32.80000,
,,,0.000044540000, -33.60000,
,,,0.000044550000, -32.80000,
,,,0.000044560000, -32.80000,
,,,0.000044570000, -32.00000,
,,,0.000044580000, -32.80000,
,,,0.000044590000, -32.00000,
,,,0.000044600000, -32.00000,
,,,0.000044610000, -32.80000,
,,,0.000044620000, -32.00000,
,,,0.000044630000, -32.80000,
,,,0.000044640000, -32.00000,
,,,0.000044650000, -32.00000,
,,,0.000044660000, -31.20000,
,,,0.000044670000, -31.20000,
,,,0.000044680000, -31.20000,
,,,0.000044690000, -31.20000,
,,,0.000044700000, -31.20000,
,,,0.000044710000, -30.40000,
,,,0.000044720000, -31.20000,
,,,0.000044730000, -30.40000,
,,,0.000044740000, -31.20000,
,,,0.000044750000, -30.40000,
,,,0.000044760000, -30.40000,
,,,0.000044770000, -29.60000,
,,,0.000044780000, -30.40000,
,,,0.000044790000, -29.60000,
,,,0.000044800000, -29.60000,
,,,0.000044810000, -28.80000,
,,,0.000044820000, -29.60000,
,,,0.000044830000, -29.60000,
,,,0.000044840000, -28.80000,
,,,0.000044850000, -28.80000,
,,,0.000044860000, -28.80000,
,,,0.000044870000, -28.80000,
,,,0.000044880000, -28.80000,
,,,0.000044890000, -28.80000,
,,,0.000044900000, -28.00000,
,,,0.000044910000, -28.00000,
,,,0.000044920000, -28.00000,
,,,0.000044930000, -28.00000,
,,,0.000044940000, -28.00000,
,,,0.000044950000, -28.00000,
,,,0.000044960000, -28.00000,
,,,0.000044970000, -28.00000,
,,,0.000044980000, -28.00000,
,,,0.000044990000, -28.00000,
,,,0.000045000000, -27.20000,
,,,0.000045010000, -27.20000,
,,,0.000045020000, -27.20000,
,,,0.000045030000, -28.00000,
,,,0.000045040000, -27.20000,
,,,0.000045050000, -26.40000,
,,,0.000045060000, -27.20000,
,,,0.000045070000, -27.20000,
,,,0.000045080000, -27.20000,
,,,0.000045090000, -28.00000,
,,,0.000045100000, -26.40000,
,,,0.000045110000, -25.60000,
,,,0.000045120000, -26.40000,
,,,0.000045130000, -26.40000,
,,,0.000045140000, -26.40000,
,,,0.000045150000, -26.40000,
,,,0.000045160000, -27.20000,
,,,0.000045170000, -26.40000,
,,,0.000045180000, -27.20000,
,,,0.000045190000, -27.20000,
,,,0.000045200000, -26.40000,
,,,0.000045210000, -26.40000,
,,,0.000045220000, -26.40000,
,,,0.000045230000, -25.60000,
,,,0.000045240000, -25.60000,
,,,0.000045250000, -25.60000,
,,,0.000045260000, -26.40000,
,,,0.000045270000, -26.40000,
,,,0.000045280000, -26.40000,
,,,0.000045290000, -26.40000,
,,,0.000045300000, -25.60000,
,,,0.000045310000, -25.60000,
,,,0.000045320000, -25.60000,
,,,0.000045330000, -25.60000,
,,,0.000045340000, -25.60000,
,,,0.000045350000, -24.80000,
,,,0.000045360000, -24.80000,
,,,0.000045370000, -25.60000,
,,,0.000045380000, -24.80000,
,,,0.000045390000, -25.60000,
,,,0.000045400000, -24.00000,
,,,0.000045410000, -24.80000,
,,,0.000045420000, -24.80000,
,,,0.000045430000, -24.00000,
,,,0.000045440000, -24.00000,
,,,0.000045450000, -24.80000,
,,,0.000045460000, -24.80000,
,,,0.000045470000, -24.00000,
,,,0.000045480000, -24.00000,
,,,0.000045490000, -24.00000,
,,,0.000045500000, -23.20000,
,,,0.000045510000, -23.20000,
,,,0.000045520000, -23.20000,
,,,0.000045530000, -23.20000,
