2 - Experimentos/1 - Ponte de Mosfets/40kHz/3 - 228Ohm_148mH/tensao_indutor/F0001MTH.CSV

Record Length,2.500000e+03,,   0.000031200000,  34.40000,
Sample Interval,2.000000e-08,,   0.000031220000,  32.80000,
Trigger Point,-1.560000000000e+03,,   0.000031240000,  33.60000,
,,,   0.000031260000,  35.20000,
,,,   0.000031280000,  33.60000,
,,,   0.000031300000,  34.40000,
Source,MATH,,   0.000031320000,  33.60000,
Vertical Units,V,,   0.000031340000,  33.60000,
Vertical Scale,2.000000e+01,,   0.000031360000,  34.40000,
Vertical Offset,0.000000e+00,,   0.000031380000,  32.80000,
Horizontal Units,s,,   0.000031400000,  34.40000,
Horizontal Scale,5.000000e-06,,   0.000031420000,  32.80000,
Pt Fmt,Y,,   0.000031440000,  32.80000,
Yzero,0.000000e+00,,   0.000031460000,  32.80000,
Probe Atten,1.000000e+00,,   0.000031480000,  32.80000,
Model Number,TDS2004C,,   0.000031500000,  32.80000,
Serial Number,C012246,,   0.000031520000,  33.60000,
Firmware Version,FV:v24.18,,   0.000031540000,  33.60000,
,,,0.000031560000,  32.80000,
,,,0.000031580000,  33.60000,
,,,0.000031600000,  33.60000,
,,,0.000031620000,  32.80000,
,,,0.000031640000,  32.80000,
,,,0.000031660000,  32.80000,
,,,0.000031680000,  33.60000,
,,,0.000031700000,  33.60000,
,,,0.000031720000,  33.60000,
,,,0.000031740000,  33.60000,
,,,0.000031760000,  32.80000,
,,,0.000031780000,  33.60000,
,,,0.000031800000,  32.80000,
,,,0.000031820000,  34.40000,
,,,0.000031840000,  31.20000,
,,,0.000031860000,  32.80000,
,,,0.000031880000,  33.60000,
,,,0.000031900000,  32.00000,
,,,0.000031920000,  33.60000,
,,,0.000031940000,  32.80000,
,,,0.000031960000,  32.80000,
,,,0.000031980000,  32.00000,
,,,0.000032000000,  33.60000,
,,,0.000032020000,  33.60000,
,,,0.000032040000,  32.00000,
,,,0.000032060000,  32.80000,
,,,0.000032080000,  32.80000,
,,,0.000032100000,  32.00000,
,,,0.000032120000,  33.60000,
,,,0.000032140000,  32.80000,
,,,0.000032160000,  32.80000,
,,,0.000032180000,  32.80000,
,,,0.000032200000,  34.40000,
,,,0.000032220000,  32.80000,
,,,0.000032240000,  32.80000,
,,,0.000032260000,  32.80000,
,,,0.000032280000,  33.60000,
,,,0.000032300000,  32.80000,
,,,0.000032320000,  33.60000,
,,,0.000032340000,  34.40000,
,,,0.000032360000,  33.60000,
,,,0.000032380000,  34.40000,
,,,0.000032400000,  33.60000,
,,,0.000032420000,  33.60000,
,,,0.000032440000,  33.60000,
,,,0.000032460000,  33.60000,
,,,0.000032480000,  34.40000,
,,,0.000032500000,  32.80000,
,,,0.000032520000,  33.60000,
,,,0.000032540000,  32.00000,
,,,0.000032560000,  35.20000,
,,,0.000032580000,  32.80000,
,,,0.000032600000,  32.80000,
,,,0.000032620000,  32.80000,
,,,0.000032640000,  33.60000,
,,,0.000032660000,  34.40000,
,,,0.000032680000,  31.20000,
,,,0.000032700000,  33.60000,
,,,0.000032720000,  33.60000,
,,,0.000032740000,  32.80000,
,,,0.000032760000,  32.80000,
,,,0.000032780000,  33.60000,
,,,0.000032800000,  34.40000,
,,,0.000032820000,  32.80000,
,,,0.000032840000,  33.60000,
,,,0.000032860000,  32.80000,
,,,0.000032880000,  32.80000,
,,,0.000032900000,  32.80000,
,,,0.000032920000,  34.40000,
,,,0.000032940000,  34.40000,
,,,0.000032960000,  33.60000,
,,,0.000032980000,  31.20000,
,,,0.000033000000,  33.60000,
,,,0.000033020000,  32.80000,
,,,0.000033040000,  33.60000,
,,,0.000033060000,  32.00000,
,,,0.000033080000,  34.40000,
,,,0.000033100000,  33.60000,
,,,0.000033120000,  33.60000,
,,,0.000033140000,  35.20000,
,,,0.000033160000,  30.40000,
,,,0.000033180000,  34.40000,
,,,0.000033200000,  33.60000,
,,,0.000033220000,  34.40000,
,,,0.000033240000,  34.40000,
,,,0.000033260000,  32.80000,
,,,0.000033280000,  33.60000,
,,,0.000033300000,  33.60000,
,,,0.000033320000,  35.20000,
,,,0.000033340000,  34.40000,
,,,0.000033360000,  32.80000,
,,,0.000033380000,  33.60000,
,,,0.000033400000,  32.80000,
,,,0.000033420000,  34.40000,
,,,0.000033440000,  33.60000,
,,,0.000033460000,  33.60000,
,,,0.000033480000,  34.40000,
,,,0.000033500000,  33.60000,
,,,0.000033520000,  33.60000,
,,,0.000033540000,  32.80000,
,,,0.000033560000,  34.40000,
,,,0.000033580000,  32.80000,
,,,0.000033600000,  33.60000,
,,,0.000033620000,  32.80000,
,,,0.000033640000,  32.80000,
,,,0.000033660000,  33.60000,
,,,0.000033680000,  33.60000,
,,,0.000033700000,  33.60000,
,,,0.000033720000,  32.80000,
,,,0.000033740000,  32.80000,
,,,0.000033760000,  33.60000,
,,,0.000033780000,  32.80000,
,,,0.000033800000,  35.20000,
,,,0.000033820000,  33.60000,
,,,0.000033840000,  33.60000,
,,,0.000033860000,  33.60000,
,,,0.000033880000,  32.80000,
,,,0.000033900000,  34.40000,
,,,0.000033920000,  32.80000,
,,,0.000033940000,  32.80000,
,,,0.000033960000,  34.40000,
,,,0.000033980000,  34.40000,
,,,0.000034000000,  34.40000,
,,,0.000034020000,  33.60000,
,,,0.000034040000,  32.00000,
,,,0.000034060000,  33.60000,
,,,0.000034080000,  32.80000,
,,,0.000034100000,  33.60000,
,,,0.000034120000,  32.80000,
,,,0.000034140000,  32.00000,
,,,0.000034160000,  33.60000,
,,,0.000034180000,  34.40000,
,,,0.000034200000,  33.60000,
,,,0.000034220000,  32.80000,
,,,0.000034240000,  33.60000,
,,,0.000034260000,  34.40000,
,,,0.000034280000,  33.60000,
,,,0.000034300000,  32.80000,
,,,0.000034320000,  34.40000,
,,,0.000034340000,  33.60000,
,,,0.000034360000,  33.60000,
,,,0.000034380000,  32.80000,
,,,0.000034400000,  33.60000,
,,,0.000034420000,  32.80000,
,,,0.000034440000,  32.00000,
,,,0.000034460000,  32.80000,
,,,0.000034480000,  33.60000,
,,,0.000034500000,  32.80000,
,,,0.000034520000,  33.60000,
,,,0.000034540000,  34.40000,
,,,0.000034560000,  33.60000,
,,,0.000034580000,  32.80000,
,,,0.000034600000,  32.80000,
,,,0.000034620000,  32.00000,
,,,0.000034640000,  34.40000,
,,,0.000034660000,  32.80000,
,,,0.000034680000,  32.80000,
,,,0.000034700000,  33.60000,
,,,0.000034720000,  33.60000,
,,,0.000034740000,  32.00000,
,,,0.000034760000,  33.60000,
,,,0.000034780000,  33.60000,
,,,0.000034800000,  33.60000,
,,,0.000034820000,  33.60000,
,,,0.000034840000,  33.60000,
,,,0.000034860000,  32.00000,
,,,0.000034880000,  33.60000,
,,,0.000034900000,  33.60000,
,,,0.000034920000,  32.80000,
,,,0.000034940000,  33.60000,
,,,0.000034960000,  32.80000,
,,,0.000034980000,  33.60000,
,,,0.000035000000,  32.80000,
,,,0.000035020000,  33.60000,
,,,0.000035040000,  32.80000,
,,,0.000035060000,  32.80000,
,,,0.000035080000,  33.60000,
,,,0.000035100000,  32.80000,
,,,0.000035120000,  32.80000,
,,,0.000035140000,  32.00000,
,,,0.000035160000,  34.40000,
,,,0.000035180000,  34.40000,
,,,0.000035200000,  33.60000,
,,,0.000035220000,  35.20000,
,,,0.000035240000,  32.80000,
,,,0.000035260000,  32.80000,
,,,0.000035280000,  34.40000,
,,,0.000035300000,  33.60000,
,,,0.000035320000,  33.60000,
,,,0.000035340000,  31.20000,
,,,0.000035360000,  33.60000,
,,,0.000035380000,  32.80000,
,,,0.000035400000,  33.60000,
,,,0.000035420000,  35.20000,
,,,0.000035440000,  32.80000,
,,,0.000035460000,  34.40000,
,,,0.000035480000,  33.60000,
,,,0.000035500000,  34.40000,
,,,0.000035520000,  32.00000,
,,,0.000035540000,  32.80000,
,,,0.000035560000,  33.60000,
,,,0.000035580000,  34.40000,
,,,0.000035600000,  32.80000,
,,,0.000035620000,  32.80000,
,,,0.000035640000,  33.60000,
,,,0.000035660000,  32.00000,
,,,0.000035680000,  32.80000,
,,,0.000035700000,  34.40000,
,,,0.000035720000,  33.60000,
,,,0.000035740000,  32.80000,
,,,0.000035760000,  33.60000,
,,,0.000035780000,  33.60000,
,,,0.000035800000,  33.60000,
,,,0.000035820000,  34.40000,
,,,0.000035840000,  32.80000,
,,,0.000035860000,  33.60000,
,,,0.000035880000,  32.80000,
,,,0.000035900000,  33.60000,
,,,0.000035920000,  32.80000,
,,,0.000035940000,  32.80000,
,,,0.000035960000,  34.40000,
,,,0.000035980000,  34.40000,
,,,0.000036000000,  33.60000,
,,,0.000036020000,  32.80000,
,,,0.000036040000,  32.80000,
,,,0.000036060000,  32.00000,
,,,0.000036080000,  32.80000,
,,,0.000036100000,  33.60000,
,,,0.000036120000,  32.00000,
,,,0.000036140000,  34.40000,
,,,0.000036160000,  34.40000,
,,,0.000036180000,  32.80000,
,,,0.000036200000,  32.80000,
,,,0.000036220000,  33.60000,
,,,0.000036240000,  33.60000,
,,,0.000036260000,  35.20000,
,,,0.000036280000,  34.40000,
,,,0.000036300000,  33.60000,
,,,0.000036320000,  35.20000,
,,,0.000036340000,  33.60000,
,,,0.000036360000,  33.60000,
,,,0.000036380000,  32.80000,
,,,0.000036400000,  32.80000,
,,,0.000036420000,  33.60000,
,,,0.000036440000,  33.60000,
,,,0.000036460000,  32.80000,
,,,0.000036480000,  32.00000,
,,,0.000036500000,  32.00000,
,,,0.000036520000,  32.00000,
,,,0.000036540000,  31.20000,
,,,0.000036560000,  31.20000,
,,,0.000036580000,  30.40000,
,,,0.000036600000,  28.80000,
,,,0.000036620000,  28.00000,
,,,0.000036640000,  26.40000,
,,,0.000036660000,  25.60000,
,,,0.000036680000,  24.80000,
,,,0.000036700000,  21.60000,
,,,0.000036720000,  18.40000,
,,,0.000036740000,  12.00000,
,,,0.000036760000,   8.00000,
,,,0.000036780000,   3.20000,
,,,0.000036800000,   1.60000,
,,,0.000036820000,   0.00000,
,,,0.000036840000,  -2.40000,
,,,0.000036860000,  -2.40000,
,,,0.000036880000,  -3.20000,
,,,0.000036900000,  -3.20000,
,,,0.000036920000,  -3.20000,
,,,0.000036940000,  -3.20000,
,,,0.000036960000,  -1.60000,
,,,0.000036980000,  -2.40000,
,,,0.000037000000,  -1.60000,
,,,0.000037020000,  -1.60000,
,,,0.000037040000,  -2.40000,
,,,0.000037060000,  -0.80000,
,,,0.000037080000,  -1.60000,
,,,0.000037100000,   0.00000,
,,,0.000037120000,  -2.40000,
,,,0.000037140000,  -0.80000,
,,,0.000037160000,  -0.80000,
,,,0.000037180000,  -0.80000,
,,,0.000037200000,   0.80000,
,,,0.000037220000,   0.80000,
,,,0.000037240000,  -1.60000,
,,,0.000037260000,   1.60000,
,,,0.000037280000,   0.80000,
,,,0.000037300000,  -0.80000,
,,,0.000037320000,  -3.20000,
,,,0.000037340000,  -8.00000,
,,,0.000037360000, -11.20000,
,,,0.000037380000, -15.20000,
,,,0.000037400000, -20.00000,
,,,0.000037420000, -25.60000,
,,,0.000037440000, -27.20000,
,,,0.000037460000, -31.20000,
,,,0.000037480000, -34.40000,
,,,0.000037500000, -35.20000,
,,,0.000037520000, -35.20000,
,,,0.000037540000, -36.80000,
,,,0.000037560000, -36.00000,
,,,0.000037580000, -36.00000,
,,,0.000037600000, -36.00000,
,,,0.000037620000, -33.60000,
,,,0.000037640000, -32.80000,
,,,0.000037660000, -32.80000,
,,,0.000037680000, -31.20000,
,,,0.000037700000, -32.80000,
,,,0.000037720000, -32.00000,
,,,0.000037740000, -32.80000,
,,,0.000037760000, -32.00000,
,,,0.000037780000, -33.60000,
,,,0.000037800000, -35.20000,
,,,0.000037820000, -35.20000,
,,,0.000037840000, -36.00000,
,,,0.000037860000, -34.40000,
,,,0.000037880000, -36.00000,
,,,0.000037900000, -36.00000,
,,,0.000037920000, -35.20000,
,,,0.000037940000, -34.40000,
,,,0.000037960000, -34.40000,
,,,0.000037980000, -33.60000,
,,,0.000038000000, -34.40000,
,,,0.000038020000, -33.60000,
,,,0.000038040000, -32.80000,
,,,0.000038060000, -33.60000,
,,,0.000038080000, -34.40000,
,,,0.000038100000, -35.20000,
,,,0.000038120000, -33.60000,
,,,0.000038140000, -34.40000,
,,,0.000038160000, -35.20000,
,,,0.000038180000, -33.60000,
,,,0.000038200000, -34.40000,
,,,0.000038220000, -34.40000,
,,,0.000038240000, -32.80000,
,,,0.000038260000, -35.20000,
,,,0.000038280000, -34.40000,
,,,0.000038300000, -35.20000,
,,,0.000038320000, -33.60000,
,,,0.000038340000, -35.20000,
,,,0.000038360000, -36.00000,
,,,0.000038380000, -33.60000,
,,,0.000038400000, -35.20000,
,,,0.000038420000, -33.60000,
,,,0.000038440000, -34.40000,
,,,0.000038460000, -32.80000,
,,,0.000038480000, -35.20000,
,,,0.000038500000, -34.40000,
,,,0.000038520000, -35.20000,
,,,0.000038540000, -32.80000,
,,,0.000038560000, -34.40000,
,,,0.000038580000, -35.20000,
,,,0.000038600000, -33.60000,
,,,0.000038620000, -33.60000,
,,,0.000038640000, -35.20000,
,,,0.000038660000, -34.40000,
,,,0.000038680000, -33.60000,
,,,0.000038700000, -33.60000,
,,,0.000038720000, -35.20000,
,,,0.000038740000, -34.40000,
,,,0.000038760000, -35.20000,
,,,0.000038780000, -35.20000,
,,,0.000038800000, -33.60000,
,,,0.000038820000, -33.60000,
,,,0.000038840000, -35.20000,
,,,0.000038860000, -34.40000,
,,,0.000038880000, -34.40000,
,,,0.000038900000, -34.40000,
,,,0.000038920000, -33.60000,
,,,0.000038940000, -34.40000,
,,,0.000038960000, -35.20000,
,,,0.000038980000, -33.60000,
,,,0.000039000000, -32.80000,
,,,0.000039020000, -34.40000,
,,,0.000039040000, -32.80000,
,,,0.000039060000, -33.60000,
,,,0.000039080000, -34.40000,
,,,0.000039100000, -34.40000,
,,,0.000039120000, -34.40000,
,,,0.000039140000, -35.20000,
,,,0.000039160000, -34.40000,
,,,0.000039180000, -34.40000,
,,,0.000039200000, -35.20000,
,,,0.000039220000, -35.20000,
,,,0.000039240000, -34.40000,
,,,0.000039260000, -33.60000,
,,,0.000039280000, -35.20000,
,,,0.000039300000, -34.40000,
,,,0.000039320000, -33.60000,
,,,0.000039340000, -33.60000,
,,,0.000039360000, -33.60000,
,,,0.000039380000, -33.60000,
,,,0.000039400000, -33.60000,
,,,0.000039420000, -34.40000,
,,,0.000039440000, -34.40000,
,,,0.000039460000, -33.60000,
,,,0.000039480000, -35.20000,
,,,0.000039500000, -34.40000,
,,,0.000039520000, -33.60000,
,,,0.000039540000, -32.00000,
,,,0.000039560000, -34.40000,
,,,0.000039580000, -34.40000,
,,,0.000039600000, -34.40000,
,,,0.000039620000, -34.40000,
,,,0.000039640000, -34.40000,
,,,0.000039660000, -34.40000,
,,,0.000039680000, -36.00000,
,,,0.000039700000, -34.40000,
,,,0.000039720000, -34.40000,
,,,0.000039740000, -34.40000,
,,,0.000039760000, -35.20000,
,,,0.000039780000, -35.20000,
,,,0.000039800000, -33.60000,
,,,0.000039820000, -34.40000,
,,,0.000039840000, -34.40000,
,,,0.000039860000, -33.60000,
,,,0.000039880000, -33.60000,
,,,0.000039900000, -35.20000,
,,,0.000039920000, -35.20000,
,,,0.000039940000, -34.40000,
,,,0.000039960000, -34.40000,
,,,0.000039980000, -33.60000,
,,,0.000040000000, -34.40000,
,,,0.000040020000, -35.20000,
,,,0.000040040000, -33.60000,
,,,0.000040060000, -35.20000,
,,,0.000040080000, -33.60000,
,,,0.000040100000, -34.40000,
,,,0.000040120000, -32.80000,
,,,0.000040140000, -33.60000,
,,,0.000040160000, -33.60000,
,,,0.000040180000, -35.20000,
,,,0.000040200000, -35.20000,
,,,0.000040220000, -34.40000,
,,,0.000040240000, -36.00000,
,,,0.000040260000, -34.40000,
,,,0.000040280000, -35.20000,
,,,0.000040300000, -33.60000,
,,,0.000040320000, -34.40000,
,,,0.000040340000, -34.40000,
,,,0.000040360000, -34.40000,
,,,0.000040380000, -33.60000,
,,,0.000040400000, -35.20000,
,,,0.000040420000, -32.80000,
,,,0.000040440000, -34.40000,
,,,0.000040460000, -33.60000,
,,,0.000040480000, -34.40000,
,,,0.000040500000, -33.60000,
,,,0.000040520000, -33.60000,
,,,0.000040540000, -35.20000,
,,,0.000040560000, -35.20000,
,,,0.000040580000, -33.60000,
,,,0.000040600000, -35.20000,
,,,0.000040620000, -35.20000,
,,,0.000040640000, -34.40000,
,,,0.000040660000, -34.40000,
,,,0.000040680000, -33.60000,
,,,0.000040700000, -33.60000,
,,,0.000040720000, -33.60000,
,,,0.000040740000, -33.60000,
,,,0.000040760000, -34.40000,
,,,0.000040780000, -34.40000,
,,,0.000040800000, -33.60000,
,,,0.000040820000, -33.60000,
,,,0.000040840000, -34.40000,
,,,0.000040860000, -34.40000,
,,,0.000040880000, -32.80000,
,,,0.000040900000, -34.40000,
,,,0.000040920000, -33.60000,
,,,0.000040940000, -34.40000,
,,,0.000040960000, -34.40000,
,,,0.000040980000, -33.60000,
,,,0.000041000000, -34.40000,
,,,0.000041020000, -33.60000,
,,,0.000041040000, -35.20000,
,,,0.000041060000, -34.40000,
,,,0.000041080000, -35.20000,
,,,0.000041100000, -33.60000,
,,,0.000041120000, -33.60000,
,,,0.000041140000, -34.40000,
,,,0.000041160000, -33.60000,
,,,0.000041180000, -33.60000,
,,,0.000041200000, -36.80000,
,,,0.000041220000, -33.60000,
,,,0.000041240000, -35.20000,
,,,0.000041260000, -35.20000,
,,,0.000041280000, -36.00000,
,,,0.000041300000, -35.20000,
,,,0.000041320000, -35.20000,
,,,0.000041340000, -33.60000,
,,,0.000041360000, -33.60000,
,,,0.000041380000, -34.40000,
,,,0.000041400000, -33.60000,
,,,0.000041420000, -34.40000,
,,,0.000041440000, -32.80000,
,,,0.000041460000, -35.20000,
,,,0.000041480000, -34.40000,
,,,0.000041500000, -36.00000,
,,,0.000041520000, -33.60000,
,,,0.000041540000, -35.20000,
,,,0.000041560000, -36.00000,
,,,0.000041580000, -35.20000,
,,,0.000041600000, -33.60000,
,,,0.000041620000, -35.20000,
,,,0.000041640000, -36.00000,
,,,0.000041660000, -35.20000,
,,,0.000041680000, -33.60000,
,,,0.000041700000, -35.20000,
,,,0.000041720000, -34.40000,
,,,0.000041740000, -35.20000,
,,,0.000041760000, -33.60000,
,,,0.000041780000, -34.40000,
,,,0.000041800000, -36.00000,
,,,0.000041820000, -34.40000,
,,,0.000041840000, -35.20000,
,,,0.000041860000, -36.00000,
,,,0.000041880000, -34.40000,
,,,0.000041900000, -35.20000,
,,,0.000041920000, -33.60000,
,,,0.000041940000, -34.40000,
,,,0.000041960000, -34.40000,
,,,0.000041980000, -35.20000,
,,,0.000042000000, -35.20000,
,,,0.000042020000, -36.00000,
,,,0.000042040000, -35.20000,
,,,0.000042060000, -33.60000,
,,,0.000042080000, -34.40000,
,,,0.000042100000, -35.20000,
,,,0.000042120000, -35.20000,
,,,0.000042140000, -33.60000,
,,,0.000042160000, -33.60000,
,,,0.000042180000, -33.60000,
,,,0.000042200000, -33.60000,
,,,0.000042220000, -36.00000,
,,,0.000042240000, -34.40000,
,,,0.000042260000, -33.60000,
,,,0.000042280000, -33.60000,
,,,0.000042300000, -35.20000,
,,,0.000042320000, -33.60000,
,,,0.000042340000, -32.80000,
,,,0.000042360000, -34.40000,
,,,0.000042380000, -34.40000,
,,,0.000042400000, -34.40000,
,,,0.000042420000, -34.40000,
,,,0.000042440000, -35.20000,
,,,0.000042460000, -35.20000,
,,,0.000042480000, -34.40000,
,,,0.000042500000, -33.60000,
,,,0.000042520000, -33.60000,
,,,0.000042540000, -33.60000,
,,,0.000042560000, -34.40000,
,,,0.000042580000, -35.20000,
,,,0.000042600000, -33.60000,
,,,0.000042620000, -34.40000,
,,,0.000042640000, -35.20000,
,,,0.000042660000, -32.00000,
,,,0.000042680000, -33.60000,
,,,0.000042700000, -34.40000,
,,,0.000042720000, -35.20000,
,,,0.000042740000, -35.20000,
,,,0.000042760000, -34.40000,
,,,0.000042780000, -33.60000,
,,,0.000042800000, -34.40000,
,,,0.000042820000, -34.40000,
,,,0.000042840000, -35.20000,
,,,0.000042860000, -34.40000,
,,,0.000042880000, -35.20000,
,,,0.000042900000, -34.40000,
,,,0.000042920000, -34.40000,
,,,0.000042940000, -35.20000,
,,,0.000042960000, -34.40000,
,,,0.000042980000, -34.40000,
,,,0.000043000000, -34.40000,
,,,0.000043020000, -34.40000,
,,,0.000043040000, -33.60000,
,,,0.000043060000, -35.20000,
,,,0.000043080000, -35.20000,
,,,0.000043100000, -35.20000,
,,,0.000043120000, -34.40000,
,,,0.000043140000, -33.60000,
,,,0.000043160000, -34.40000,
,,,0.000043180000, -35.20000,
,,,0.000043200000, -34.40000,
,,,0.000043220000, -34.40000,
,,,0.000043240000, -33.60000,
,,,0.000043260000, -35.20000,
,,,0.000043280000, -34.40000,
,,,0.000043300000, -35.20000,
,,,0.000043320000, -34.40000,
,,,0.000043340000, -34.40000,
,,,0.000043360000, -35.20000,
,,,0.000043380000, -33.60000,
,,,0.000043400000, -34.40000,
,,,0.000043420000, -34.40000,
,,,0.000043440000, -35.20000,
,,,0.000043460000, -34.40000,
,,,0.000043480000, -34.40000,
,,,0.000043500000, -34.40000,
,,,0.000043520000, -34.40000,
,,,0.000043540000, -35.20000,
,,,0.000043560000, -35.20000,
,,,0.000043580000, -35.20000,
,,,0.000043600000, -34.40000,
,,,0.000043620000, -34.40000,
,,,0.000043640000, -36.00000,
,,,0.000043660000, -35.20000,
,,,0.000043680000, -35.20000,
,,,0.000043700000, -33.60000,
,,,0.000043720000, -35.20000,
,,,0.000043740000, -34.40000,
,,,0.000043760000, -34.40000,
,,,0.000043780000, -35.20000,
,,,0.000043800000, -35.20000,
,,,0.000043820000, -35.20000,
,,,0.000043840000, -35.20000,
,,,0.000043860000, -36.00000,
,,,0.000043880000, -34.40000,
,,,0.000043900000, -33.60000,
,,,0.000043920000, -34.40000,
,,,0.000043940000, -34.40000,
,,,0.000043960000, -34.40000,
,,,0.000043980000, -35.20000,
,,,0.000044000000, -34.40000,
,,,0.000044020000, -35.20000,
,,,0.000044040000, -35.20000,
,,,0.000044060000, -34.40000,
,,,0.000044080000, -33.60000,
,,,0.000044100000, -35.20000,
,,,0.000044120000, -34.40000,
,,,0.000044140000, -34.40000,
,,,0.000044160000, -36.00000,
,,,0.000044180000, -34.40000,
,,,0.000044200000, -36.00000,
,,,0.000044220000, -34.40000,
,,,0.000044240000, -35.20000,
,,,0.000044260000, -35.20000,
