2 - Experimentos/2 - Gerador Tectronics/40kHz/0 - tens├гo gerador/tensao_gerador/F0000MTH.CSV

Record Length,2.500000e+03,,   0.000031400000,   5.00000,
Sample Interval,2.000000e-08,,   0.000031420000,   4.80000,
Trigger Point,-1.570000000000e+03,,   0.000031440000,   4.60000,
,,,   0.000031460000,   4.80000,
,,,   0.000031480000,   4.80000,
,,,   0.000031500000,   4.60000,
Source,MATH,,   0.000031520000,   5.00000,
Vertical Units,V,,   0.000031540000,   4.80000,
Vertical Scale,5.000000e+00,,   0.000031560000,   5.00000,
Vertical Offset,0.000000e+00,,   0.000031580000,   5.00000,
Horizontal Units,s,,   0.000031600000,   4.60000,
Horizontal Scale,5.000000e-06,,   0.000031620000,   5.20000,
Pt Fmt,Y,,   0.000031640000,   4.80000,
Yzero,0.000000e+00,,   0.000031660000,   4.80000,
Probe Atten,1.000000e+00,,   0.000031680000,   4.80000,
Model Number,TDS2004C,,   0.000031700000,   4.80000,
Serial Number,C012246,,   0.000031720000,   4.80000,
Firmware Version,FV:v24.18,,   0.000031740000,   5.00000,
,,,0.000031760000,   5.00000,
,,,0.000031780000,   4.80000,
,,,0.000031800000,   4.80000,
,,,0.000031820000,   4.60000,
,,,0.000031840000,   4.80000,
,,,0.000031860000,   5.00000,
,,,0.000031880000,   4.80000,
,,,0.000031900000,   5.00000,
,,,0.000031920000,   5.00000,
,,,0.000031940000,   4.80000,
,,,0.000031960000,   4.80000,
,,,0.000031980000,   4.80000,
,,,0.000032000000,   5.00000,
,,,0.000032020000,   5.00000,
,,,0.000032040000,   4.80000,
,,,0.000032060000,   5.00000,
,,,0.000032080000,   4.60000,
,,,0.000032100000,   4.60000,
,,,0.000032120000,   4.60000,
,,,0.000032140000,   4.80000,
,,,0.000032160000,   4.80000,
,,,0.000032180000,   4.80000,
,,,0.000032200000,   4.80000,
,,,0.000032220000,   4.80000,
,,,0.000032240000,   4.80000,
,,,0.000032260000,   4.80000,
,,,0.000032280000,   4.80000,
,,,0.000032300000,   4.80000,
,,,0.000032320000,   4.60000,
,,,0.000032340000,   4.60000,
,,,0.000032360000,   4.80000,
,,,0.000032380000,   4.80000,
,,,0.000032400000,   4.80000,
,,,0.000032420000,   4.80000,
,,,0.000032440000,   4.80000,
,,,0.000032460000,   5.00000,
,,,0.000032480000,   4.60000,
,,,0.000032500000,   4.40000,
,,,0.000032520000,   4.80000,
,,,0.000032540000,   4.80000,
,,,0.000032560000,   4.80000,
,,,0.000032580000,   4.80000,
,,,0.000032600000,   4.80000,
,,,0.000032620000,   5.20000,
,,,0.000032640000,   5.00000,
,,,0.000032660000,   5.00000,
,,,0.000032680000,   5.00000,
,,,0.000032700000,   4.80000,
,,,0.000032720000,   4.80000,
,,,0.000032740000,   4.80000,
,,,0.000032760000,   5.00000,
,,,0.000032780000,   5.00000,
,,,0.000032800000,   4.80000,
,,,0.000032820000,   5.00000,
,,,0.000032840000,   4.80000,
,,,0.000032860000,   4.60000,
,,,0.000032880000,   4.60000,
,,,0.000032900000,   4.80000,
,,,0.000032920000,   4.80000,
,,,0.000032940000,   4.80000,
,,,0.000032960000,   4.80000,
,,,0.000032980000,   4.40000,
,,,0.000033000000,   5.20000,
,,,0.000033020000,   4.80000,
,,,0.000033040000,   4.80000,
,,,0.000033060000,   4.80000,
,,,0.000033080000,   4.80000,
,,,0.000033100000,   5.20000,
,,,0.000033120000,   4.80000,
,,,0.000033140000,   4.80000,
,,,0.000033160000,   5.00000,
,,,0.000033180000,   5.00000,
,,,0.000033200000,   5.00000,
,,,0.000033220000,   4.80000,
,,,0.000033240000,   4.80000,
,,,0.000033260000,   5.00000,
,,,0.000033280000,   4.60000,
,,,0.000033300000,   4.80000,
,,,0.000033320000,   4.80000,
,,,0.000033340000,   4.60000,
,,,0.000033360000,   5.00000,
,,,0.000033380000,   5.00000,
,,,0.000033400000,   5.00000,
,,,0.000033420000,   4.80000,
,,,0.000033440000,   4.80000,
,,,0.000033460000,   4.60000,
,,,0.000033480000,   4.60000,
,,,0.000033500000,   4.60000,
,,,0.000033520000,   5.00000,
,,,0.000033540000,   4.80000,
,,,0.000033560000,   4.80000,
,,,0.000033580000,   5.00000,
,,,0.000033600000,   5.00000,
,,,0.000033620000,   4.80000,
,,,0.000033640000,   5.00000,
,,,0.000033660000,   5.00000,
,,,0.000033680000,   4.80000,
,,,0.000033700000,   5.20000,
,,,0.000033720000,   4.80000,
,,,0.000033740000,   5.00000,
,,,0.000033760000,   4.60000,
,,,0.000033780000,   4.60000,
,,,0.000033800000,   4.80000,
,,,0.000033820000,   4.80000,
,,,0.000033840000,   5.20000,
,,,0.000033860000,   4.60000,
,,,0.000033880000,   4.80000,
,,,0.000033900000,   5.00000,
,,,0.000033920000,   4.80000,
,,,0.000033940000,   5.00000,
,,,0.000033960000,   4.80000,
,,,0.000033980000,   4.80000,
,,,0.000034000000,   4.60000,
,,,0.000034020000,   5.00000,
,,,0.000034040000,   5.00000,
,,,0.000034060000,   4.80000,
,,,0.000034080000,   4.80000,
,,,0.000034100000,   4.80000,
,,,0.000034120000,   4.80000,
,,,0.000034140000,   5.00000,
,,,0.000034160000,   4.80000,
,,,0.000034180000,   4.60000,
,,,0.000034200000,   5.00000,
,,,0.000034220000,   4.80000,
,,,0.000034240000,   5.00000,
,,,0.000034260000,   5.00000,
,,,0.000034280000,   5.00000,
,,,0.000034300000,   4.80000,
,,,0.000034320000,   4.80000,
,,,0.000034340000,   4.80000,
,,,0.000034360000,   4.80000,
,,,0.000034380000,   4.80000,
,,,0.000034400000,   5.00000,
,,,0.000034420000,   4.80000,
,,,0.000034440000,   5.00000,
,,,0.000034460000,   5.00000,
,,,0.000034480000,   5.20000,
,,,0.000034500000,   5.20000,
,,,0.000034520000,   4.60000,
,,,0.000034540000,   4.40000,
,,,0.000034560000,   4.80000,
,,,0.000034580000,   5.20000,
,,,0.000034600000,   5.20000,
,,,0.000034620000,   5.00000,
,,,0.000034640000,   5.00000,
,,,0.000034660000,   4.80000,
,,,0.000034680000,   5.20000,
,,,0.000034700000,   5.00000,
,,,0.000034720000,   4.80000,
,,,0.000034740000,   4.80000,
,,,0.000034760000,   5.20000,
,,,0.000034780000,   5.00000,
,,,0.000034800000,   4.80000,
,,,0.000034820000,   4.40000,
,,,0.000034840000,   4.60000,
,,,0.000034860000,   4.80000,
,,,0.000034880000,   4.60000,
,,,0.000034900000,   4.60000,
,,,0.000034920000,   4.80000,
,,,0.000034940000,   4.80000,
,,,0.000034960000,   4.80000,
,,,0.000034980000,   5.00000,
,,,0.000035000000,   5.20000,
,,,0.000035020000,   5.00000,
,,,0.000035040000,   4.80000,
,,,0.000035060000,   4.60000,
,,,0.000035080000,   5.00000,
,,,0.000035100000,   4.80000,
,,,0.000035120000,   5.00000,
,,,0.000035140000,   4.80000,
,,,0.000035160000,   4.60000,
,,,0.000035180000,   5.00000,
,,,0.000035200000,   4.80000,
,,,0.000035220000,   4.20000,
,,,0.000035240000,   5.00000,
,,,0.000035260000,   4.60000,
,,,0.000035280000,   4.80000,
,,,0.000035300000,   4.80000,
,,,0.000035320000,   4.60000,
,,,0.000035340000,   4.60000,
,,,0.000035360000,   5.00000,
,,,0.000035380000,   4.80000,
,,,0.000035400000,   4.80000,
,,,0.000035420000,   4.80000,
,,,0.000035440000,   4.40000,
,,,0.000035460000,   4.80000,
,,,0.000035480000,   4.60000,
,,,0.000035500000,   4.80000,
,,,0.000035520000,   5.00000,
,,,0.000035540000,   5.00000,
,,,0.000035560000,   5.00000,
,,,0.000035580000,   4.80000,
,,,0.000035600000,   5.00000,
,,,0.000035620000,   5.00000,
,,,0.000035640000,   4.60000,
,,,0.000035660000,   4.60000,
,,,0.000035680000,   5.00000,
,,,0.000035700000,   5.00000,
,,,0.000035720000,   5.00000,
,,,0.000035740000,   4.60000,
,,,0.000035760000,   4.60000,
,,,0.000035780000,   4.80000,
,,,0.000035800000,   5.00000,
,,,0.000035820000,   5.00000,
,,,0.000035840000,   4.80000,
,,,0.000035860000,   4.80000,
,,,0.000035880000,   5.20000,
,,,0.000035900000,   5.00000,
,,,0.000035920000,   5.00000,
,,,0.000035940000,   4.60000,
,,,0.000035960000,   5.20000,
,,,0.000035980000,   5.00000,
,,,0.000036000000,   5.00000,
,,,0.000036020000,   5.00000,
,,,0.000036040000,   4.60000,
,,,0.000036060000,   4.80000,
,,,0.000036080000,   4.80000,
,,,0.000036100000,   4.80000,
,,,0.000036120000,   4.80000,
,,,0.000036140000,   5.00000,
,,,0.000036160000,   5.00000,
,,,0.000036180000,   4.60000,
,,,0.000036200000,   4.80000,
,,,0.000036220000,   5.00000,
,,,0.000036240000,   4.60000,
,,,0.000036260000,   4.80000,
,,,0.000036280000,   4.60000,
,,,0.000036300000,   4.80000,
,,,0.000036320000,   4.60000,
,,,0.000036340000,   5.00000,
,,,0.000036360000,   4.80000,
,,,0.000036380000,   4.60000,
,,,0.000036400000,   4.80000,
,,,0.000036420000,   4.80000,
,,,0.000036440000,   4.80000,
,,,0.000036460000,   4.80000,
,,,0.000036480000,   4.80000,
,,,0.000036500000,   4.80000,
,,,0.000036520000,   4.60000,
,,,0.000036540000,   4.60000,
,,,0.000036560000,   4.60000,
,,,0.000036580000,   5.00000,
,,,0.000036600000,   4.80000,
,,,0.000036620000,   5.00000,
,,,0.000036640000,   4.80000,
,,,0.000036660000,   4.80000,
,,,0.000036680000,   4.80000,
,,,0.000036700000,   4.80000,
,,,0.000036720000,   5.20000,
,,,0.000036740000,   4.80000,
,,,0.000036760000,   4.80000,
,,,0.000036780000,   4.80000,
,,,0.000036800000,   4.80000,
,,,0.000036820000,   4.60000,
,,,0.000036840000,   4.40000,
,,,0.000036860000,   4.80000,
,,,0.000036880000,   4.60000,
,,,0.000036900000,   4.60000,
,,,0.000036920000,   4.80000,
,,,0.000036940000,   4.80000,
,,,0.000036960000,   4.80000,
,,,0.000036980000,   4.60000,
,,,0.000037000000,   4.80000,
,,,0.000037020000,   4.80000,
,,,0.000037040000,   4.60000,
,,,0.000037060000,   4.80000,
,,,0.000037080000,   4.80000,
,,,0.000037100000,   4.80000,
,,,0.000037120000,   4.80000,
,,,0.000037140000,   5.00000,
,,,0.000037160000,   5.20000,
,,,0.000037180000,   5.00000,
,,,0.000037200000,   4.80000,
,,,0.000037220000,   4.80000,
,,,0.000037240000,   4.40000,
,,,0.000037260000,   4.60000,
,,,0.000037280000,   4.80000,
,,,0.000037300000,   4.60000,
,,,0.000037320000,   4.80000,
,,,0.000037340000,   4.80000,
,,,0.000037360000,   5.00000,
,,,0.000037380000,   4.60000,
,,,0.000037400000,   4.80000,
,,,0.000037420000,   4.80000,
,,,0.000037440000,   4.60000,
,,,0.000037460000,   4.80000,
,,,0.000037480000,   4.80000,
,,,0.000037500000,   5.20000,
,,,0.000037520000,   4.60000,
,,,0.000037540000,   4.80000,
,,,0.000037560000,   5.00000,
,,,0.000037580000,   4.60000,
,,,0.000037600000,   5.00000,
,,,0.000037620000, -16.00000,
,,,0.000037640000, -13.60000,
,,,0.000037660000,  -8.20000,
,,,0.000037680000, -13.20000,
,,,0.000037700000,  -7.40000,
,,,0.000037720000,  -8.80000,
,,,0.000037740000,  -7.80000,
,,,0.000037760000,  -6.40000,
,,,0.000037780000,  -7.20000,
,,,0.000037800000,  -6.40000,
,,,0.000037820000,  -7.20000,
,,,0.000037840000,  -6.00000,
,,,0.000037860000,  -6.20000,
,,,0.000037880000,  -5.80000,
,,,0.000037900000,  -5.60000,
,,,0.000037920000,  -5.60000,
,,,0.000037940000,  -5.60000,
,,,0.000037960000,  -5.60000,
,,,0.000037980000,  -5.40000,
,,,0.000038000000,  -5.40000,
,,,0.000038020000,  -5.40000,
,,,0.000038040000,  -5.40000,
,,,0.000038060000,  -5.20000,
,,,0.000038080000,  -5.40000,
,,,0.000038100000,  -5.00000,
,,,0.000038120000,  -5.40000,
,,,0.000038140000,  -5.40000,
,,,0.000038160000,  -5.20000,
,,,0.000038180000,  -5.40000,
,,,0.000038200000,  -5.00000,
,,,0.000038220000,  -5.00000,
,,,0.000038240000,  -5.00000,
,,,0.000038260000,  -5.20000,
,,,0.000038280000,  -5.40000,
,,,0.000038300000,  -5.40000,
,,,0.000038320000,  -5.00000,
,,,0.000038340000,  -5.00000,
,,,0.000038360000,  -5.20000,
,,,0.000038380000,  -5.20000,
,,,0.000038400000,  -5.20000,
,,,0.000038420000,  -5.60000,
,,,0.000038440000,  -5.00000,
,,,0.000038460000,  -5.40000,
,,,0.000038480000,  -5.40000,
,,,0.000038500000,  -5.40000,
,,,0.000038520000,  -5.40000,
,,,0.000038540000,  -5.00000,
,,,0.000038560000,  -5.00000,
,,,0.000038580000,  -5.20000,
,,,0.000038600000,  -5.40000,
,,,0.000038620000,  -5.20000,
,,,0.000038640000,  -5.40000,
,,,0.000038660000,  -5.20000,
,,,0.000038680000,  -5.20000,
,,,0.000038700000,  -5.00000,
,,,0.000038720000,  -5.40000,
,,,0.000038740000,  -5.20000,
,,,0.000038760000,  -5.40000,
,,,0.000038780000,  -5.20000,
,,,0.000038800000,  -5.60000,
,,,0.000038820000,  -5.20000,
,,,0.000038840000,  -5.40000,
,,,0.000038860000,  -5.20000,
,,,0.000038880000,  -5.40000,
,,,0.000038900000,  -5.60000,
,,,0.000038920000,  -5.20000,
,,,0.000038940000,  -5.00000,
,,,0.000038960000,  -5.40000,
,,,0.000038980000,  -5.20000,
,,,0.000039000000,  -5.00000,
,,,0.000039020000,  -5.40000,
,,,0.000039040000,  -5.20000,
,,,0.000039060000,  -5.40000,
,,,0.000039080000,  -5.40000,
,,,0.000039100000,  -5.40000,
,,,0.000039120000,  -5.20000,
,,,0.000039140000,  -5.00000,
,,,0.000039160000,  -5.20000,
,,,0.000039180000,  -5.40000,
,,,0.000039200000,  -5.40000,
,,,0.000039220000,  -5.40000,
,,,0.000039240000,  -5.20000,
,,,0.000039260000,  -5.20000,
,,,0.000039280000,  -5.60000,
,,,0.000039300000,  -5.20000,
,,,0.000039320000,  -5.00000,
,,,0.000039340000,  -5.40000,
,,,0.000039360000,  -5.40000,
,,,0.000039380000,  -5.00000,
,,,0.000039400000,  -5.40000,
,,,0.000039420000,  -5.00000,
,,,0.000039440000,  -5.20000,
,,,0.000039460000,  -5.20000,
,,,0.000039480000,  -5.20000,
,,,0.000039500000,  -5.00000,
,,,0.000039520000,  -5.40000,
,,,0.000039540000,  -5.00000,
,,,0.000039560000,  -5.00000,
,,,0.000039580000,  -5.20000,
,,,0.000039600000,  -5.40000,
,,,0.000039620000,  -5.20000,
,,,0.000039640000,  -5.20000,
,,,0.000039660000,  -5.60000,
,,,0.000039680000,  -5.20000,
,,,0.000039700000,  -5.40000,
,,,0.000039720000,  -5.20000,
,,,0.000039740000,  -5.20000,
,,,0.000039760000,  -5.40000,
,,,0.000039780000,  -5.00000,
,,,0.000039800000,  -5.20000,
,,,0.000039820000,  -5.00000,
,,,0.000039840000,  -5.20000,
,,,0.000039860000,  -5.20000,
,,,0.000039880000,  -5.20000,
,,,0.000039900000,  -5.00000,
,,,0.000039920000,  -5.00000,
,,,0.000039940000,  -5.40000,
,,,0.000039960000,  -5.20000,
,,,0.000039980000,  -5.00000,
,,,0.000040000000,  -5.40000,
,,,0.000040020000,  -5.40000,
,,,0.000040040000,  -5.00000,
,,,0.000040060000,  -5.40000,
,,,0.000040080000,  -5.40000,
,,,0.000040100000,  -5.20000,
,,,0.000040120000,  -5.20000,
,,,0.000040140000,  -5.40000,
,,,0.000040160000,  -5.20000,
,,,0.000040180000,  -5.20000,
,,,0.000040200000,  -5.20000,
,,,0.000040220000,  -5.20000,
,,,0.000040240000,  -5.00000,
,,,0.000040260000,  -5.20000,
,,,0.000040280000,  -5.00000,
,,,0.000040300000,  -5.40000,
,,,0.000040320000,  -5.20000,
,,,0.000040340000,  -5.20000,
,,,0.000040360000,  -5.40000,
,,,0.000040380000,  -5.20000,
,,,0.000040400000,  -5.40000,
,,,0.000040420000,  -5.20000,
,,,0.000040440000,  -5.20000,
,,,0.000040460000,  -5.00000,
,,,0.000040480000,  -5.20000,
,,,0.000040500000,  -5.20000,
,,,0.000040520000,  -5.00000,
,,,0.000040540000,  -5.20000,
,,,0.000040560000,  -5.20000,
,,,0.000040580000,  -5.40000,
,,,0.000040600000,  -5.40000,
,,,0.000040620000,  -5.40000,
,,,0.000040640000,  -5.20000,
,,,0.000040660000,  -5.20000,
,,,0.000040680000,  -5.20000,
,,,0.000040700000,  -5.20000,
,,,0.000040720000,  -5.40000,
,,,0.000040740000,  -5.60000,
,,,0.000040760000,  -5.20000,
,,,0.000040780000,  -5.60000,
,,,0.000040800000,  -5.40000,
,,,0.000040820000,  -5.60000,
,,,0.000040840000,  -5.40000,
,,,0.000040860000,  -5.00000,
,,,0.000040880000,  -5.20000,
,,,0.000040900000,  -5.20000,
,,,0.000040920000,  -5.20000,
,,,0.000040940000,  -5.20000,
,,,0.000040960000,  -5.40000,
,,,0.000040980000,  -5.20000,
,,,0.000041000000,  -5.40000,
,,,0.000041020000,  -5.40000,
,,,0.000041040000,  -5.40000,
,,,0.000041060000,  -5.40000,
,,,0.000041080000,  -5.20000,
,,,0.000041100000,  -5.60000,
,,,0.000041120000,  -5.40000,
,,,0.000041140000,  -5.20000,
,,,0.000041160000,  -5.40000,
,,,0.000041180000,  -5.40000,
,,,0.000041200000,  -5.40000,
,,,0.000041220000,  -5.40000,
,,,0.000041240000,  -5.20000,
,,,0.000041260000,  -5.40000,
,,,0.000041280000,  -5.00000,
,,,0.000041300000,  -5.00000,
,,,0.000041320000,  -5.40000,
,,,0.000041340000,  -5.40000,
,,,0.000041360000,  -5.40000,
,,,0.000041380000,  -5.20000,
,,,0.000041400000,  -5.40000,
,,,0.000041420000,  -5.00000,
,,,0.000041440000,  -5.20000,
,,,0.000041460000,  -5.20000,
,,,0.000041480000,  -5.00000,
,,,0.000041500000,  -5.00000,
,,,0.000041520000,  -5.00000,
,,,0.000041540000,  -5.40000,
,,,0.000041560000,  -5.20000,
,,,0.000041580000,  -5.00000,
,,,0.000041600000,  -5.20000,
,,,0.000041620000,  -5.20000,
,,,0.000041640000,  -5.20000,
,,,0.000041660000,  -5.20000,
,,,0.000041680000,  -5.40000,
,,,0.000041700000,  -5.40000,
,,,0.000041720000,  -5.00000,
,,,0.000041740000,  -5.40000,
,,,0.000041760000,  -5.00000,
,,,0.000041780000,  -5.60000,
,,,0.000041800000,  -5.40000,
,,,0.000041820000,  -5.20000,
,,,0.000041840000,  -5.00000,
,,,0.000041860000,  -5.00000,
,,,0.000041880000,  -5.20000,
,,,0.000041900000,  -5.20000,
,,,0.000041920000,  -5.20000,
,,,0.000041940000,  -4.80000,
,,,0.000041960000,  -5.00000,
,,,0.000041980000,  -5.00000,
,,,0.000042000000,  -5.20000,
,,,0.000042020000,  -5.40000,
,,,0.000042040000,  -5.40000,
,,,0.000042060000,  -5.20000,
,,,0.000042080000,  -5.40000,
,,,0.000042100000,  -5.40000,
,,,0.000042120000,  -5.40000,
,,,0.000042140000,  -5.20000,
,,,0.000042160000,  -5.40000,
,,,0.000042180000,  -5.20000,
,,,0.000042200000,  -5.00000,
,,,0.000042220000,  -5.20000,
,,,0.000042240000,  -5.20000,
,,,0.000042260000,  -5.00000,
,,,0.000042280000,  -5.40000,
,,,0.000042300000,  -5.40000,
,,,0.000042320000,  -5.00000,
,,,0.000042340000,  -5.20000,
,,,0.000042360000,  -5.20000,
,,,0.000042380000,  -5.40000,
,,,0.000042400000,  -5.00000,
,,,0.000042420000,  -5.20000,
,,,0.000042440000,  -5.40000,
,,,0.000042460000,  -5.20000,
,,,0.000042480000,  -5.00000,
,,,0.000042500000,  -5.00000,
,,,0.000042520000,  -5.20000,
,,,0.000042540000,  -5.40000,
,,,0.000042560000,  -5.60000,
,,,0.000042580000,  -5.20000,
,,,0.000042600000,  -5.40000,
,,,0.000042620000,  -5.00000,
,,,0.000042640000,  -5.00000,
,,,0.000042660000,  -5.20000,
,,,0.000042680000,  -5.20000,
,,,0.000042700000,  -5.00000,
,,,0.000042720000,  -5.20000,
,,,0.000042740000,  -5.00000,
,,,0.000042760000,  -5.40000,
,,,0.000042780000,  -5.20000,
,,,0.000042800000,  -5.40000,
,,,0.000042820000,  -5.20000,
,,,0.000042840000,  -5.20000,
,,,0.000042860000,  -5.00000,
,,,0.000042880000,  -5.40000,
,,,0.000042900000,  -5.20000,
,,,0.000042920000,  -5.20000,
,,,0.000042940000,  -5.40000,
,,,0.000042960000,  -5.00000,
,,,0.000042980000,  -5.20000,
,,,0.000043000000,  -5.00000,
,,,0.000043020000,  -5.20000,
,,,0.000043040000,  -5.00000,
,,,0.000043060000,  -5.40000,
,,,0.000043080000,  -5.20000,
,,,0.000043100000,  -5.20000,
,,,0.000043120000,  -5.20000,
,,,0.000043140000,  -5.40000,
,,,0.000043160000,  -5.20000,
,,,0.000043180000,  -5.60000,
,,,0.000043200000,  -5.20000,
,,,0.000043220000,  -5.00000,
,,,0.000043240000,  -5.40000,
,,,0.000043260000,  -5.00000,
,,,0.000043280000,  -5.00000,
,,,0.000043300000,  -5.40000,
,,,0.000043320000,  -5.60000,
,,,0.000043340000,  -5.00000,
,,,0.000043360000,  -5.20000,
,,,0.000043380000,  -5.40000,
,,,0.000043400000,  -5.20000,
,,,0.000043420000,  -5.40000,
,,,0.000043440000,  -5.20000,
,,,0.000043460000,  -5.00000,
,,,0.000043480000,  -5.20000,
,,,0.000043500000,  -5.20000,
,,,0.000043520000,  -5.00000,
,,,0.000043540000,  -5.00000,
,,,0.000043560000,  -5.60000,
,,,0.000043580000,  -5.40000,
,,,0.000043600000,  -5.20000,
,,,0.000043620000,  -5.20000,
,,,0.000043640000,  -5.20000,
,,,0.000043660000,  -5.40000,
,,,0.000043680000,  -5.00000,
,,,0.000043700000,  -5.40000,
,,,0.000043720000,  -5.20000,
,,,0.000043740000,  -5.00000,
,,,0.000043760000,  -5.00000,
,,,0.000043780000,  -5.00000,
,,,0.000043800000,  -5.20000,
,,,0.000043820000,  -5.20000,
,,,0.000043840000,  -4.80000,
,,,0.000043860000,  -5.00000,
,,,0.000043880000,  -5.00000,
,,,0.000043900000,  -5.40000,
,,,0.000043920000,  -5.00000,
,,,0.000043940000,  -5.00000,
,,,0.000043960000,  -5.20000,
,,,0.000043980000,  -5.40000,
,,,0.000044000000,  -5.00000,
,,,0.000044020000,  -5.40000,
,,,0.000044040000,  -5.20000,
,,,0.000044060000,  -5.40000,
,,,0.000044080000,  -5.20000,
,,,0.000044100000,  -5.00000,
,,,0.000044120000,  -5.40000,
,,,0.000044140000,  -5.20000,
,,,0.000044160000,  -5.40000,
,,,0.000044180000,  -5.40000,
,,,0.000044200000,  -5.20000,
,,,0.000044220000,  -5.40000,
,,,0.000044240000,  -5.20000,
,,,0.000044260000,  -5.20000,
,,,0.000044280000,  -5.00000,
,,,0.000044300000,  -5.60000,
,,,0.000044320000,  -5.40000,
,,,0.000044340000,  -5.00000,
,,,0.000044360000,  -5.40000,
,,,0.000044380000,  -5.00000,
,,,0.000044400000,  -5.40000,
,,,0.000044420000,  -5.40000,
,,,0.000044440000,  -5.20000,
,,,0.000044460000,  -5.20000,
