2 - Experimentos/1 - Ponte de Mosfets/80kHz/9 - 390Ohm_3.1mH/tensão indutor/F0001MTH.CSV

Record Length,2.500000e+03,,   0.000039000000,  31.20000,
Sample Interval,1.000000e-08,,   0.000039010000,  30.40000,
Trigger Point,-3.900000000000e+03,,   0.000039020000,  31.20000,
,,,   0.000039030000,  31.20000,
,,,   0.000039040000,  31.20000,
,,,   0.000039050000,  32.00000,
Source,MATH,,   0.000039060000,  31.20000,
Vertical Units,V,,   0.000039070000,  31.20000,
Vertical Scale,2.000000e+01,,   0.000039080000,  30.40000,
Vertical Offset,0.000000e+00,,   0.000039090000,  31.20000,
Horizontal Units,s,,   0.000039100000,  31.20000,
Horizontal Scale,2.500000e-06,,   0.000039110000,  31.20000,
Pt Fmt,Y,,   0.000039120000,  31.20000,
Yzero,0.000000e+00,,   0.000039130000,  30.40000,
Probe Atten,1.000000e+00,,   0.000039140000,  31.20000,
Model Number,TDS2004C,,   0.000039150000,  30.40000,
Serial Number,C012246,,   0.000039160000,  31.20000,
Firmware Version,FV:v24.18,,   0.000039170000,  31.20000,
,,,0.000039180000,  30.40000,
,,,0.000039190000,  30.40000,
,,,0.000039200000,  30.40000,
,,,0.000039210000,  30.40000,
,,,0.000039220000,  31.20000,
,,,0.000039230000,  30.40000,
,,,0.000039240000,  29.60000,
,,,0.000039250000,  30.40000,
,,,0.000039260000,  30.40000,
,,,0.000039270000,  30.40000,
,,,0.000039280000,  29.60000,
,,,0.000039290000,  30.40000,
,,,0.000039300000,  30.40000,
,,,0.000039310000,  29.60000,
,,,0.000039320000,  29.60000,
,,,0.000039330000,  30.40000,
,,,0.000039340000,  29.60000,
,,,0.000039350000,  29.60000,
,,,0.000039360000,  30.40000,
,,,0.000039370000,  29.60000,
,,,0.000039380000,  29.60000,
,,,0.000039390000,  29.60000,
,,,0.000039400000,  29.60000,
,,,0.000039410000,  29.60000,
,,,0.000039420000,  29.60000,
,,,0.000039430000,  28.80000,
,,,0.000039440000,  29.60000,
,,,0.000039450000,  29.60000,
,,,0.000039460000,  29.60000,
,,,0.000039470000,  28.80000,
,,,0.000039480000,  30.40000,
,,,0.000039490000,  29.60000,
,,,0.000039500000,  28.80000,
,,,0.000039510000,  29.60000,
,,,0.000039520000,  29.60000,
,,,0.000039530000,  29.60000,
,,,0.000039540000,  28.80000,
,,,0.000039550000,  29.60000,
,,,0.000039560000,  28.80000,
,,,0.000039570000,  28.80000,
,,,0.000039580000,  28.80000,
,,,0.000039590000,  28.80000,
,,,0.000039600000,  28.80000,
,,,0.000039610000,  28.80000,
,,,0.000039620000,  28.80000,
,,,0.000039630000,  28.80000,
,,,0.000039640000,  28.80000,
,,,0.000039650000,  29.60000,
,,,0.000039660000,  29.60000,
,,,0.000039670000,  28.00000,
,,,0.000039680000,  29.60000,
,,,0.000039690000,  28.80000,
,,,0.000039700000,  28.80000,
,,,0.000039710000,  29.60000,
,,,0.000039720000,  28.80000,
,,,0.000039730000,  28.80000,
,,,0.000039740000,  28.80000,
,,,0.000039750000,  28.00000,
,,,0.000039760000,  28.00000,
,,,0.000039770000,  28.00000,
,,,0.000039780000,  28.80000,
,,,0.000039790000,  28.00000,
,,,0.000039800000,  28.80000,
,,,0.000039810000,  28.80000,
,,,0.000039820000,  28.80000,
,,,0.000039830000,  28.00000,
,,,0.000039840000,  28.00000,
,,,0.000039850000,  28.00000,
,,,0.000039860000,  28.00000,
,,,0.000039870000,  28.00000,
,,,0.000039880000,  28.80000,
,,,0.000039890000,  28.00000,
,,,0.000039900000,  28.00000,
,,,0.000039910000,  28.80000,
,,,0.000039920000,  28.00000,
,,,0.000039930000,  28.00000,
,,,0.000039940000,  28.00000,
,,,0.000039950000,  27.20000,
,,,0.000039960000,  28.00000,
,,,0.000039970000,  28.00000,
,,,0.000039980000,  27.20000,
,,,0.000039990000,  28.00000,
,,,0.000040000000,  28.00000,
,,,0.000040010000,  27.20000,
,,,0.000040020000,  28.00000,
,,,0.000040030000,  27.20000,
,,,0.000040040000,  28.00000,
,,,0.000040050000,  28.00000,
,,,0.000040060000,  27.20000,
,,,0.000040070000,  27.20000,
,,,0.000040080000,  27.20000,
,,,0.000040090000,  27.20000,
,,,0.000040100000,  27.20000,
,,,0.000040110000,  28.00000,
,,,0.000040120000,  27.20000,
,,,0.000040130000,  26.40000,
,,,0.000040140000,  27.20000,
,,,0.000040150000,  28.00000,
,,,0.000040160000,  27.20000,
,,,0.000040170000,  27.20000,
,,,0.000040180000,  27.20000,
,,,0.000040190000,  26.40000,
,,,0.000040200000,  27.20000,
,,,0.000040210000,  26.40000,
,,,0.000040220000,  26.40000,
,,,0.000040230000,  26.40000,
,,,0.000040240000,  27.20000,
,,,0.000040250000,  27.20000,
,,,0.000040260000,  26.40000,
,,,0.000040270000,  26.40000,
,,,0.000040280000,  26.40000,
,,,0.000040290000,  27.20000,
,,,0.000040300000,  25.60000,
,,,0.000040310000,  26.40000,
,,,0.000040320000,  26.40000,
,,,0.000040330000,  26.40000,
,,,0.000040340000,  28.00000,
,,,0.000040350000,  26.40000,
,,,0.000040360000,  26.40000,
,,,0.000040370000,  27.20000,
,,,0.000040380000,  26.40000,
,,,0.000040390000,  27.20000,
,,,0.000040400000,  27.20000,
,,,0.000040410000,  26.40000,
,,,0.000040420000,  26.40000,
,,,0.000040430000,  26.40000,
,,,0.000040440000,  26.40000,
,,,0.000040450000,  25.60000,
,,,0.000040460000,  25.60000,
,,,0.000040470000,  26.40000,
,,,0.000040480000,  26.40000,
,,,0.000040490000,  26.40000,
,,,0.000040500000,  26.40000,
,,,0.000040510000,  25.60000,
,,,0.000040520000,  26.40000,
,,,0.000040530000,  25.60000,
,,,0.000040540000,  25.60000,
,,,0.000040550000,  25.60000,
,,,0.000040560000,  25.60000,
,,,0.000040570000,  26.40000,
,,,0.000040580000,  25.60000,
,,,0.000040590000,  24.80000,
,,,0.000040600000,  26.40000,
,,,0.000040610000,  24.80000,
,,,0.000040620000,  25.60000,
,,,0.000040630000,  25.60000,
,,,0.000040640000,  25.60000,
,,,0.000040650000,  25.60000,
,,,0.000040660000,  25.60000,
,,,0.000040670000,  25.60000,
,,,0.000040680000,  25.60000,
,,,0.000040690000,  25.60000,
,,,0.000040700000,  25.60000,
,,,0.000040710000,  24.80000,
,,,0.000040720000,  25.60000,
,,,0.000040730000,  25.60000,
,,,0.000040740000,  24.80000,
,,,0.000040750000,  24.80000,
,,,0.000040760000,  24.80000,
,,,0.000040770000,  25.60000,
,,,0.000040780000,  24.80000,
,,,0.000040790000,  24.80000,
,,,0.000040800000,  24.00000,
,,,0.000040810000,  24.80000,
,,,0.000040820000,  24.80000,
,,,0.000040830000,  24.80000,
,,,0.000040840000,  24.80000,
,,,0.000040850000,  24.80000,
,,,0.000040860000,  24.00000,
,,,0.000040870000,  25.60000,
,,,0.000040880000,  24.80000,
,,,0.000040890000,  24.80000,
,,,0.000040900000,  24.80000,
,,,0.000040910000,  24.80000,
,,,0.000040920000,  24.80000,
,,,0.000040930000,  24.00000,
,,,0.000040940000,  24.00000,
,,,0.000040950000,  25.60000,
,,,0.000040960000,  24.00000,
,,,0.000040970000,  24.00000,
,,,0.000040980000,  24.80000,
,,,0.000040990000,  24.00000,
,,,0.000041000000,  24.80000,
,,,0.000041010000,  23.20000,
,,,0.000041020000,  24.00000,
,,,0.000041030000,  24.00000,
,,,0.000041040000,  24.80000,
,,,0.000041050000,  24.80000,
,,,0.000041060000,  24.00000,
,,,0.000041070000,  24.00000,
,,,0.000041080000,  24.00000,
,,,0.000041090000,  24.80000,
,,,0.000041100000,  24.80000,
,,,0.000041110000,  24.80000,
,,,0.000041120000,  24.00000,
,,,0.000041130000,  24.00000,
,,,0.000041140000,  24.80000,
,,,0.000041150000,  23.20000,
,,,0.000041160000,  24.00000,
,,,0.000041170000,  23.20000,
,,,0.000041180000,  24.00000,
,,,0.000041190000,  23.20000,
,,,0.000041200000,  24.80000,
,,,0.000041210000,  23.20000,
,,,0.000041220000,  23.20000,
,,,0.000041230000,  24.00000,
,,,0.000041240000,  24.00000,
,,,0.000041250000,  24.00000,
,,,0.000041260000,  24.00000,
,,,0.000041270000,  23.20000,
,,,0.000041280000,  24.00000,
,,,0.000041290000,  24.00000,
,,,0.000041300000,  24.00000,
,,,0.000041310000,  23.20000,
,,,0.000041320000,  23.20000,
,,,0.000041330000,  24.00000,
,,,0.000041340000,  24.00000,
,,,0.000041350000,  23.20000,
,,,0.000041360000,  22.40000,
,,,0.000041370000,  22.40000,
,,,0.000041380000,  22.40000,
,,,0.000041390000,  22.40000,
,,,0.000041400000,  21.60000,
,,,0.000041410000,  23.20000,
,,,0.000041420000,  24.00000,
,,,0.000041430000,  23.20000,
,,,0.000041440000,  23.20000,
,,,0.000041450000,  23.20000,
,,,0.000041460000,  24.00000,
,,,0.000041470000,  23.20000,
,,,0.000041480000,  22.40000,
,,,0.000041490000,  22.40000,
,,,0.000041500000,  23.20000,
,,,0.000041510000,  23.20000,
,,,0.000041520000,  24.00000,
,,,0.000041530000,  22.40000,
,,,0.000041540000,  23.20000,
,,,0.000041550000,  23.20000,
,,,0.000041560000,  23.20000,
,,,0.000041570000,  23.20000,
,,,0.000041580000,  23.20000,
,,,0.000041590000,  23.20000,
,,,0.000041600000,  22.40000,
,,,0.000041610000,  23.20000,
,,,0.000041620000,  23.20000,
,,,0.000041630000,  23.20000,
,,,0.000041640000,  23.20000,
,,,0.000041650000,  22.40000,
,,,0.000041660000,  23.20000,
,,,0.000041670000,  22.40000,
,,,0.000041680000,  22.40000,
,,,0.000041690000,  22.40000,
,,,0.000041700000,  22.40000,
,,,0.000041710000,  23.20000,
,,,0.000041720000,  22.40000,
,,,0.000041730000,  21.60000,
,,,0.000041740000,  22.40000,
,,,0.000041750000,  21.60000,
,,,0.000041760000,  22.40000,
,,,0.000041770000,  21.60000,
,,,0.000041780000,  21.60000,
,,,0.000041790000,  21.60000,
,,,0.000041800000,  21.60000,
,,,0.000041810000,  20.80000,
,,,0.000041820000,  20.80000,
,,,0.000041830000,  20.80000,
,,,0.000041840000,  20.00000,
,,,0.000041850000,  20.00000,
,,,0.000041860000,  20.00000,
,,,0.000041870000,  19.20000,
,,,0.000041880000,  18.40000,
,,,0.000041890000,  18.40000,
,,,0.000041900000,  17.60000,
,,,0.000041910000,  17.60000,
,,,0.000041920000,  16.80000,
,,,0.000041930000,  16.00000,
,,,0.000041940000,  16.00000,
,,,0.000041950000,  14.40000,
,,,0.000041960000,  14.40000,
,,,0.000041970000,  12.80000,
,,,0.000041980000,  12.80000,
,,,0.000041990000,  10.40000,
,,,0.000042000000,   8.80000,
,,,0.000042010000,   7.20000,
,,,0.000042020000,   5.60000,
,,,0.000042030000,   3.20000,
,,,0.000042040000,   2.40000,
,,,0.000042050000,   0.00000,
,,,0.000042060000,  -2.40000,
,,,0.000042070000,  -3.20000,
,,,0.000042080000,  -5.60000,
,,,0.000042090000,  -8.00000,
,,,0.000042100000,  -8.80000,
,,,0.000042110000, -11.20000,
,,,0.000042120000, -12.00000,
,,,0.000042130000, -12.80000,
,,,0.000042140000, -13.60000,
,,,0.000042150000, -13.60000,
,,,0.000042160000, -13.60000,
,,,0.000042170000, -14.40000,
,,,0.000042180000, -14.40000,
,,,0.000042190000, -14.40000,
,,,0.000042200000, -14.40000,
,,,0.000042210000, -14.40000,
,,,0.000042220000, -14.40000,
,,,0.000042230000, -14.40000,
,,,0.000042240000, -14.40000,
,,,0.000042250000, -15.20000,
,,,0.000042260000, -15.20000,
,,,0.000042270000, -15.20000,
,,,0.000042280000, -14.40000,
,,,0.000042290000, -14.40000,
,,,0.000042300000, -15.20000,
,,,0.000042310000, -15.20000,
,,,0.000042320000, -14.40000,
,,,0.000042330000, -15.20000,
,,,0.000042340000, -15.20000,
,,,0.000042350000, -15.20000,
,,,0.000042360000, -15.20000,
,,,0.000042370000, -15.20000,
,,,0.000042380000, -15.20000,
,,,0.000042390000, -16.00000,
,,,0.000042400000, -15.20000,
,,,0.000042410000, -15.20000,
,,,0.000042420000, -15.20000,
,,,0.000042430000, -15.20000,
,,,0.000042440000, -15.20000,
,,,0.000042450000, -15.20000,
,,,0.000042460000, -14.40000,
,,,0.000042470000, -14.40000,
,,,0.000042480000, -14.40000,
,,,0.000042490000, -13.60000,
,,,0.000042500000, -14.40000,
,,,0.000042510000, -13.60000,
,,,0.000042520000, -13.60000,
,,,0.000042530000, -12.80000,
,,,0.000042540000, -12.80000,
,,,0.000042550000, -12.00000,
,,,0.000042560000, -13.60000,
,,,0.000042570000, -12.80000,
,,,0.000042580000, -12.80000,
,,,0.000042590000, -12.80000,
,,,0.000042600000, -12.80000,
,,,0.000042610000, -12.80000,
,,,0.000042620000, -12.80000,
,,,0.000042630000, -14.40000,
,,,0.000042640000, -14.40000,
,,,0.000042650000, -15.20000,
,,,0.000042660000, -15.20000,
,,,0.000042670000, -16.00000,
,,,0.000042680000, -17.60000,
,,,0.000042690000, -18.40000,
,,,0.000042700000, -19.20000,
,,,0.000042710000, -20.80000,
,,,0.000042720000, -22.40000,
,,,0.000042730000, -24.00000,
,,,0.000042740000, -25.60000,
,,,0.000042750000, -26.40000,
,,,0.000042760000, -28.00000,
,,,0.000042770000, -29.60000,
,,,0.000042780000, -32.00000,
,,,0.000042790000, -32.80000,
,,,0.000042800000, -34.40000,
,,,0.000042810000, -35.20000,
,,,0.000042820000, -36.80000,
,,,0.000042830000, -37.60000,
,,,0.000042840000, -39.20000,
,,,0.000042850000, -40.00000,
,,,0.000042860000, -40.80000,
,,,0.000042870000, -41.60000,
,,,0.000042880000, -42.40000,
,,,0.000042890000, -42.40000,
,,,0.000042900000, -42.40000,
,,,0.000042910000, -43.20000,
,,,0.000042920000, -42.40000,
,,,0.000042930000, -44.00000,
,,,0.000042940000, -44.00000,
,,,0.000042950000, -43.20000,
,,,0.000042960000, -42.40000,
,,,0.000042970000, -42.40000,
,,,0.000042980000, -41.60000,
,,,0.000042990000, -42.40000,
,,,0.000043000000, -43.20000,
,,,0.000043010000, -41.60000,
,,,0.000043020000, -41.60000,
,,,0.000043030000, -41.60000,
,,,0.000043040000, -40.80000,
,,,0.000043050000, -41.60000,
,,,0.000043060000, -40.80000,
,,,0.000043070000, -41.60000,
,,,0.000043080000, -40.80000,
,,,0.000043090000, -40.00000,
,,,0.000043100000, -41.60000,
,,,0.000043110000, -41.60000,
,,,0.000043120000, -40.80000,
,,,0.000043130000, -41.60000,
,,,0.000043140000, -41.60000,
,,,0.000043150000, -41.60000,
,,,0.000043160000, -41.60000,
,,,0.000043170000, -42.40000,
,,,0.000043180000, -41.60000,
,,,0.000043190000, -41.60000,
,,,0.000043200000, -41.60000,
,,,0.000043210000, -42.40000,
,,,0.000043220000, -41.60000,
,,,0.000043230000, -43.20000,
,,,0.000043240000, -42.40000,
,,,0.000043250000, -42.40000,
,,,0.000043260000, -41.60000,
,,,0.000043270000, -42.40000,
,,,0.000043280000, -41.60000,
,,,0.000043290000, -41.60000,
,,,0.000043300000, -40.80000,
,,,0.000043310000, -41.60000,
,,,0.000043320000, -40.80000,
,,,0.000043330000, -40.80000,
,,,0.000043340000, -41.60000,
,,,0.000043350000, -40.00000,
,,,0.000043360000, -41.60000,
,,,0.000043370000, -40.00000,
,,,0.000043380000, -40.00000,
,,,0.000043390000, -40.80000,
,,,0.000043400000, -40.80000,
,,,0.000043410000, -40.00000,
,,,0.000043420000, -39.20000,
,,,0.000043430000, -40.00000,
,,,0.000043440000, -40.00000,
,,,0.000043450000, -40.00000,
,,,0.000043460000, -40.80000,
,,,0.000043470000, -40.00000,
,,,0.000043480000, -40.00000,
,,,0.000043490000, -40.00000,
,,,0.000043500000, -40.00000,
,,,0.000043510000, -40.80000,
,,,0.000043520000, -40.80000,
,,,0.000043530000, -39.20000,
,,,0.000043540000, -40.00000,
,,,0.000043550000, -40.80000,
,,,0.000043560000, -40.80000,
,,,0.000043570000, -40.00000,
,,,0.000043580000, -40.00000,
,,,0.000043590000, -40.00000,
,,,0.000043600000, -39.20000,
,,,0.000043610000, -39.20000,
,,,0.000043620000, -39.20000,
,,,0.000043630000, -39.20000,
,,,0.000043640000, -39.20000,
,,,0.000043650000, -39.20000,
,,,0.000043660000, -39.20000,
,,,0.000043670000, -39.20000,
,,,0.000043680000, -39.20000,
,,,0.000043690000, -39.20000,
,,,0.000043700000, -39.20000,
,,,0.000043710000, -39.20000,
,,,0.000043720000, -39.20000,
,,,0.000043730000, -39.20000,
,,,0.000043740000, -39.20000,
,,,0.000043750000, -38.40000,
,,,0.000043760000, -39.20000,
,,,0.000043770000, -38.40000,
,,,0.000043780000, -38.40000,
,,,0.000043790000, -38.40000,
,,,0.000043800000, -38.40000,
,,,0.000043810000, -38.40000,
,,,0.000043820000, -38.40000,
,,,0.000043830000, -38.40000,
,,,0.000043840000, -38.40000,
,,,0.000043850000, -38.40000,
,,,0.000043860000, -38.40000,
,,,0.000043870000, -38.40000,
,,,0.000043880000, -38.40000,
,,,0.000043890000, -38.40000,
,,,0.000043900000, -38.40000,
,,,0.000043910000, -38.40000,
,,,0.000043920000, -38.40000,
,,,0.000043930000, -38.40000,
,,,0.000043940000, -38.40000,
,,,0.000043950000, -38.40000,
,,,0.000043960000, -37.60000,
,,,0.000043970000, -38.40000,
,,,0.000043980000, -38.40000,
,,,0.000043990000, -38.40000,
,,,0.000044000000, -38.40000,
,,,0.000044010000, -38.40000,
,,,0.000044020000, -37.60000,
,,,0.000044030000, -38.40000,
,,,0.000044040000, -37.60000,
,,,0.000044050000, -37.60000,
,,,0.000044060000, -37.60000,
,,,0.000044070000, -36.80000,
,,,0.000044080000, -37.60000,
,,,0.000044090000, -37.60000,
,,,0.000044100000, -37.60000,
,,,0.000044110000, -36.80000,
,,,0.000044120000, -37.60000,
,,,0.000044130000, -37.60000,
,,,0.000044140000, -37.60000,
,,,0.000044150000, -37.60000,
,,,0.000044160000, -36.80000,
,,,0.000044170000, -36.80000,
,,,0.000044180000, -36.80000,
,,,0.000044190000, -37.60000,
,,,0.000044200000, -36.80000,
,,,0.000044210000, -36.80000,
,,,0.000044220000, -37.60000,
,,,0.000044230000, -36.80000,
,,,0.000044240000, -36.80000,
,,,0.000044250000, -36.80000,
,,,0.000044260000, -36.80000,
,,,0.000044270000, -36.00000,
,,,0.000044280000, -36.00000,
,,,0.000044290000, -35.20000,
,,,0.000044300000, -36.80000,
,,,0.000044310000, -36.00000,
,,,0.000044320000, -36.00000,
,,,0.000044330000, -36.00000,
,,,0.000044340000, -36.00000,
,,,0.000044350000, -36.00000,
,,,0.000044360000, -36.00000,
,,,0.000044370000, -36.80000,
,,,0.000044380000, -36.00000,
,,,0.000044390000, -35.20000,
,,,0.000044400000, -35.20000,
,,,0.000044410000, -35.20000,
,,,0.000044420000, -36.00000,
,,,0.000044430000, -36.00000,
,,,0.000044440000, -35.20000,
,,,0.000044450000, -36.00000,
,,,0.000044460000, -35.20000,
,,,0.000044470000, -36.00000,
,,,0.000044480000, -35.20000,
,,,0.000044490000, -35.20000,
,,,0.000044500000, -36.00000,
,,,0.000044510000, -35.20000,
,,,0.000044520000, -35.20000,
,,,0.000044530000, -35.20000,
,,,0.000044540000, -36.00000,
,,,0.000044550000, -36.80000,
,,,0.000044560000, -35.20000,
,,,0.000044570000, -35.20000,
,,,0.000044580000, -35.20000,
,,,0.000044590000, -35.20000,
,,,0.000044600000, -35.20000,
,,,0.000044610000, -34.40000,
,,,0.000044620000, -34.40000,
,,,0.000044630000, -35.20000,
,,,0.000044640000, -35.20000,
,,,0.000044650000, -34.40000,
,,,0.000044660000, -34.40000,
,,,0.000044670000, -34.40000,
,,,0.000044680000, -34.40000,
,,,0.000044690000, -34.40000,
,,,0.000044700000, -34.40000,
,,,0.000044710000, -35.20000,
,,,0.000044720000, -33.60000,
,,,0.000044730000, -34.40000,
,,,0.000044740000, -34.40000,
,,,0.000044750000, -34.40000,
,,,0.000044760000, -34.40000,
,,,0.000044770000, -33.60000,
,,,0.000044780000, -34.40000,
,,,0.000044790000, -34.40000,
,,,0.000044800000, -34.40000,
,,,0.000044810000, -33.60000,
,,,0.000044820000, -33.60000,
,,,0.000044830000, -34.40000,
,,,0.000044840000, -33.60000,
,,,0.000044850000, -33.60000,
,,,0.000044860000, -33.60000,
,,,0.000044870000, -33.60000,
,,,0.000044880000, -34.40000,
,,,0.000044890000, -33.60000,
,,,0.000044900000, -33.60000,
,,,0.000044910000, -33.60000,
,,,0.000044920000, -34.40000,
,,,0.000044930000, -33.60000,
,,,0.000044940000, -33.60000,
,,,0.000044950000, -32.80000,
,,,0.000044960000, -33.60000,
,,,0.000044970000, -33.60000,
,,,0.000044980000, -34.40000,
,,,0.000044990000, -32.80000,
,,,0.000045000000, -32.80000,
,,,0.000045010000, -32.80000,
,,,0.000045020000, -32.80000,
,,,0.000045030000, -32.80000,
,,,0.000045040000, -32.80000,
,,,0.000045050000, -32.80000,
,,,0.000045060000, -32.80000,
,,,0.000045070000, -32.80000,
,,,0.000045080000, -32.80000,
,,,0.000045090000, -32.00000,
,,,0.000045100000, -32.00000,
,,,0.000045110000, -33.60000,
,,,0.000045120000, -32.80000,
,,,0.000045130000, -32.80000,
,,,0.000045140000, -32.80000,
,,,0.000045150000, -32.80000,
,,,0.000045160000, -32.80000,
,,,0.000045170000, -32.80000,
,,,0.000045180000, -32.80000,
,,,0.000045190000, -32.80000,
,,,0.000045200000, -32.80000,
,,,0.000045210000, -32.80000,
,,,0.000045220000, -32.80000,
,,,0.000045230000, -32.80000,
,,,0.000045240000, -32.80000,
,,,0.000045250000, -32.80000,
,,,0.000045260000, -32.00000,
,,,0.000045270000, -32.80000,
,,,0.000045280000, -32.00000,
,,,0.000045290000, -32.80000,
,,,0.000045300000, -32.80000,
,,,0.000045310000, -32.00000,
,,,0.000045320000, -32.80000,
,,,0.000045330000, -32.00000,
,,,0.000045340000, -33.60000,
,,,0.000045350000, -31.20000,
,,,0.000045360000, -32.00000,
,,,0.000045370000, -32.00000,
,,,0.000045380000, -32.00000,
,,,0.000045390000, -32.00000,
,,,0.000045400000, -32.00000,
,,,0.000045410000, -32.00000,
,,,0.000045420000, -32.00000,
,,,0.000045430000, -31.20000,
,,,0.000045440000, -32.80000,
,,,0.000045450000, -31.20000,
,,,0.000045460000, -32.00000,
,,,0.000045470000, -31.20000,
,,,0.000045480000, -32.00000,
,,,0.000045490000, -31.20000,
,,,0.000045500000, -31.20000,
,,,0.000045510000, -31.20000,
,,,0.000045520000, -31.20000,
,,,0.000045530000, -32.00000,
