2 - Experimentos/1 - Ponte de Mosfets/40kHz/8 - 412Ohm_6.74mH/tensão resistor/F0000MTH.CSV

Record Length,2.500000e+03,,   0.000030000000,   1.60000,
Sample Interval,2.000000e-08,,   0.000030020000,   2.40000,
Trigger Point,-1.500000000000e+03,,   0.000030040000,   1.60000,
,,,   0.000030060000,   0.80000,
,,,   0.000030080000,   1.60000,
,,,   0.000030100000,   1.60000,
Source,MATH,,   0.000030120000,   2.40000,
Vertical Units,V,,   0.000030140000,   2.40000,
Vertical Scale,2.000000e+01,,   0.000030160000,   2.40000,
Vertical Offset,0.000000e+00,,   0.000030180000,   1.60000,
Horizontal Units,s,,   0.000030200000,   2.40000,
Horizontal Scale,5.000000e-06,,   0.000030220000,   2.40000,
Pt Fmt,Y,,   0.000030240000,   2.40000,
Yzero,0.000000e+00,,   0.000030260000,   1.60000,
Probe Atten,1.000000e+00,,   0.000030280000,   2.40000,
Model Number,TDS2004C,,   0.000030300000,   2.40000,
Serial Number,C012246,,   0.000030320000,   2.40000,
Firmware Version,FV:v24.18,,   0.000030340000,   2.40000,
,,,0.000030360000,   2.40000,
,,,0.000030380000,   2.40000,
,,,0.000030400000,   2.40000,
,,,0.000030420000,   1.60000,
,,,0.000030440000,   1.60000,
,,,0.000030460000,   2.40000,
,,,0.000030480000,   2.40000,
,,,0.000030500000,   2.40000,
,,,0.000030520000,   1.60000,
,,,0.000030540000,   2.40000,
,,,0.000030560000,   2.40000,
,,,0.000030580000,   2.40000,
,,,0.000030600000,   2.40000,
,,,0.000030620000,   2.40000,
,,,0.000030640000,   3.20000,
,,,0.000030660000,   2.40000,
,,,0.000030680000,   2.40000,
,,,0.000030700000,   3.20000,
,,,0.000030720000,   3.20000,
,,,0.000030740000,   3.20000,
,,,0.000030760000,   2.40000,
,,,0.000030780000,   3.20000,
,,,0.000030800000,   3.20000,
,,,0.000030820000,   3.20000,
,,,0.000030840000,   4.00000,
,,,0.000030860000,   3.20000,
,,,0.000030880000,   3.20000,
,,,0.000030900000,   3.20000,
,,,0.000030920000,   3.20000,
,,,0.000030940000,   3.20000,
,,,0.000030960000,   3.20000,
,,,0.000030980000,   3.20000,
,,,0.000031000000,   4.00000,
,,,0.000031020000,   4.00000,
,,,0.000031040000,   3.20000,
,,,0.000031060000,   4.00000,
,,,0.000031080000,   3.20000,
,,,0.000031100000,   3.20000,
,,,0.000031120000,   4.80000,
,,,0.000031140000,   3.20000,
,,,0.000031160000,   4.00000,
,,,0.000031180000,   4.00000,
,,,0.000031200000,   4.00000,
,,,0.000031220000,   4.00000,
,,,0.000031240000,   4.80000,
,,,0.000031260000,   4.00000,
,,,0.000031280000,   4.00000,
,,,0.000031300000,   3.20000,
,,,0.000031320000,   3.20000,
,,,0.000031340000,   4.00000,
,,,0.000031360000,   4.00000,
,,,0.000031380000,   4.80000,
,,,0.000031400000,   4.00000,
,,,0.000031420000,   4.00000,
,,,0.000031440000,   4.00000,
,,,0.000031460000,   4.00000,
,,,0.000031480000,   4.00000,
,,,0.000031500000,   4.80000,
,,,0.000031520000,   4.00000,
,,,0.000031540000,   4.80000,
,,,0.000031560000,   4.80000,
,,,0.000031580000,   4.80000,
,,,0.000031600000,   4.80000,
,,,0.000031620000,   4.80000,
,,,0.000031640000,   4.80000,
,,,0.000031660000,   4.80000,
,,,0.000031680000,   4.00000,
,,,0.000031700000,   4.80000,
,,,0.000031720000,   4.80000,
,,,0.000031740000,   4.80000,
,,,0.000031760000,   4.80000,
,,,0.000031780000,   4.80000,
,,,0.000031800000,   4.80000,
,,,0.000031820000,   4.00000,
,,,0.000031840000,   4.80000,
,,,0.000031860000,   4.80000,
,,,0.000031880000,   4.80000,
,,,0.000031900000,   4.80000,
,,,0.000031920000,   5.60000,
,,,0.000031940000,   5.60000,
,,,0.000031960000,   4.80000,
,,,0.000031980000,   4.00000,
,,,0.000032000000,   4.80000,
,,,0.000032020000,   5.60000,
,,,0.000032040000,   4.80000,
,,,0.000032060000,   4.80000,
,,,0.000032080000,   4.80000,
,,,0.000032100000,   5.60000,
,,,0.000032120000,   5.60000,
,,,0.000032140000,   4.80000,
,,,0.000032160000,   5.60000,
,,,0.000032180000,   5.60000,
,,,0.000032200000,   5.60000,
,,,0.000032220000,   5.60000,
,,,0.000032240000,   4.80000,
,,,0.000032260000,   5.60000,
,,,0.000032280000,   5.60000,
,,,0.000032300000,   5.60000,
,,,0.000032320000,   6.40000,
,,,0.000032340000,   6.40000,
,,,0.000032360000,   5.60000,
,,,0.000032380000,   5.60000,
,,,0.000032400000,   5.60000,
,,,0.000032420000,   5.60000,
,,,0.000032440000,   5.60000,
,,,0.000032460000,   6.40000,
,,,0.000032480000,   6.40000,
,,,0.000032500000,   5.60000,
,,,0.000032520000,   6.40000,
,,,0.000032540000,   5.60000,
,,,0.000032560000,   6.40000,
,,,0.000032580000,   6.40000,
,,,0.000032600000,   6.40000,
,,,0.000032620000,   6.40000,
,,,0.000032640000,   6.40000,
,,,0.000032660000,   6.40000,
,,,0.000032680000,   6.40000,
,,,0.000032700000,   7.20000,
,,,0.000032720000,   6.40000,
,,,0.000032740000,   6.40000,
,,,0.000032760000,   7.20000,
,,,0.000032780000,   7.20000,
,,,0.000032800000,   7.20000,
,,,0.000032820000,   6.40000,
,,,0.000032840000,   6.40000,
,,,0.000032860000,   6.40000,
,,,0.000032880000,   6.40000,
,,,0.000032900000,   5.60000,
,,,0.000032920000,   7.20000,
,,,0.000032940000,   6.40000,
,,,0.000032960000,   7.20000,
,,,0.000032980000,   7.20000,
,,,0.000033000000,   7.20000,
,,,0.000033020000,   6.40000,
,,,0.000033040000,   7.20000,
,,,0.000033060000,   7.20000,
,,,0.000033080000,   6.40000,
,,,0.000033100000,   8.00000,
,,,0.000033120000,   8.00000,
,,,0.000033140000,   7.20000,
,,,0.000033160000,   7.20000,
,,,0.000033180000,   6.40000,
,,,0.000033200000,   7.20000,
,,,0.000033220000,   8.00000,
,,,0.000033240000,   7.20000,
,,,0.000033260000,   7.20000,
,,,0.000033280000,   7.20000,
,,,0.000033300000,   7.20000,
,,,0.000033320000,   8.00000,
,,,0.000033340000,   7.20000,
,,,0.000033360000,   8.00000,
,,,0.000033380000,   7.20000,
,,,0.000033400000,   7.20000,
,,,0.000033420000,   8.00000,
,,,0.000033440000,   8.00000,
,,,0.000033460000,   8.00000,
,,,0.000033480000,   8.00000,
,,,0.000033500000,   7.20000,
,,,0.000033520000,   8.00000,
,,,0.000033540000,   8.00000,
,,,0.000033560000,   7.20000,
,,,0.000033580000,   7.20000,
,,,0.000033600000,   8.00000,
,,,0.000033620000,   8.00000,
,,,0.000033640000,   8.80000,
,,,0.000033660000,   8.00000,
,,,0.000033680000,   7.20000,
,,,0.000033700000,   8.00000,
,,,0.000033720000,   8.00000,
,,,0.000033740000,   8.00000,
,,,0.000033760000,   7.20000,
,,,0.000033780000,   8.00000,
,,,0.000033800000,   8.00000,
,,,0.000033820000,   8.00000,
,,,0.000033840000,   8.00000,
,,,0.000033860000,   8.00000,
,,,0.000033880000,   8.80000,
,,,0.000033900000,   8.80000,
,,,0.000033920000,   8.00000,
,,,0.000033940000,   8.00000,
,,,0.000033960000,   8.00000,
,,,0.000033980000,   8.80000,
,,,0.000034000000,   8.80000,
,,,0.000034020000,   8.80000,
,,,0.000034040000,   8.80000,
,,,0.000034060000,   8.80000,
,,,0.000034080000,   8.00000,
,,,0.000034100000,   8.80000,
,,,0.000034120000,   8.80000,
,,,0.000034140000,   8.00000,
,,,0.000034160000,   8.80000,
,,,0.000034180000,   8.80000,
,,,0.000034200000,   9.60000,
,,,0.000034220000,   8.80000,
,,,0.000034240000,   8.80000,
,,,0.000034260000,   8.80000,
,,,0.000034280000,   8.80000,
,,,0.000034300000,   8.80000,
,,,0.000034320000,   8.80000,
,,,0.000034340000,   8.80000,
,,,0.000034360000,   8.80000,
,,,0.000034380000,   8.00000,
,,,0.000034400000,   8.00000,
,,,0.000034420000,   8.80000,
,,,0.000034440000,   8.80000,
,,,0.000034460000,   8.80000,
,,,0.000034480000,   8.80000,
,,,0.000034500000,   9.60000,
,,,0.000034520000,   8.80000,
,,,0.000034540000,   8.80000,
,,,0.000034560000,   9.60000,
,,,0.000034580000,   8.80000,
,,,0.000034600000,   9.60000,
,,,0.000034620000,   8.80000,
,,,0.000034640000,   9.60000,
,,,0.000034660000,   8.80000,
,,,0.000034680000,   9.60000,
,,,0.000034700000,   8.80000,
,,,0.000034720000,   9.60000,
,,,0.000034740000,   9.60000,
,,,0.000034760000,   9.60000,
,,,0.000034780000,  10.40000,
,,,0.000034800000,   9.60000,
,,,0.000034820000,   9.60000,
,,,0.000034840000,   9.60000,
,,,0.000034860000,   9.60000,
,,,0.000034880000,   9.60000,
,,,0.000034900000,  10.40000,
,,,0.000034920000,   8.80000,
,,,0.000034940000,   9.60000,
,,,0.000034960000,   8.80000,
,,,0.000034980000,   9.60000,
,,,0.000035000000,   9.60000,
,,,0.000035020000,  10.40000,
,,,0.000035040000,   9.60000,
,,,0.000035060000,   9.60000,
,,,0.000035080000,   9.60000,
,,,0.000035100000,   9.60000,
,,,0.000035120000,  10.40000,
,,,0.000035140000,   9.60000,
,,,0.000035160000,   9.60000,
,,,0.000035180000,   9.60000,
,,,0.000035200000,  10.40000,
,,,0.000035220000,  10.40000,
,,,0.000035240000,  10.40000,
,,,0.000035260000,  10.40000,
,,,0.000035280000,  10.40000,
,,,0.000035300000,  10.40000,
,,,0.000035320000,  10.40000,
,,,0.000035340000,  10.40000,
,,,0.000035360000,   9.60000,
,,,0.000035380000,  10.40000,
,,,0.000035400000,   9.60000,
,,,0.000035420000,  10.40000,
,,,0.000035440000,   9.60000,
,,,0.000035460000,  10.40000,
,,,0.000035480000,  10.40000,
,,,0.000035500000,  11.20000,
,,,0.000035520000,  10.40000,
,,,0.000035540000,  10.40000,
,,,0.000035560000,  10.40000,
,,,0.000035580000,  10.40000,
,,,0.000035600000,  10.40000,
,,,0.000035620000,  10.40000,
,,,0.000035640000,  11.20000,
,,,0.000035660000,  10.40000,
,,,0.000035680000,  10.40000,
,,,0.000035700000,  11.20000,
,,,0.000035720000,  11.20000,
,,,0.000035740000,  11.20000,
,,,0.000035760000,  11.20000,
,,,0.000035780000,  11.20000,
,,,0.000035800000,  11.20000,
,,,0.000035820000,  11.20000,
,,,0.000035840000,  10.40000,
,,,0.000035860000,  11.20000,
,,,0.000035880000,  11.20000,
,,,0.000035900000,  12.00000,
,,,0.000035920000,  11.20000,
,,,0.000035940000,  10.40000,
,,,0.000035960000,  11.20000,
,,,0.000035980000,  11.20000,
,,,0.000036000000,  10.40000,
,,,0.000036020000,  11.20000,
,,,0.000036040000,  11.20000,
,,,0.000036060000,  11.20000,
,,,0.000036080000,  11.20000,
,,,0.000036100000,  11.20000,
,,,0.000036120000,  10.40000,
,,,0.000036140000,  10.40000,
,,,0.000036160000,  10.40000,
,,,0.000036180000,  10.40000,
,,,0.000036200000,  10.40000,
,,,0.000036220000,  10.40000,
,,,0.000036240000,  10.40000,
,,,0.000036260000,  10.40000,
,,,0.000036280000,   8.80000,
,,,0.000036300000,   8.80000,
,,,0.000036320000,   8.00000,
,,,0.000036340000,   8.00000,
,,,0.000036360000,   8.80000,
,,,0.000036380000,   8.80000,
,,,0.000036400000,  10.40000,
,,,0.000036420000,  11.20000,
,,,0.000036440000,  12.00000,
,,,0.000036460000,  11.20000,
,,,0.000036480000,  11.20000,
,,,0.000036500000,  12.00000,
,,,0.000036520000,  11.20000,
,,,0.000036540000,  11.20000,
,,,0.000036560000,  11.20000,
,,,0.000036580000,  10.40000,
,,,0.000036600000,  10.40000,
,,,0.000036620000,  10.40000,
,,,0.000036640000,  10.40000,
,,,0.000036660000,  12.00000,
,,,0.000036680000,  12.00000,
,,,0.000036700000,  12.00000,
,,,0.000036720000,  12.00000,
,,,0.000036740000,  12.00000,
,,,0.000036760000,  12.00000,
,,,0.000036780000,  11.20000,
,,,0.000036800000,  11.20000,
,,,0.000036820000,  12.00000,
,,,0.000036840000,  12.00000,
,,,0.000036860000,  11.20000,
,,,0.000036880000,   9.60000,
,,,0.000036900000,   8.00000,
,,,0.000036920000,   8.00000,
,,,0.000036940000,   8.00000,
,,,0.000036960000,   7.20000,
,,,0.000036980000,   7.20000,
,,,0.000037000000,   7.20000,
,,,0.000037020000,   8.00000,
,,,0.000037040000,   8.00000,
,,,0.000037060000,   8.80000,
,,,0.000037080000,   9.60000,
,,,0.000037100000,  10.40000,
,,,0.000037120000,  10.40000,
,,,0.000037140000,  11.20000,
,,,0.000037160000,  11.20000,
,,,0.000037180000,  11.20000,
,,,0.000037200000,  11.20000,
,,,0.000037220000,  10.40000,
,,,0.000037240000,  10.40000,
,,,0.000037260000,   9.60000,
,,,0.000037280000,   9.60000,
,,,0.000037300000,   9.60000,
,,,0.000037320000,   9.60000,
,,,0.000037340000,   8.80000,
,,,0.000037360000,   9.60000,
,,,0.000037380000,   9.60000,
,,,0.000037400000,   9.60000,
,,,0.000037420000,   9.60000,
,,,0.000037440000,  11.20000,
,,,0.000037460000,  10.40000,
,,,0.000037480000,  10.40000,
,,,0.000037500000,  10.40000,
,,,0.000037520000,   9.60000,
,,,0.000037540000,   9.60000,
,,,0.000037560000,   9.60000,
,,,0.000037580000,  10.40000,
,,,0.000037600000,  10.40000,
,,,0.000037620000,   9.60000,
,,,0.000037640000,   9.60000,
,,,0.000037660000,   9.60000,
,,,0.000037680000,   9.60000,
,,,0.000037700000,   8.80000,
,,,0.000037720000,   9.60000,
,,,0.000037740000,   9.60000,
,,,0.000037760000,   9.60000,
,,,0.000037780000,   9.60000,
,,,0.000037800000,   9.60000,
,,,0.000037820000,   8.80000,
,,,0.000037840000,   8.80000,
,,,0.000037860000,   8.80000,
,,,0.000037880000,   8.80000,
,,,0.000037900000,   8.80000,
,,,0.000037920000,   8.00000,
,,,0.000037940000,   8.80000,
,,,0.000037960000,   8.00000,
,,,0.000037980000,   7.20000,
,,,0.000038000000,   8.80000,
,,,0.000038020000,   8.00000,
,,,0.000038040000,   8.00000,
,,,0.000038060000,   8.00000,
,,,0.000038080000,   8.00000,
,,,0.000038100000,   8.00000,
,,,0.000038120000,   7.20000,
,,,0.000038140000,   8.00000,
,,,0.000038160000,   8.00000,
,,,0.000038180000,   8.00000,
,,,0.000038200000,   8.80000,
,,,0.000038220000,   8.00000,
,,,0.000038240000,   8.80000,
,,,0.000038260000,   8.00000,
,,,0.000038280000,   8.80000,
,,,0.000038300000,   8.00000,
,,,0.000038320000,   8.00000,
,,,0.000038340000,   8.00000,
,,,0.000038360000,   7.20000,
,,,0.000038380000,   8.00000,
,,,0.000038400000,   8.00000,
,,,0.000038420000,   7.20000,
,,,0.000038440000,   7.20000,
,,,0.000038460000,   8.00000,
,,,0.000038480000,   8.00000,
,,,0.000038500000,   7.20000,
,,,0.000038520000,   8.00000,
,,,0.000038540000,   6.40000,
,,,0.000038560000,   7.20000,
,,,0.000038580000,   7.20000,
,,,0.000038600000,   6.40000,
,,,0.000038620000,   6.40000,
,,,0.000038640000,   7.20000,
,,,0.000038660000,   7.20000,
,,,0.000038680000,   6.40000,
,,,0.000038700000,   6.40000,
,,,0.000038720000,   6.40000,
,,,0.000038740000,   6.40000,
,,,0.000038760000,   6.40000,
,,,0.000038780000,   6.40000,
,,,0.000038800000,   6.40000,
,,,0.000038820000,   6.40000,
,,,0.000038840000,   5.60000,
,,,0.000038860000,   6.40000,
,,,0.000038880000,   6.40000,
,,,0.000038900000,   6.40000,
,,,0.000038920000,   6.40000,
,,,0.000038940000,   7.20000,
,,,0.000038960000,   6.40000,
,,,0.000038980000,   5.60000,
,,,0.000039000000,   6.40000,
,,,0.000039020000,   5.60000,
,,,0.000039040000,   6.40000,
,,,0.000039060000,   6.40000,
,,,0.000039080000,   6.40000,
,,,0.000039100000,   5.60000,
,,,0.000039120000,   6.40000,
,,,0.000039140000,   6.40000,
,,,0.000039160000,   6.40000,
,,,0.000039180000,   5.60000,
,,,0.000039200000,   4.80000,
,,,0.000039220000,   4.80000,
,,,0.000039240000,   5.60000,
,,,0.000039260000,   5.60000,
,,,0.000039280000,   6.40000,
,,,0.000039300000,   5.60000,
,,,0.000039320000,   5.60000,
,,,0.000039340000,   4.80000,
,,,0.000039360000,   5.60000,
,,,0.000039380000,   5.60000,
,,,0.000039400000,   4.80000,
,,,0.000039420000,   4.80000,
,,,0.000039440000,   5.60000,
,,,0.000039460000,   5.60000,
,,,0.000039480000,   4.80000,
,,,0.000039500000,   4.80000,
,,,0.000039520000,   4.80000,
,,,0.000039540000,   4.80000,
,,,0.000039560000,   4.00000,
,,,0.000039580000,   4.80000,
,,,0.000039600000,   4.00000,
,,,0.000039620000,   4.80000,
,,,0.000039640000,   4.80000,
,,,0.000039660000,   4.80000,
,,,0.000039680000,   5.60000,
,,,0.000039700000,   4.00000,
,,,0.000039720000,   4.80000,
,,,0.000039740000,   4.00000,
,,,0.000039760000,   4.80000,
,,,0.000039780000,   4.00000,
,,,0.000039800000,   4.80000,
,,,0.000039820000,   4.80000,
,,,0.000039840000,   4.80000,
,,,0.000039860000,   4.00000,
,,,0.000039880000,   4.80000,
,,,0.000039900000,   4.00000,
,,,0.000039920000,   4.00000,
,,,0.000039940000,   4.00000,
,,,0.000039960000,   3.20000,
,,,0.000039980000,   4.00000,
,,,0.000040000000,   4.00000,
,,,0.000040020000,   4.00000,
,,,0.000040040000,   4.00000,
,,,0.000040060000,   4.00000,
,,,0.000040080000,   4.00000,
,,,0.000040100000,   3.20000,
,,,0.000040120000,   3.20000,
,,,0.000040140000,   3.20000,
,,,0.000040160000,   2.40000,
,,,0.000040180000,   3.20000,
,,,0.000040200000,   3.20000,
,,,0.000040220000,   3.20000,
,,,0.000040240000,   3.20000,
,,,0.000040260000,   3.20000,
,,,0.000040280000,   3.20000,
,,,0.000040300000,   3.20000,
,,,0.000040320000,   2.40000,
,,,0.000040340000,   2.40000,
,,,0.000040360000,   3.20000,
,,,0.000040380000,   2.40000,
,,,0.000040400000,   2.40000,
,,,0.000040420000,   1.60000,
,,,0.000040440000,   2.40000,
,,,0.000040460000,   2.40000,
,,,0.000040480000,   3.20000,
,,,0.000040500000,   2.40000,
,,,0.000040520000,   2.40000,
,,,0.000040540000,   2.40000,
,,,0.000040560000,   3.20000,
,,,0.000040580000,   2.40000,
,,,0.000040600000,   2.40000,
,,,0.000040620000,   3.20000,
,,,0.000040640000,   2.40000,
,,,0.000040660000,   2.40000,
,,,0.000040680000,   2.40000,
,,,0.000040700000,   2.40000,
,,,0.000040720000,   2.40000,
,,,0.000040740000,   2.40000,
,,,0.000040760000,   2.40000,
,,,0.000040780000,   2.40000,
,,,0.000040800000,   2.40000,
,,,0.000040820000,   1.60000,
,,,0.000040840000,   1.60000,
,,,0.000040860000,   2.40000,
,,,0.000040880000,   2.40000,
,,,0.000040900000,   1.60000,
,,,0.000040920000,   1.60000,
,,,0.000040940000,   1.60000,
,,,0.000040960000,   0.80000,
,,,0.000040980000,   1.60000,
,,,0.000041000000,   0.80000,
,,,0.000041020000,   1.60000,
,,,0.000041040000,   1.60000,
,,,0.000041060000,   1.60000,
,,,0.000041080000,   0.80000,
,,,0.000041100000,   1.60000,
,,,0.000041120000,   0.80000,
,,,0.000041140000,   0.80000,
,,,0.000041160000,   0.80000,
,,,0.000041180000,   0.80000,
,,,0.000041200000,   0.80000,
,,,0.000041220000,   0.80000,
,,,0.000041240000,   0.80000,
,,,0.000041260000,   0.80000,
,,,0.000041280000,   0.80000,
,,,0.000041300000,   0.80000,
,,,0.000041320000,   1.60000,
,,,0.000041340000,   0.80000,
,,,0.000041360000,   0.80000,
,,,0.000041380000,   0.80000,
,,,0.000041400000,   1.60000,
,,,0.000041420000,   1.60000,
,,,0.000041440000,   0.80000,
,,,0.000041460000,   1.60000,
,,,0.000041480000,   0.80000,
,,,0.000041500000,   0.80000,
,,,0.000041520000,   0.80000,
,,,0.000041540000,   0.00000,
,,,0.000041560000,   0.80000,
,,,0.000041580000,   0.00000,
,,,0.000041600000,   0.80000,
,,,0.000041620000,   0.80000,
,,,0.000041640000,   0.80000,
,,,0.000041660000,   0.00000,
,,,0.000041680000,   0.00000,
,,,0.000041700000,   0.80000,
,,,0.000041720000,  -0.80000,
,,,0.000041740000,   0.00000,
,,,0.000041760000,   0.00000,
,,,0.000041780000,   0.00000,
,,,0.000041800000,   0.00000,
,,,0.000041820000,   0.00000,
,,,0.000041840000,   0.00000,
,,,0.000041860000,  -0.80000,
,,,0.000041880000,  -0.80000,
,,,0.000041900000,  -0.80000,
,,,0.000041920000,  -0.80000,
,,,0.000041940000,  -0.80000,
,,,0.000041960000,   0.00000,
,,,0.000041980000,  -0.80000,
,,,0.000042000000,   0.00000,
,,,0.000042020000,   0.00000,
,,,0.000042040000,   0.00000,
,,,0.000042060000,  -1.60000,
,,,0.000042080000,  -0.80000,
,,,0.000042100000,  -0.80000,
,,,0.000042120000,  -0.80000,
,,,0.000042140000,  -0.80000,
,,,0.000042160000,  -0.80000,
,,,0.000042180000,   0.00000,
,,,0.000042200000,  -0.80000,
,,,0.000042220000,  -0.80000,
,,,0.000042240000,  -1.60000,
,,,0.000042260000,  -1.60000,
,,,0.000042280000,  -0.80000,
,,,0.000042300000,  -0.80000,
,,,0.000042320000,  -1.60000,
,,,0.000042340000,  -0.80000,
,,,0.000042360000,  -0.80000,
,,,0.000042380000,  -0.80000,
,,,0.000042400000,  -0.80000,
,,,0.000042420000,  -0.80000,
,,,0.000042440000,  -0.80000,
,,,0.000042460000,  -1.60000,
,,,0.000042480000,  -1.60000,
,,,0.000042500000,  -1.60000,
,,,0.000042520000,  -1.60000,
,,,0.000042540000,  -1.60000,
,,,0.000042560000,  -1.60000,
,,,0.000042580000,  -1.60000,
,,,0.000042600000,  -1.60000,
,,,0.000042620000,  -2.40000,
,,,0.000042640000,  -1.60000,
,,,0.000042660000,  -1.60000,
,,,0.000042680000,  -1.60000,
,,,0.000042700000,  -1.60000,
,,,0.000042720000,  -1.60000,
,,,0.000042740000,  -2.40000,
,,,0.000042760000,  -2.40000,
,,,0.000042780000,  -2.40000,
,,,0.000042800000,  -2.40000,
,,,0.000042820000,  -2.40000,
,,,0.000042840000,  -1.60000,
,,,0.000042860000,  -2.40000,
,,,0.000042880000,  -1.60000,
,,,0.000042900000,  -2.40000,
,,,0.000042920000,  -1.60000,
,,,0.000042940000,  -2.40000,
,,,0.000042960000,  -1.60000,
,,,0.000042980000,  -2.40000,
,,,0.000043000000,  -1.60000,
,,,0.000043020000,  -2.40000,
,,,0.000043040000,  -1.60000,
,,,0.000043060000,  -3.20000,
