2 - Experimentos/1 - Ponte de Mosfets/3.6kHz/9 - 390Ohm_3.1mH/tensão resistor/F0000MTH.CSV

Record Length,2.500000e+03,,  -0.000178000000,  32.00000,
Sample Interval,2.000000e-07,,  -0.000177800000,  32.00000,
Trigger Point,8.900000000000e+02,,  -0.000177600000,  32.80000,
,,,  -0.000177400000,  32.00000,
,,,  -0.000177200000,  32.80000,
,,,  -0.000177000000,  31.20000,
Source,MATH,,  -0.000176800000,  32.80000,
Vertical Units,V,,  -0.000176600000,  33.60000,
Vertical Scale,2.000000e+01,,  -0.000176400000,  32.80000,
Vertical Offset,0.000000e+00,,  -0.000176200000,  32.00000,
Horizontal Units,s,,  -0.000176000000,  33.60000,
Horizontal Scale,5.000000e-05,,  -0.000175800000,  32.00000,
Pt Fmt,Y,,  -0.000175600000,  31.20000,
Yzero,0.000000e+00,,  -0.000175400000,  32.00000,
Probe Atten,1.000000e+00,,  -0.000175200000,  32.00000,
Model Number,TDS2004C,,  -0.000175000000,  32.00000,
Serial Number,C012246,,  -0.000174800000,  32.00000,
Firmware Version,FV:v24.18,,  -0.000174600000,  32.00000,
,,,-00.000174400000,  32.00000,
,,,-00.000174200000,  32.80000,
,,,-00.000174000000,  32.00000,
,,,-00.000173800000,  32.00000,
,,,-00.000173600000,  32.00000,
,,,-00.000173400000,  32.80000,
,,,-00.000173200000,  32.80000,
,,,-00.000173000000,  32.80000,
,,,-00.000172800000,  32.80000,
,,,-00.000172600000,  32.00000,
,,,-00.000172400000,  32.00000,
,,,-00.000172200000,  32.00000,
,,,-00.000172000000,  33.60000,
,,,-00.000171800000,  32.80000,
,,,-00.000171600000,  33.60000,
,,,-00.000171400000,  32.80000,
,,,-00.000171200000,  32.00000,
,,,-00.000171000000,  32.00000,
,,,-00.000170800000,  32.80000,
,,,-00.000170600000,  32.00000,
,,,-00.000170400000,  32.00000,
,,,-00.000170200000,  31.20000,
,,,-00.000170000000,  32.80000,
,,,-00.000169800000,  31.20000,
,,,-00.000169600000,  32.80000,
,,,-00.000169400000,  32.00000,
,,,-00.000169200000,  32.00000,
,,,-00.000169000000,  32.80000,
,,,-00.000168800000,  32.80000,
,,,-00.000168600000,  32.80000,
,,,-00.000168400000,  32.00000,
,,,-00.000168200000,  32.00000,
,,,-00.000168000000,  32.80000,
,,,-00.000167800000,  32.00000,
,,,-00.000167600000,  32.00000,
,,,-00.000167400000,  32.00000,
,,,-00.000167200000,  32.80000,
,,,-00.000167000000,  32.80000,
,,,-00.000166800000,  32.80000,
,,,-00.000166600000,  32.00000,
,,,-00.000166400000,  32.80000,
,,,-00.000166200000,  32.00000,
,,,-00.000166000000,  32.00000,
,,,-00.000165800000,  33.60000,
,,,-00.000165600000,  32.80000,
,,,-00.000165400000,  32.00000,
,,,-00.000165200000,  33.60000,
,,,-00.000165000000,  32.00000,
,,,-00.000164800000,  32.00000,
,,,-00.000164600000,  32.80000,
,,,-00.000164400000,  32.80000,
,,,-00.000164200000,  32.00000,
,,,-00.000164000000,  33.60000,
,,,-00.000163800000,  32.00000,
,,,-00.000163600000,  32.00000,
,,,-00.000163400000,  32.00000,
,,,-00.000163200000,  33.60000,
,,,-00.000163000000,  32.00000,
,,,-00.000162800000,  32.00000,
,,,-00.000162600000,  31.20000,
,,,-00.000162400000,  33.60000,
,,,-00.000162200000,  32.80000,
,,,-00.000162000000,  32.00000,
,,,-00.000161800000,  33.60000,
,,,-00.000161600000,  32.80000,
,,,-00.000161400000,  32.80000,
,,,-00.000161200000,  32.80000,
,,,-00.000161000000,  32.80000,
,,,-00.000160800000,  32.00000,
,,,-00.000160600000,  32.00000,
,,,-00.000160400000,  33.60000,
,,,-00.000160200000,  32.80000,
,,,-00.000160000000,  32.00000,
,,,-00.000159800000,  32.80000,
,,,-00.000159600000,  32.00000,
,,,-00.000159400000,  32.00000,
,,,-00.000159200000,  32.80000,
,,,-00.000159000000,  33.60000,
,,,-00.000158800000,  32.00000,
,,,-00.000158600000,  32.00000,
,,,-00.000158400000,  32.80000,
,,,-00.000158200000,  32.00000,
,,,-00.000158000000,  32.00000,
,,,-00.000157800000,  32.00000,
,,,-00.000157600000,  32.00000,
,,,-00.000157400000,  32.00000,
,,,-00.000157200000,  32.80000,
,,,-00.000157000000,  32.80000,
,,,-00.000156800000,  32.80000,
,,,-00.000156600000,  32.00000,
,,,-00.000156400000,  32.80000,
,,,-00.000156200000,  33.60000,
,,,-00.000156000000,  32.00000,
,,,-00.000155800000,  32.80000,
,,,-00.000155600000,  32.00000,
,,,-00.000155400000,  32.80000,
,,,-00.000155200000,  33.60000,
,,,-00.000155000000,  32.80000,
,,,-00.000154800000,  31.20000,
,,,-00.000154600000,  32.00000,
,,,-00.000154400000,  32.80000,
,,,-00.000154200000,  32.80000,
,,,-00.000154000000,  32.00000,
,,,-00.000153800000,  32.00000,
,,,-00.000153600000,  32.80000,
,,,-00.000153400000,  32.00000,
,,,-00.000153200000,  32.00000,
,,,-00.000153000000,  32.80000,
,,,-00.000152800000,  32.00000,
,,,-00.000152600000,  32.80000,
,,,-00.000152400000,  32.00000,
,,,-00.000152200000,  32.80000,
,,,-00.000152000000,  32.80000,
,,,-00.000151800000,  32.00000,
,,,-00.000151600000,  33.60000,
,,,-00.000151400000,  32.00000,
,,,-00.000151200000,  32.00000,
,,,-00.000151000000,  32.80000,
,,,-00.000150800000,  31.20000,
,,,-00.000150600000,  32.80000,
,,,-00.000150400000,  31.20000,
,,,-00.000150200000,  32.80000,
,,,-00.000150000000,  32.00000,
,,,-00.000149800000,  32.80000,
,,,-00.000149600000,  32.80000,
,,,-00.000149400000,  32.80000,
,,,-00.000149200000,  32.00000,
,,,-00.000149000000,  32.80000,
,,,-00.000148800000,  32.80000,
,,,-00.000148600000,  32.00000,
,,,-00.000148400000,  32.00000,
,,,-00.000148200000,  32.00000,
,,,-00.000148000000,  31.20000,
,,,-00.000147800000,  32.00000,
,,,-00.000147600000,  32.80000,
,,,-00.000147400000,  32.80000,
,,,-00.000147200000,  32.00000,
,,,-00.000147000000,  32.00000,
,,,-00.000146800000,  32.00000,
,,,-00.000146600000,  32.80000,
,,,-00.000146400000,  31.20000,
,,,-00.000146200000,  32.80000,
,,,-00.000146000000,  32.80000,
,,,-00.000145800000,  32.00000,
,,,-00.000145600000,  32.80000,
,,,-00.000145400000,  32.80000,
,,,-00.000145200000,  32.80000,
,,,-00.000145000000,  32.00000,
,,,-00.000144800000,  32.00000,
,,,-00.000144600000,  32.80000,
,,,-00.000144400000,  32.80000,
,,,-00.000144200000,  33.60000,
,,,-00.000144000000,  32.00000,
,,,-00.000143800000,  32.00000,
,,,-00.000143600000,  32.00000,
,,,-00.000143400000,  32.00000,
,,,-00.000143200000,  31.20000,
,,,-00.000143000000,  32.00000,
,,,-00.000142800000,  32.00000,
,,,-00.000142600000,  32.80000,
,,,-00.000142400000,  31.20000,
,,,-00.000142200000,  32.00000,
,,,-00.000142000000,  32.00000,
,,,-00.000141800000,  32.00000,
,,,-00.000141600000,  32.00000,
,,,-00.000141400000,  32.00000,
,,,-00.000141200000,  32.80000,
,,,-00.000141000000,  32.80000,
,,,-00.000140800000,  32.80000,
,,,-00.000140600000,  32.80000,
,,,-00.000140400000,  32.80000,
,,,-00.000140200000,  32.80000,
,,,-00.000140000000,  32.00000,
,,,-00.000139800000,  31.20000,
,,,-00.000139600000,  32.00000,
,,,-00.000139400000,  32.00000,
,,,-00.000139200000,  32.00000,
,,,-00.000139000000,  32.00000,
,,,-00.000138800000,  32.80000,
,,,-00.000138600000,  33.60000,
,,,-00.000138400000,  33.60000,
,,,-00.000138200000,  32.00000,
,,,-00.000138000000,  32.00000,
,,,-00.000137800000,  32.00000,
,,,-00.000137600000,  32.00000,
,,,-00.000137400000,  31.20000,
,,,-00.000137200000,  29.60000,
,,,-00.000137000000,  31.20000,
,,,-00.000136800000,  32.00000,
,,,-00.000136600000,  24.80000,
,,,-00.000136400000,  28.00000,
,,,-00.000136200000,  25.60000,
,,,-00.000136000000,  24.80000,
,,,-00.000135800000,  22.40000,
,,,-00.000135600000,  22.40000,
,,,-00.000135400000,  21.60000,
,,,-00.000135200000,  19.20000,
,,,-00.000135000000,  18.40000,
,,,-00.000134800000,  16.00000,
,,,-00.000134600000,  16.00000,
,,,-00.000134400000,  12.80000,
,,,-00.000134200000,  12.80000,
,,,-00.000134000000,  12.80000,
,,,-00.000133800000,  11.20000,
,,,-00.000133600000,  10.40000,
,,,-00.000133400000,   8.80000,
,,,-00.000133200000,   7.20000,
,,,-00.000133000000,   6.40000,
,,,-00.000132800000,   5.60000,
,,,-00.000132600000,   4.00000,
,,,-00.000132400000,   4.00000,
,,,-00.000132200000,   4.00000,
,,,-00.000132000000,   2.40000,
,,,-00.000131800000,   1.60000,
,,,-00.000131600000,   0.00000,
,,,-00.000131400000,  -0.80000,
,,,-00.000131200000,  -0.80000,
,,,-00.000131000000,  -1.60000,
,,,-00.000130800000,  -2.40000,
,,,-00.000130600000,  -3.20000,
,,,-00.000130400000,  -2.40000,
,,,-00.000130200000,  -5.60000,
,,,-00.000130000000,  -5.60000,
,,,-00.000129800000,  -5.60000,
,,,-00.000129600000,  -6.40000,
,,,-00.000129400000,  -8.00000,
,,,-00.000129200000,  -7.20000,
,,,-00.000129000000,  -9.60000,
,,,-00.000128800000,  -8.80000,
,,,-00.000128600000,  -8.80000,
,,,-00.000128400000, -12.00000,
,,,-00.000128200000, -11.20000,
,,,-00.000128000000, -10.40000,
,,,-00.000127800000, -12.00000,
,,,-00.000127600000, -12.80000,
,,,-00.000127400000, -11.20000,
,,,-00.000127200000, -13.60000,
,,,-00.000127000000, -13.60000,
,,,-00.000126800000, -15.20000,
,,,-00.000126600000, -15.20000,
,,,-00.000126400000, -16.00000,
,,,-00.000126200000, -16.00000,
,,,-00.000126000000, -16.00000,
,,,-00.000125800000, -16.80000,
,,,-00.000125600000, -16.80000,
,,,-00.000125400000, -17.60000,
,,,-00.000125200000, -16.80000,
,,,-00.000125000000, -18.40000,
,,,-00.000124800000, -17.60000,
,,,-00.000124600000, -19.20000,
,,,-00.000124400000, -19.20000,
,,,-00.000124200000, -20.00000,
,,,-00.000124000000, -20.00000,
,,,-00.000123800000, -20.00000,
,,,-00.000123600000, -21.60000,
,,,-00.000123400000, -20.80000,
,,,-00.000123200000, -21.60000,
,,,-00.000123000000, -21.60000,
,,,-00.000122800000, -21.60000,
,,,-00.000122600000, -21.60000,
,,,-00.000122400000, -21.60000,
,,,-00.000122200000, -22.40000,
,,,-00.000122000000, -23.20000,
,,,-00.000121800000, -22.40000,
,,,-00.000121600000, -23.20000,
,,,-00.000121400000, -22.40000,
,,,-00.000121200000, -24.00000,
,,,-00.000121000000, -24.00000,
,,,-00.000120800000, -24.80000,
,,,-00.000120600000, -24.80000,
,,,-00.000120400000, -24.80000,
,,,-00.000120200000, -25.60000,
,,,-00.000120000000, -24.80000,
,,,-00.000119800000, -24.80000,
,,,-00.000119600000, -26.40000,
,,,-00.000119400000, -26.40000,
,,,-00.000119200000, -25.60000,
,,,-00.000119000000, -25.60000,
,,,-00.000118800000, -25.60000,
,,,-00.000118600000, -26.40000,
,,,-00.000118400000, -26.40000,
,,,-00.000118200000, -26.40000,
,,,-00.000118000000, -27.20000,
,,,-00.000117800000, -26.40000,
,,,-00.000117600000, -27.20000,
,,,-00.000117400000, -26.40000,
,,,-00.000117200000, -26.40000,
,,,-00.000117000000, -27.20000,
,,,-00.000116800000, -27.20000,
,,,-00.000116600000, -27.20000,
,,,-00.000116400000, -27.20000,
,,,-00.000116200000, -27.20000,
,,,-00.000116000000, -28.80000,
,,,-00.000115800000, -28.00000,
,,,-00.000115600000, -27.20000,
,,,-00.000115400000, -27.20000,
,,,-00.000115200000, -28.00000,
,,,-00.000115000000, -29.60000,
,,,-00.000114800000, -28.80000,
,,,-00.000114600000, -28.00000,
,,,-00.000114400000, -28.80000,
,,,-00.000114200000, -28.80000,
,,,-00.000114000000, -29.60000,
,,,-00.000113800000, -29.60000,
,,,-00.000113600000, -28.80000,
,,,-00.000113400000, -28.80000,
,,,-00.000113200000, -28.80000,
,,,-00.000113000000, -28.80000,
,,,-00.000112800000, -29.60000,
,,,-00.000112600000, -29.60000,
,,,-00.000112400000, -28.80000,
,,,-00.000112200000, -28.00000,
,,,-00.000112000000, -30.40000,
,,,-00.000111800000, -30.40000,
,,,-00.000111600000, -29.60000,
,,,-00.000111400000, -30.40000,
,,,-00.000111200000, -31.20000,
,,,-00.000111000000, -31.20000,
,,,-00.000110800000, -30.40000,
,,,-00.000110600000, -29.60000,
,,,-00.000110400000, -31.20000,
,,,-00.000110200000, -31.20000,
,,,-00.000110000000, -30.40000,
,,,-00.000109800000, -29.60000,
,,,-00.000109600000, -30.40000,
,,,-00.000109400000, -30.40000,
,,,-00.000109200000, -30.40000,
,,,-00.000109000000, -32.00000,
,,,-00.000108800000, -30.40000,
,,,-00.000108600000, -31.20000,
,,,-00.000108400000, -31.20000,
,,,-00.000108200000, -31.20000,
,,,-00.000108000000, -31.20000,
,,,-00.000107800000, -30.40000,
,,,-00.000107600000, -32.00000,
,,,-00.000107400000, -32.00000,
,,,-00.000107200000, -32.00000,
,,,-00.000107000000, -29.60000,
,,,-00.000106800000, -31.20000,
,,,-00.000106600000, -31.20000,
,,,-00.000106400000, -31.20000,
,,,-00.000106200000, -32.00000,
,,,-00.000106000000, -32.00000,
,,,-00.000105800000, -31.20000,
,,,-00.000105600000, -31.20000,
,,,-00.000105400000, -31.20000,
,,,-00.000105200000, -31.20000,
,,,-00.000105000000, -32.00000,
,,,-00.000104800000, -30.40000,
,,,-00.000104600000, -32.00000,
,,,-00.000104400000, -32.80000,
,,,-00.000104200000, -31.20000,
,,,-00.000104000000, -31.20000,
,,,-00.000103800000, -32.80000,
,,,-00.000103600000, -31.20000,
,,,-00.000103400000, -31.20000,
,,,-00.000103200000, -31.20000,
,,,-00.000103000000, -32.00000,
,,,-00.000102800000, -32.00000,
,,,-00.000102600000, -32.80000,
,,,-00.000102400000, -32.00000,
,,,-00.000102200000, -32.00000,
,,,-00.000102000000, -32.80000,
,,,-00.000101800000, -33.60000,
,,,-00.000101600000, -32.00000,
,,,-00.000101400000, -32.00000,
,,,-00.000101200000, -31.20000,
,,,-00.000101000000, -30.40000,
,,,-00.000100800000, -32.00000,
,,,-00.000100600000, -32.80000,
,,,-00.000100400000, -32.00000,
,,,-00.000100200000, -32.80000,
,,,-00.000100000000, -32.00000,
,,,-00.000099800000, -32.80000,
,,,-00.000099600000, -32.00000,
,,,-00.000099400000, -32.00000,
,,,-00.000099200000, -32.00000,
,,,-00.000099000000, -32.00000,
,,,-00.000098800000, -31.20000,
,,,-00.000098600000, -32.80000,
,,,-00.000098400000, -32.00000,
,,,-00.000098200000, -32.00000,
,,,-00.000098000000, -32.00000,
,,,-00.000097800000, -33.60000,
,,,-00.000097600000, -32.80000,
,,,-00.000097400000, -32.00000,
,,,-00.000097200000, -32.00000,
,,,-00.000097000000, -32.80000,
,,,-00.000096800000, -32.00000,
,,,-00.000096600000, -32.80000,
,,,-00.000096400000, -32.00000,
,,,-00.000096200000, -32.80000,
,,,-00.000096000000, -32.80000,
,,,-00.000095800000, -32.80000,
,,,-00.000095600000, -33.60000,
,,,-00.000095400000, -32.80000,
,,,-00.000095200000, -32.00000,
,,,-00.000095000000, -32.80000,
,,,-00.000094800000, -32.80000,
,,,-00.000094600000, -31.20000,
,,,-00.000094400000, -32.00000,
,,,-00.000094200000, -32.00000,
,,,-00.000094000000, -32.80000,
,,,-00.000093800000, -32.80000,
,,,-00.000093600000, -32.80000,
,,,-00.000093400000, -32.00000,
,,,-00.000093200000, -32.80000,
,,,-00.000093000000, -32.00000,
,,,-00.000092800000, -32.80000,
,,,-00.000092600000, -31.20000,
,,,-00.000092400000, -32.00000,
,,,-00.000092200000, -32.00000,
,,,-00.000092000000, -32.80000,
,,,-00.000091800000, -32.00000,
,,,-00.000091600000, -32.80000,
,,,-00.000091400000, -32.00000,
,,,-00.000091200000, -32.80000,
,,,-00.000091000000, -32.80000,
,,,-00.000090800000, -32.80000,
,,,-00.000090600000, -32.80000,
,,,-00.000090400000, -32.00000,
,,,-00.000090200000, -32.80000,
,,,-00.000090000000, -32.80000,
,,,-00.000089800000, -32.00000,
,,,-00.000089600000, -32.80000,
,,,-00.000089400000, -33.60000,
,,,-00.000089200000, -32.80000,
,,,-00.000089000000, -32.80000,
,,,-00.000088800000, -33.60000,
,,,-00.000088600000, -32.80000,
,,,-00.000088400000, -32.80000,
,,,-00.000088200000, -32.00000,
,,,-00.000088000000, -32.00000,
,,,-00.000087800000, -32.00000,
,,,-00.000087600000, -32.00000,
,,,-00.000087400000, -32.80000,
,,,-00.000087200000, -33.60000,
,,,-00.000087000000, -32.80000,
,,,-00.000086800000, -32.00000,
,,,-00.000086600000, -32.00000,
,,,-00.000086400000, -32.80000,
,,,-00.000086200000, -32.80000,
,,,-00.000086000000, -32.80000,
,,,-00.000085800000, -32.00000,
,,,-00.000085600000, -32.80000,
,,,-00.000085400000, -32.80000,
,,,-00.000085200000, -32.00000,
,,,-00.000085000000, -32.00000,
,,,-00.000084800000, -32.80000,
,,,-00.000084600000, -33.60000,
,,,-00.000084400000, -32.00000,
,,,-00.000084200000, -33.60000,
,,,-00.000084000000, -32.80000,
,,,-00.000083800000, -32.00000,
,,,-00.000083600000, -32.80000,
,,,-00.000083400000, -32.80000,
,,,-00.000083200000, -32.80000,
,,,-00.000083000000, -32.80000,
,,,-00.000082800000, -32.80000,
,,,-00.000082600000, -32.00000,
,,,-00.000082400000, -32.80000,
,,,-00.000082200000, -32.80000,
,,,-00.000082000000, -32.80000,
,,,-00.000081800000, -32.00000,
,,,-00.000081600000, -32.80000,
,,,-00.000081400000, -32.00000,
,,,-00.000081200000, -32.00000,
,,,-00.000081000000, -32.00000,
,,,-00.000080800000, -32.80000,
,,,-00.000080600000, -32.80000,
,,,-00.000080400000, -32.80000,
,,,-00.000080200000, -33.60000,
,,,-00.000080000000, -32.80000,
,,,-00.000079800000, -32.80000,
,,,-00.000079600000, -33.60000,
,,,-00.000079400000, -32.00000,
,,,-00.000079200000, -32.00000,
,,,-00.000079000000, -32.80000,
,,,-00.000078800000, -33.60000,
,,,-00.000078600000, -33.60000,
,,,-00.000078400000, -32.80000,
,,,-00.000078200000, -32.00000,
,,,-00.000078000000, -34.40000,
,,,-00.000077800000, -32.80000,
,,,-00.000077600000, -32.00000,
,,,-00.000077400000, -32.00000,
,,,-00.000077200000, -32.80000,
,,,-00.000077000000, -32.80000,
,,,-00.000076800000, -33.60000,
,,,-00.000076600000, -32.00000,
,,,-00.000076400000, -32.80000,
,,,-00.000076200000, -32.80000,
,,,-00.000076000000, -32.80000,
,,,-00.000075800000, -33.60000,
,,,-00.000075600000, -32.00000,
,,,-00.000075400000, -32.00000,
,,,-00.000075200000, -32.80000,
,,,-00.000075000000, -33.60000,
,,,-00.000074800000, -31.20000,
,,,-00.000074600000, -32.00000,
,,,-00.000074400000, -32.80000,
,,,-00.000074200000, -32.00000,
,,,-00.000074000000, -32.00000,
,,,-00.000073800000, -32.00000,
,,,-00.000073600000, -32.00000,
,,,-00.000073400000, -32.00000,
,,,-00.000073200000, -32.80000,
,,,-00.000073000000, -32.80000,
,,,-00.000072800000, -32.80000,
,,,-00.000072600000, -33.60000,
,,,-00.000072400000, -32.80000,
,,,-00.000072200000, -32.80000,
,,,-00.000072000000, -32.80000,
,,,-00.000071800000, -32.00000,
,,,-00.000071600000, -32.80000,
,,,-00.000071400000, -32.80000,
,,,-00.000071200000, -33.60000,
,,,-00.000071000000, -32.00000,
,,,-00.000070800000, -33.60000,
,,,-00.000070600000, -32.00000,
,,,-00.000070400000, -32.00000,
,,,-00.000070200000, -33.60000,
,,,-00.000070000000, -32.80000,
,,,-00.000069800000, -32.80000,
,,,-00.000069600000, -32.80000,
,,,-00.000069400000, -32.80000,
,,,-00.000069200000, -32.00000,
,,,-00.000069000000, -33.60000,
,,,-00.000068800000, -32.80000,
,,,-00.000068600000, -31.20000,
,,,-00.000068400000, -32.80000,
,,,-00.000068200000, -32.80000,
,,,-00.000068000000, -32.00000,
,,,-00.000067800000, -32.80000,
,,,-00.000067600000, -32.80000,
,,,-00.000067400000, -32.00000,
,,,-00.000067200000, -33.60000,
,,,-00.000067000000, -32.00000,
,,,-00.000066800000, -32.80000,
,,,-00.000066600000, -32.80000,
,,,-00.000066400000, -32.80000,
,,,-00.000066200000, -32.00000,
,,,-00.000066000000, -33.60000,
,,,-00.000065800000, -32.80000,
,,,-00.000065600000, -32.80000,
,,,-00.000065400000, -32.80000,
,,,-00.000065200000, -32.00000,
,,,-00.000065000000, -32.80000,
,,,-00.000064800000, -32.80000,
,,,-00.000064600000, -32.00000,
,,,-00.000064400000, -32.00000,
,,,-00.000064200000, -33.60000,
,,,-00.000064000000, -33.60000,
,,,-00.000063800000, -32.80000,
,,,-00.000063600000, -33.60000,
,,,-00.000063400000, -33.60000,
,,,-00.000063200000, -32.80000,
,,,-00.000063000000, -32.80000,
,,,-00.000062800000, -32.80000,
,,,-00.000062600000, -32.80000,
,,,-00.000062400000, -32.80000,
,,,-00.000062200000, -32.80000,
,,,-00.000062000000, -32.80000,
,,,-00.000061800000, -33.60000,
,,,-00.000061600000, -32.80000,
,,,-00.000061400000, -31.20000,
,,,-00.000061200000, -34.40000,
,,,-00.000061000000, -32.80000,
,,,-00.000060800000, -32.80000,
,,,-00.000060600000, -33.60000,
,,,-00.000060400000, -32.80000,
,,,-00.000060200000, -32.80000,
,,,-00.000060000000, -32.80000,
,,,-00.000059800000, -32.80000,
,,,-00.000059600000, -32.80000,
,,,-00.000059400000, -32.00000,
,,,-00.000059200000, -31.20000,
,,,-00.000059000000, -32.00000,
,,,-00.000058800000, -32.80000,
,,,-00.000058600000, -32.00000,
,,,-00.000058400000, -32.00000,
,,,-00.000058200000, -32.80000,
,,,-00.000058000000, -32.80000,
,,,-00.000057800000, -32.80000,
,,,-00.000057600000, -33.60000,
,,,-00.000057400000, -32.80000,
,,,-00.000057200000, -31.20000,
,,,-00.000057000000, -32.80000,
,,,-00.000056800000, -32.80000,
,,,-00.000056600000, -32.00000,
,,,-00.000056400000, -32.80000,
,,,-00.000056200000, -33.60000,
,,,-00.000056000000, -32.00000,
,,,-00.000055800000, -32.00000,
,,,-00.000055600000, -32.80000,
,,,-00.000055400000, -32.80000,
