2 - Experimentos/2 - Gerador Tectronics/80kHz/1 - 304Ohm_450mH/tensao_resistor/F0000MTH.CSV

Record Length,2.500000e+03,,  -0.000009200000,  -0.40000,
Sample Interval,1.000000e-08,,  -0.000009190000,  -0.20000,
Trigger Point,9.200000000000e+02,,  -0.000009180000,  -0.20000,
,,,  -0.000009170000,  -0.40000,
,,,  -0.000009160000,  -0.20000,
,,,  -0.000009150000,  -0.40000,
Source,MATH,,  -0.000009140000,  -0.20000,
Vertical Units,V,,  -0.000009130000,   0.20000,
Vertical Scale,5.000000e+00,,  -0.000009120000,  -0.20000,
Vertical Offset,0.000000e+00,,  -0.000009110000,  -0.20000,
Horizontal Units,s,,  -0.000009100000,   0.00000,
Horizontal Scale,2.500000e-06,,  -0.000009090000,   0.00000,
Pt Fmt,Y,,  -0.000009080000,  -0.20000,
Yzero,0.000000e+00,,  -0.000009070000,  -0.20000,
Probe Atten,1.000000e+00,,  -0.000009060000,  -0.40000,
Model Number,TDS2004C,,  -0.000009050000,  -0.40000,
Serial Number,C012246,,  -0.000009040000,  -0.20000,
Firmware Version,FV:v24.18,,  -0.000009030000,  -0.20000,
,,,-00.000009020000,  -0.20000,
,,,-00.000009010000,  -0.20000,
,,,-00.000009000000,  -0.20000,
,,,-00.000008990000,   0.00000,
,,,-00.000008980000,  -0.60000,
,,,-00.000008970000,  -0.20000,
,,,-00.000008960000,  -0.20000,
,,,-00.000008950000,  -0.20000,
,,,-00.000008940000,  -0.20000,
,,,-00.000008930000,  -0.20000,
,,,-00.000008920000,  -0.40000,
,,,-00.000008910000,  -0.40000,
,,,-00.000008900000,  -0.40000,
,,,-00.000008890000,  -0.40000,
,,,-00.000008880000,  -0.20000,
,,,-00.000008870000,   0.00000,
,,,-00.000008860000,  -0.20000,
,,,-00.000008850000,  -0.20000,
,,,-00.000008840000,   0.00000,
,,,-00.000008830000,  -0.40000,
,,,-00.000008820000,  -0.40000,
,,,-00.000008810000,  -0.40000,
,,,-00.000008800000,  -0.20000,
,,,-00.000008790000,   0.00000,
,,,-00.000008780000,  -0.20000,
,,,-00.000008770000,  -0.20000,
,,,-00.000008760000,  -0.40000,
,,,-00.000008750000,   0.00000,
,,,-00.000008740000,  -0.20000,
,,,-00.000008730000,  -0.20000,
,,,-00.000008720000,  -0.20000,
,,,-00.000008710000,   0.00000,
,,,-00.000008700000,  -0.60000,
,,,-00.000008690000,  -0.20000,
,,,-00.000008680000,   0.00000,
,,,-00.000008670000,  -0.20000,
,,,-00.000008660000,   0.00000,
,,,-00.000008650000,  -0.20000,
,,,-00.000008640000,   0.00000,
,,,-00.000008630000,  -0.20000,
,,,-00.000008620000,  -0.20000,
,,,-00.000008610000,   0.20000,
,,,-00.000008600000,  -0.20000,
,,,-00.000008590000,  -0.20000,
,,,-00.000008580000,  -0.20000,
,,,-00.000008570000,   0.00000,
,,,-00.000008560000,  -0.20000,
,,,-00.000008550000,  -0.20000,
,,,-00.000008540000,   0.00000,
,,,-00.000008530000,   0.00000,
,,,-00.000008520000,   0.00000,
,,,-00.000008510000,  -0.20000,
,,,-00.000008500000,  -0.20000,
,,,-00.000008490000,   0.00000,
,,,-00.000008480000,   0.00000,
,,,-00.000008470000,  -0.20000,
,,,-00.000008460000,  -0.20000,
,,,-00.000008450000,  -0.60000,
,,,-00.000008440000,   0.00000,
,,,-00.000008430000,   0.00000,
,,,-00.000008420000,   0.00000,
,,,-00.000008410000,  -0.20000,
,,,-00.000008400000,  -0.20000,
,,,-00.000008390000,  -0.40000,
,,,-00.000008380000,   0.00000,
,,,-00.000008370000,  -0.40000,
,,,-00.000008360000,  -0.20000,
,,,-00.000008350000,  -0.40000,
,,,-00.000008340000,  -0.20000,
,,,-00.000008330000,  -0.60000,
,,,-00.000008320000,  -0.20000,
,,,-00.000008310000,   0.00000,
,,,-00.000008300000,  -0.40000,
,,,-00.000008290000,  -0.20000,
,,,-00.000008280000,  -0.20000,
,,,-00.000008270000,  -0.60000,
,,,-00.000008260000,  -0.20000,
,,,-00.000008250000,   0.00000,
,,,-00.000008240000,   0.20000,
,,,-00.000008230000,  -0.20000,
,,,-00.000008220000,  -0.40000,
,,,-00.000008210000,  -0.40000,
,,,-00.000008200000,  -0.20000,
,,,-00.000008190000,   0.00000,
,,,-00.000008180000,  -0.20000,
,,,-00.000008170000,  -0.20000,
,,,-00.000008160000,  -0.20000,
,,,-00.000008150000,  -0.40000,
,,,-00.000008140000,  -0.20000,
,,,-00.000008130000,  -0.20000,
,,,-00.000008120000,  -0.20000,
,,,-00.000008110000,  -0.20000,
,,,-00.000008100000,  -0.20000,
,,,-00.000008090000,   0.00000,
,,,-00.000008080000,  -0.40000,
,,,-00.000008070000,  -0.20000,
,,,-00.000008060000,  -0.40000,
,,,-00.000008050000,  -0.20000,
,,,-00.000008040000,  -0.40000,
,,,-00.000008030000,  -0.20000,
,,,-00.000008020000,  -0.60000,
,,,-00.000008010000,  -0.20000,
,,,-00.000008000000,  -0.20000,
,,,-00.000007990000,  -0.20000,
,,,-00.000007980000,  -0.20000,
,,,-00.000007970000,  -0.20000,
,,,-00.000007960000,   0.00000,
,,,-00.000007950000,  -0.20000,
,,,-00.000007940000,   0.20000,
,,,-00.000007930000,  -0.40000,
,,,-00.000007920000,  -0.20000,
,,,-00.000007910000,  -0.20000,
,,,-00.000007900000,  -0.60000,
,,,-00.000007890000,  -0.40000,
,,,-00.000007880000,  -0.20000,
,,,-00.000007870000,  -0.20000,
,,,-00.000007860000,  -0.20000,
,,,-00.000007850000,  -0.20000,
,,,-00.000007840000,  -0.40000,
,,,-00.000007830000,  -0.40000,
,,,-00.000007820000,  -0.20000,
,,,-00.000007810000,  -0.20000,
,,,-00.000007800000,  -0.40000,
,,,-00.000007790000,  -0.40000,
,,,-00.000007780000,   0.00000,
,,,-00.000007770000,  -0.20000,
,,,-00.000007760000,  -0.20000,
,,,-00.000007750000,  -0.20000,
,,,-00.000007740000,   0.00000,
,,,-00.000007730000,   0.20000,
,,,-00.000007720000,   0.00000,
,,,-00.000007710000,  -0.40000,
,,,-00.000007700000,  -0.20000,
,,,-00.000007690000,  -0.40000,
,,,-00.000007680000,  -0.40000,
,,,-00.000007670000,  -0.20000,
,,,-00.000007660000,  -0.20000,
,,,-00.000007650000,  -0.60000,
,,,-00.000007640000,  -0.60000,
,,,-00.000007630000,  -0.20000,
,,,-00.000007620000,  -0.60000,
,,,-00.000007610000,  -0.40000,
,,,-00.000007600000,  -0.40000,
,,,-00.000007590000,  -0.20000,
,,,-00.000007580000,   0.00000,
,,,-00.000007570000,  -0.40000,
,,,-00.000007560000,  -0.20000,
,,,-00.000007550000,  -0.40000,
,,,-00.000007540000,  -0.20000,
,,,-00.000007530000,   0.00000,
,,,-00.000007520000,  -0.40000,
,,,-00.000007510000,  -0.20000,
,,,-00.000007500000,  -0.20000,
,,,-00.000007490000,  -0.40000,
,,,-00.000007480000,  -0.20000,
,,,-00.000007470000,  -0.20000,
,,,-00.000007460000,  -0.40000,
,,,-00.000007450000,  -0.20000,
,,,-00.000007440000,  -0.20000,
,,,-00.000007430000,  -0.20000,
,,,-00.000007420000,  -0.20000,
,,,-00.000007410000,  -0.20000,
,,,-00.000007400000,   0.00000,
,,,-00.000007390000,  -0.40000,
,,,-00.000007380000,  -0.40000,
,,,-00.000007370000,  -0.20000,
,,,-00.000007360000,  -0.20000,
,,,-00.000007350000,  -0.40000,
,,,-00.000007340000,  -0.40000,
,,,-00.000007330000,  -0.20000,
,,,-00.000007320000,   0.00000,
,,,-00.000007310000,  -0.20000,
,,,-00.000007300000,   0.20000,
,,,-00.000007290000,  -0.40000,
,,,-00.000007280000,  -0.40000,
,,,-00.000007270000,  -0.40000,
,,,-00.000007260000,  -0.20000,
,,,-00.000007250000,   0.20000,
,,,-00.000007240000,   0.00000,
,,,-00.000007230000,  -0.20000,
,,,-00.000007220000,   0.00000,
,,,-00.000007210000,  -0.20000,
,,,-00.000007200000,  -0.20000,
,,,-00.000007190000,   0.00000,
,,,-00.000007180000,  -0.20000,
,,,-00.000007170000,  -0.20000,
,,,-00.000007160000,  -0.20000,
,,,-00.000007150000,   0.00000,
,,,-00.000007140000,  -0.20000,
,,,-00.000007130000,   0.00000,
,,,-00.000007120000,   0.00000,
,,,-00.000007110000,   0.00000,
,,,-00.000007100000,   0.00000,
,,,-00.000007090000,  -0.20000,
,,,-00.000007080000,  -0.60000,
,,,-00.000007070000,  -0.20000,
,,,-00.000007060000,   0.00000,
,,,-00.000007050000,  -0.20000,
,,,-00.000007040000,  -0.40000,
,,,-00.000007030000,   0.00000,
,,,-00.000007020000,  -0.20000,
,,,-00.000007010000,   0.00000,
,,,-00.000007000000,  -0.20000,
,,,-00.000006990000,   0.00000,
,,,-00.000006980000,  -0.40000,
,,,-00.000006970000,   0.00000,
,,,-00.000006960000,   0.00000,
,,,-00.000006950000,   0.00000,
,,,-00.000006940000,  -0.60000,
,,,-00.000006930000,   0.00000,
,,,-00.000006920000,   0.00000,
,,,-00.000006910000,  -0.40000,
,,,-00.000006900000,  -0.40000,
,,,-00.000006890000,   0.00000,
,,,-00.000006880000,  -0.20000,
,,,-00.000006870000,   0.00000,
,,,-00.000006860000,  -0.20000,
,,,-00.000006850000,  -0.20000,
,,,-00.000006840000,  -0.40000,
,,,-00.000006830000,   0.00000,
,,,-00.000006820000,  -0.20000,
,,,-00.000006810000,  -0.20000,
,,,-00.000006800000,  -0.20000,
,,,-00.000006790000,  -0.20000,
,,,-00.000006780000,   0.20000,
,,,-00.000006770000,   0.20000,
,,,-00.000006760000,  -0.20000,
,,,-00.000006750000,  -0.20000,
,,,-00.000006740000,  -0.20000,
,,,-00.000006730000,  -0.20000,
,,,-00.000006720000,  -0.40000,
,,,-00.000006710000,  -0.20000,
,,,-00.000006700000,  -0.20000,
,,,-00.000006690000,   0.00000,
,,,-00.000006680000,  -0.20000,
,,,-00.000006670000,  -0.20000,
,,,-00.000006660000,   0.20000,
,,,-00.000006650000,   0.00000,
,,,-00.000006640000,   0.00000,
,,,-00.000006630000,  -0.20000,
,,,-00.000006620000,   0.00000,
,,,-00.000006610000,  -0.20000,
,,,-00.000006600000,  -0.20000,
,,,-00.000006590000,   0.00000,
,,,-00.000006580000,  -0.20000,
,,,-00.000006570000,  -0.20000,
,,,-00.000006560000,   0.00000,
,,,-00.000006550000,   0.00000,
,,,-00.000006540000,  -0.40000,
,,,-00.000006530000,  -0.20000,
,,,-00.000006520000,   0.00000,
,,,-00.000006510000,   0.20000,
,,,-00.000006500000,  -0.20000,
,,,-00.000006490000,  -0.40000,
,,,-00.000006480000,   0.00000,
,,,-00.000006470000,  -0.40000,
,,,-00.000006460000,  -0.40000,
,,,-00.000006450000,  -0.20000,
,,,-00.000006440000,   0.00000,
,,,-00.000006430000,   0.00000,
,,,-00.000006420000,  -0.20000,
,,,-00.000006410000,   0.00000,
,,,-00.000006400000,   0.00000,
,,,-00.000006390000,  -0.40000,
,,,-00.000006380000,  -0.20000,
,,,-00.000006370000,  -0.20000,
,,,-00.000006360000,  -0.40000,
,,,-00.000006350000,  -0.20000,
,,,-00.000006340000,  -0.20000,
,,,-00.000006330000,  -0.20000,
,,,-00.000006320000,  -0.20000,
,,,-00.000006310000,   0.20000,
,,,-00.000006300000,  -0.40000,
,,,-00.000006290000,  -0.80000,
,,,-00.000006280000,  -0.20000,
,,,-00.000006270000,  -0.20000,
,,,-00.000006260000,  -0.20000,
,,,-00.000006250000,  -0.20000,
,,,-00.000006240000,   0.00000,
,,,-00.000006230000,  -0.20000,
,,,-00.000006220000,  -0.20000,
,,,-00.000006210000,  -6.40000,
,,,-00.000006200000, -10.20000,
,,,-00.000006190000,  -7.60000,
,,,-00.000006180000,  -6.40000,
,,,-00.000006170000,  25.40000,
,,,-00.000006160000,  -1.60000,
,,,-00.000006150000,  -0.60000,
,,,-00.000006140000,  25.40000,
,,,-00.000006130000,  25.40000,
,,,-00.000006120000,  -0.60000,
,,,-00.000006110000,   0.20000,
,,,-00.000006100000,   0.40000,
,,,-00.000006090000,   0.20000,
,,,-00.000006080000,  -0.20000,
,,,-00.000006070000,   0.40000,
,,,-00.000006060000,   0.60000,
,,,-00.000006050000,   0.60000,
,,,-00.000006040000,   0.20000,
,,,-00.000006030000,  -0.20000,
,,,-00.000006020000,  -0.20000,
,,,-00.000006010000,   0.20000,
,,,-00.000006000000,   0.20000,
,,,-00.000005990000,  -0.40000,
,,,-00.000005980000,  -0.40000,
,,,-00.000005970000,  -0.40000,
,,,-00.000005960000,  -0.20000,
,,,-00.000005950000,  -0.40000,
,,,-00.000005940000,  -0.40000,
,,,-00.000005930000,  -0.40000,
,,,-00.000005920000,  -0.20000,
,,,-00.000005910000,   0.20000,
,,,-00.000005900000,   0.00000,
,,,-00.000005890000,  -0.40000,
,,,-00.000005880000,  -0.20000,
,,,-00.000005870000,  -0.20000,
,,,-00.000005860000,  -0.20000,
,,,-00.000005850000,   0.00000,
,,,-00.000005840000,  -0.20000,
,,,-00.000005830000,  -0.60000,
,,,-00.000005820000,  -0.40000,
,,,-00.000005810000,  -0.40000,
,,,-00.000005800000,  -0.20000,
,,,-00.000005790000,  -0.60000,
,,,-00.000005780000,  -0.20000,
,,,-00.000005770000,  -0.40000,
,,,-00.000005760000,  -0.40000,
,,,-00.000005750000,  -0.40000,
,,,-00.000005740000,  -0.60000,
,,,-00.000005730000,  -0.20000,
,,,-00.000005720000,   0.00000,
,,,-00.000005710000,  -0.60000,
,,,-00.000005700000,  -0.20000,
,,,-00.000005690000,  -0.40000,
,,,-00.000005680000,  -0.40000,
,,,-00.000005670000,  -0.40000,
,,,-00.000005660000,  -0.20000,
,,,-00.000005650000,  -0.80000,
,,,-00.000005640000,  -0.60000,
,,,-00.000005630000,  -0.40000,
,,,-00.000005620000,  -0.20000,
,,,-00.000005610000,  -0.20000,
,,,-00.000005600000,  -0.20000,
,,,-00.000005590000,  -0.20000,
,,,-00.000005580000,  -0.40000,
,,,-00.000005570000,  -0.20000,
,,,-00.000005560000,  -0.20000,
,,,-00.000005550000,  -0.20000,
,,,-00.000005540000,  -0.20000,
,,,-00.000005530000,  -0.20000,
,,,-00.000005520000,  -0.40000,
,,,-00.000005510000,  -0.40000,
,,,-00.000005500000,  -0.40000,
,,,-00.000005490000,  -0.60000,
,,,-00.000005480000,  -0.40000,
,,,-00.000005470000,  -0.60000,
,,,-00.000005460000,  -0.40000,
,,,-00.000005450000,  -0.60000,
,,,-00.000005440000,  -0.40000,
,,,-00.000005430000,   0.00000,
,,,-00.000005420000,  -0.20000,
,,,-00.000005410000,  -0.60000,
,,,-00.000005400000,  -0.20000,
,,,-00.000005390000,  -0.40000,
,,,-00.000005380000,  -0.20000,
,,,-00.000005370000,  -0.20000,
,,,-00.000005360000,  -0.40000,
,,,-00.000005350000,  -0.40000,
,,,-00.000005340000,  -0.40000,
,,,-00.000005330000,  -0.60000,
,,,-00.000005320000,  -0.20000,
,,,-00.000005310000,  -0.40000,
,,,-00.000005300000,  -0.60000,
,,,-00.000005290000,  -0.40000,
,,,-00.000005280000,  -0.40000,
,,,-00.000005270000,  -0.40000,
,,,-00.000005260000,  -0.20000,
,,,-00.000005250000,  -0.20000,
,,,-00.000005240000,   0.00000,
,,,-00.000005230000,  -0.20000,
,,,-00.000005220000,  -0.20000,
,,,-00.000005210000,   0.00000,
,,,-00.000005200000,  -0.20000,
,,,-00.000005190000,  -0.40000,
,,,-00.000005180000,  -0.40000,
,,,-00.000005170000,  -0.20000,
,,,-00.000005160000,  -0.20000,
,,,-00.000005150000,   0.00000,
,,,-00.000005140000,  -0.20000,
,,,-00.000005130000,  -0.20000,
,,,-00.000005120000,  -0.20000,
,,,-00.000005110000,  -0.40000,
,,,-00.000005100000,  -0.60000,
,,,-00.000005090000,  -0.40000,
,,,-00.000005080000,   0.00000,
,,,-00.000005070000,   0.00000,
,,,-00.000005060000,   0.00000,
,,,-00.000005050000,  -0.40000,
,,,-00.000005040000,  -0.20000,
,,,-00.000005030000,  -0.40000,
,,,-00.000005020000,   0.00000,
,,,-00.000005010000,  -0.20000,
,,,-00.000005000000,  -0.40000,
,,,-00.000004990000,  -0.60000,
,,,-00.000004980000,  -0.20000,
,,,-00.000004970000,  -0.20000,
,,,-00.000004960000,  -0.20000,
,,,-00.000004950000,  -0.20000,
,,,-00.000004940000,  -0.20000,
,,,-00.000004930000,  -0.40000,
,,,-00.000004920000,  -0.40000,
,,,-00.000004910000,  -0.40000,
,,,-00.000004900000,  -0.20000,
,,,-00.000004890000,  -0.40000,
,,,-00.000004880000,  -0.20000,
,,,-00.000004870000,  -0.20000,
,,,-00.000004860000,  -0.20000,
,,,-00.000004850000,  -0.20000,
,,,-00.000004840000,  -0.40000,
,,,-00.000004830000,  -0.40000,
,,,-00.000004820000,  -0.40000,
,,,-00.000004810000,   0.00000,
,,,-00.000004800000,  -0.60000,
,,,-00.000004790000,  -0.20000,
,,,-00.000004780000,  -0.20000,
,,,-00.000004770000,  -0.60000,
,,,-00.000004760000,  -0.40000,
,,,-00.000004750000,  -0.40000,
,,,-00.000004740000,  -0.60000,
,,,-00.000004730000,  -0.20000,
,,,-00.000004720000,  -0.40000,
,,,-00.000004710000,  -0.60000,
,,,-00.000004700000,  -0.40000,
,,,-00.000004690000,  -0.20000,
,,,-00.000004680000,  -0.40000,
,,,-00.000004670000,  -0.20000,
,,,-00.000004660000,  -0.40000,
,,,-00.000004650000,  -0.40000,
,,,-00.000004640000,  -1.00000,
,,,-00.000004630000,  -0.60000,
,,,-00.000004620000,  -0.40000,
,,,-00.000004610000,  -0.40000,
,,,-00.000004600000,  -0.40000,
,,,-00.000004590000,  -0.20000,
,,,-00.000004580000,  -0.40000,
,,,-00.000004570000,  -0.20000,
,,,-00.000004560000,  -0.20000,
,,,-00.000004550000,  -0.40000,
,,,-00.000004540000,   0.00000,
,,,-00.000004530000,  -0.20000,
,,,-00.000004520000,  -0.20000,
,,,-00.000004510000,  -0.40000,
,,,-00.000004500000,  -0.40000,
,,,-00.000004490000,  -0.40000,
,,,-00.000004480000,  -0.60000,
,,,-00.000004470000,   0.00000,
,,,-00.000004460000,  -0.60000,
,,,-00.000004450000,  -0.40000,
,,,-00.000004440000,  -0.40000,
,,,-00.000004430000,  -0.60000,
,,,-00.000004420000,  -0.40000,
,,,-00.000004410000,  -0.60000,
,,,-00.000004400000,  -0.40000,
,,,-00.000004390000,  -0.20000,
,,,-00.000004380000,  -0.40000,
,,,-00.000004370000,  -0.20000,
,,,-00.000004360000,  -0.40000,
,,,-00.000004350000,  -0.20000,
,,,-00.000004340000,  -0.20000,
,,,-00.000004330000,  -0.20000,
,,,-00.000004320000,  -0.60000,
,,,-00.000004310000,  -0.60000,
,,,-00.000004300000,  -0.20000,
,,,-00.000004290000,  -0.60000,
,,,-00.000004280000,  -0.20000,
,,,-00.000004270000,  -0.20000,
,,,-00.000004260000,  -0.20000,
,,,-00.000004250000,  -0.40000,
,,,-00.000004240000,  -0.20000,
,,,-00.000004230000,  -0.40000,
,,,-00.000004220000,  -0.20000,
,,,-00.000004210000,  -0.20000,
,,,-00.000004200000,  -0.40000,
,,,-00.000004190000,  -0.40000,
,,,-00.000004180000,  -0.20000,
,,,-00.000004170000,  -0.40000,
,,,-00.000004160000,  -0.60000,
,,,-00.000004150000,  -0.40000,
,,,-00.000004140000,  -0.40000,
,,,-00.000004130000,  -0.40000,
,,,-00.000004120000,  -0.40000,
,,,-00.000004110000,  -0.60000,
,,,-00.000004100000,  -0.60000,
,,,-00.000004090000,  -0.60000,
,,,-00.000004080000,  -0.20000,
,,,-00.000004070000,  -0.20000,
,,,-00.000004060000,  -0.40000,
,,,-00.000004050000,  -0.60000,
,,,-00.000004040000,  -0.40000,
,,,-00.000004030000,  -0.20000,
,,,-00.000004020000,  -0.20000,
,,,-00.000004010000,  -0.40000,
,,,-00.000004000000,   0.00000,
,,,-00.000003990000,  -0.20000,
,,,-00.000003980000,  -0.20000,
,,,-00.000003970000,  -0.20000,
,,,-00.000003960000,  -0.20000,
,,,-00.000003950000,  -0.40000,
,,,-00.000003940000,  -0.60000,
,,,-00.000003930000,  -0.20000,
,,,-00.000003920000,  -0.40000,
,,,-00.000003910000,  -0.20000,
,,,-00.000003900000,  -0.40000,
,,,-00.000003890000,  -0.20000,
,,,-00.000003880000,  -0.20000,
,,,-00.000003870000,  -0.40000,
,,,-00.000003860000,  -0.40000,
,,,-00.000003850000,  -0.20000,
,,,-00.000003840000,  -0.40000,
,,,-00.000003830000,  -0.20000,
,,,-00.000003820000,  -0.20000,
,,,-00.000003810000,  -0.20000,
,,,-00.000003800000,  -0.20000,
,,,-00.000003790000,  -0.20000,
,,,-00.000003780000,  -0.20000,
,,,-00.000003770000,  -0.60000,
,,,-00.000003760000,  -0.40000,
,,,-00.000003750000,  -0.60000,
,,,-00.000003740000,  -0.20000,
,,,-00.000003730000,  -0.20000,
,,,-00.000003720000,  -0.40000,
,,,-00.000003710000,  -0.40000,
,,,-00.000003700000,  -0.40000,
,,,-00.000003690000,  -0.20000,
,,,-00.000003680000,  -0.20000,
,,,-00.000003670000,  -0.20000,
,,,-00.000003660000,  -0.40000,
,,,-00.000003650000,  -0.40000,
,,,-00.000003640000,  -0.20000,
,,,-00.000003630000,  -0.60000,
,,,-00.000003620000,  -0.20000,
,,,-00.000003610000,  -0.40000,
,,,-00.000003600000,  -0.20000,
,,,-00.000003590000,  -0.40000,
,,,-00.000003580000,  -0.40000,
,,,-00.000003570000,  -0.40000,
,,,-00.000003560000,  -0.60000,
,,,-00.000003550000,  -0.40000,
,,,-00.000003540000,  -0.20000,
,,,-00.000003530000,  -0.20000,
,,,-00.000003520000,  -0.40000,
,,,-00.000003510000,  -0.40000,
,,,-00.000003500000,  -0.20000,
,,,-00.000003490000,  -0.20000,
,,,-00.000003480000,   0.00000,
,,,-00.000003470000,  -0.20000,
,,,-00.000003460000,  -0.40000,
,,,-00.000003450000,  -0.40000,
,,,-00.000003440000,  -0.20000,
,,,-00.000003430000,  -0.40000,
,,,-00.000003420000,  -0.60000,
,,,-00.000003410000,   0.00000,
,,,-00.000003400000,  -0.40000,
,,,-00.000003390000,   0.00000,
,,,-00.000003380000,  -0.20000,
,,,-00.000003370000,  -0.40000,
,,,-00.000003360000,  -0.40000,
,,,-00.000003350000,  -0.60000,
,,,-00.000003340000,  -0.20000,
,,,-00.000003330000,  -0.60000,
,,,-00.000003320000,  -0.60000,
,,,-00.000003310000,  -0.40000,
,,,-00.000003300000,  -0.60000,
,,,-00.000003290000,  -0.40000,
,,,-00.000003280000,  -0.20000,
,,,-00.000003270000,  -0.40000,
,,,-00.000003260000,  -0.40000,
,,,-00.000003250000,  -0.60000,
,,,-00.000003240000,   0.00000,
,,,-00.000003230000,  -0.20000,
,,,-00.000003220000,  -0.20000,
,,,-00.000003210000,  -0.40000,
,,,-00.000003200000,  -0.20000,
,,,-00.000003190000,   0.00000,
,,,-00.000003180000,  -0.40000,
,,,-00.000003170000,  -0.20000,
,,,-00.000003160000,   0.00000,
,,,-00.000003150000,  -0.40000,
,,,-00.000003140000,   0.00000,
,,,-00.000003130000,  -0.20000,
,,,-00.000003120000,  -0.20000,
,,,-00.000003110000,  -0.60000,
,,,-00.000003100000,  -0.40000,
,,,-00.000003090000,  -0.40000,
,,,-00.000003080000,  -0.40000,
,,,-00.000003070000,  -0.40000,
