2 - Experimentos/1 - Ponte de Mosfets/80kHz/5 - 22Ohm_3.19mH/tensão indutor/F0001MTH.CSV

Record Length,2.500000e+03,,   0.000039000000,  32.00000,
Sample Interval,1.000000e-08,,   0.000039010000,  32.00000,
Trigger Point,-3.900000000000e+03,,   0.000039020000,  32.00000,
,,,   0.000039030000,  32.00000,
,,,   0.000039040000,  32.80000,
,,,   0.000039050000,  32.80000,
Source,MATH,,   0.000039060000,  32.80000,
Vertical Units,V,,   0.000039070000,  32.00000,
Vertical Scale,2.000000e+01,,   0.000039080000,  32.00000,
Vertical Offset,0.000000e+00,,   0.000039090000,  32.80000,
Horizontal Units,s,,   0.000039100000,  32.00000,
Horizontal Scale,2.500000e-06,,   0.000039110000,  32.00000,
Pt Fmt,Y,,   0.000039120000,  32.80000,
Yzero,0.000000e+00,,   0.000039130000,  32.80000,
Probe Atten,1.000000e+00,,   0.000039140000,  32.80000,
Model Number,TDS2004C,,   0.000039150000,  32.00000,
Serial Number,C012246,,   0.000039160000,  32.00000,
Firmware Version,FV:v24.18,,   0.000039170000,  32.80000,
,,,0.000039180000,  31.20000,
,,,0.000039190000,  32.00000,
,,,0.000039200000,  32.00000,
,,,0.000039210000,  32.80000,
,,,0.000039220000,  32.80000,
,,,0.000039230000,  32.00000,
,,,0.000039240000,  32.80000,
,,,0.000039250000,  32.80000,
,,,0.000039260000,  32.80000,
,,,0.000039270000,  32.80000,
,,,0.000039280000,  32.80000,
,,,0.000039290000,  32.00000,
,,,0.000039300000,  32.80000,
,,,0.000039310000,  32.80000,
,,,0.000039320000,  32.00000,
,,,0.000039330000,  32.00000,
,,,0.000039340000,  32.80000,
,,,0.000039350000,  32.80000,
,,,0.000039360000,  32.00000,
,,,0.000039370000,  32.00000,
,,,0.000039380000,  32.00000,
,,,0.000039390000,  32.80000,
,,,0.000039400000,  32.80000,
,,,0.000039410000,  32.00000,
,,,0.000039420000,  32.00000,
,,,0.000039430000,  32.00000,
,,,0.000039440000,  32.00000,
,,,0.000039450000,  32.00000,
,,,0.000039460000,  31.20000,
,,,0.000039470000,  32.80000,
,,,0.000039480000,  32.80000,
,,,0.000039490000,  32.00000,
,,,0.000039500000,  32.80000,
,,,0.000039510000,  32.00000,
,,,0.000039520000,  32.00000,
,,,0.000039530000,  32.00000,
,,,0.000039540000,  32.00000,
,,,0.000039550000,  32.80000,
,,,0.000039560000,  32.00000,
,,,0.000039570000,  32.00000,
,,,0.000039580000,  32.00000,
,,,0.000039590000,  32.00000,
,,,0.000039600000,  32.00000,
,,,0.000039610000,  32.80000,
,,,0.000039620000,  32.00000,
,,,0.000039630000,  32.80000,
,,,0.000039640000,  32.80000,
,,,0.000039650000,  32.80000,
,,,0.000039660000,  32.00000,
,,,0.000039670000,  32.80000,
,,,0.000039680000,  32.00000,
,,,0.000039690000,  32.80000,
,,,0.000039700000,  32.00000,
,,,0.000039710000,  32.80000,
,,,0.000039720000,  32.80000,
,,,0.000039730000,  32.80000,
,,,0.000039740000,  32.00000,
,,,0.000039750000,  32.00000,
,,,0.000039760000,  32.00000,
,,,0.000039770000,  32.80000,
,,,0.000039780000,  32.00000,
,,,0.000039790000,  32.80000,
,,,0.000039800000,  32.00000,
,,,0.000039810000,  32.80000,
,,,0.000039820000,  32.80000,
,,,0.000039830000,  32.00000,
,,,0.000039840000,  32.00000,
,,,0.000039850000,  32.00000,
,,,0.000039860000,  32.00000,
,,,0.000039870000,  32.80000,
,,,0.000039880000,  32.00000,
,,,0.000039890000,  31.20000,
,,,0.000039900000,  32.00000,
,,,0.000039910000,  32.80000,
,,,0.000039920000,  32.80000,
,,,0.000039930000,  32.00000,
,,,0.000039940000,  32.00000,
,,,0.000039950000,  32.80000,
,,,0.000039960000,  32.00000,
,,,0.000039970000,  32.80000,
,,,0.000039980000,  32.80000,
,,,0.000039990000,  32.00000,
,,,0.000040000000,  32.00000,
,,,0.000040010000,  32.80000,
,,,0.000040020000,  32.00000,
,,,0.000040030000,  32.80000,
,,,0.000040040000,  32.80000,
,,,0.000040050000,  32.80000,
,,,0.000040060000,  32.80000,
,,,0.000040070000,  32.00000,
,,,0.000040080000,  32.80000,
,,,0.000040090000,  32.00000,
,,,0.000040100000,  32.80000,
,,,0.000040110000,  32.80000,
,,,0.000040120000,  32.00000,
,,,0.000040130000,  32.00000,
,,,0.000040140000,  32.80000,
,,,0.000040150000,  32.00000,
,,,0.000040160000,  32.80000,
,,,0.000040170000,  32.00000,
,,,0.000040180000,  32.00000,
,,,0.000040190000,  32.00000,
,,,0.000040200000,  31.20000,
,,,0.000040210000,  32.00000,
,,,0.000040220000,  32.00000,
,,,0.000040230000,  32.80000,
,,,0.000040240000,  32.80000,
,,,0.000040250000,  32.80000,
,,,0.000040260000,  32.00000,
,,,0.000040270000,  32.00000,
,,,0.000040280000,  32.80000,
,,,0.000040290000,  32.00000,
,,,0.000040300000,  32.80000,
,,,0.000040310000,  32.80000,
,,,0.000040320000,  32.80000,
,,,0.000040330000,  33.60000,
,,,0.000040340000,  31.20000,
,,,0.000040350000,  32.00000,
,,,0.000040360000,  32.80000,
,,,0.000040370000,  32.00000,
,,,0.000040380000,  32.00000,
,,,0.000040390000,  32.80000,
,,,0.000040400000,  31.20000,
,,,0.000040410000,  32.00000,
,,,0.000040420000,  32.80000,
,,,0.000040430000,  32.80000,
,,,0.000040440000,  31.20000,
,,,0.000040450000,  31.20000,
,,,0.000040460000,  32.00000,
,,,0.000040470000,  32.80000,
,,,0.000040480000,  32.00000,
,,,0.000040490000,  32.00000,
,,,0.000040500000,  32.00000,
,,,0.000040510000,  32.00000,
,,,0.000040520000,  32.00000,
,,,0.000040530000,  32.80000,
,,,0.000040540000,  32.00000,
,,,0.000040550000,  31.20000,
,,,0.000040560000,  32.80000,
,,,0.000040570000,  32.00000,
,,,0.000040580000,  32.00000,
,,,0.000040590000,  32.80000,
,,,0.000040600000,  31.20000,
,,,0.000040610000,  32.00000,
,,,0.000040620000,  32.80000,
,,,0.000040630000,  32.00000,
,,,0.000040640000,  32.00000,
,,,0.000040650000,  32.00000,
,,,0.000040660000,  32.00000,
,,,0.000040670000,  32.80000,
,,,0.000040680000,  32.00000,
,,,0.000040690000,  32.00000,
,,,0.000040700000,  32.00000,
,,,0.000040710000,  32.00000,
,,,0.000040720000,  32.00000,
,,,0.000040730000,  32.00000,
,,,0.000040740000,  32.00000,
,,,0.000040750000,  32.00000,
,,,0.000040760000,  32.00000,
,,,0.000040770000,  32.00000,
,,,0.000040780000,  32.00000,
,,,0.000040790000,  31.20000,
,,,0.000040800000,  32.80000,
,,,0.000040810000,  32.00000,
,,,0.000040820000,  32.00000,
,,,0.000040830000,  32.80000,
,,,0.000040840000,  32.00000,
,,,0.000040850000,  31.20000,
,,,0.000040860000,  32.80000,
,,,0.000040870000,  32.00000,
,,,0.000040880000,  32.00000,
,,,0.000040890000,  32.00000,
,,,0.000040900000,  32.00000,
,,,0.000040910000,  32.80000,
,,,0.000040920000,  32.00000,
,,,0.000040930000,  32.00000,
,,,0.000040940000,  32.00000,
,,,0.000040950000,  31.20000,
,,,0.000040960000,  32.00000,
,,,0.000040970000,  32.80000,
,,,0.000040980000,  32.80000,
,,,0.000040990000,  32.00000,
,,,0.000041000000,  32.00000,
,,,0.000041010000,  32.00000,
,,,0.000041020000,  32.00000,
,,,0.000041030000,  32.00000,
,,,0.000041040000,  32.80000,
,,,0.000041050000,  32.00000,
,,,0.000041060000,  32.00000,
,,,0.000041070000,  32.00000,
,,,0.000041080000,  32.00000,
,,,0.000041090000,  32.80000,
,,,0.000041100000,  32.00000,
,,,0.000041110000,  32.80000,
,,,0.000041120000,  32.00000,
,,,0.000041130000,  32.80000,
,,,0.000041140000,  31.20000,
,,,0.000041150000,  32.80000,
,,,0.000041160000,  31.20000,
,,,0.000041170000,  32.00000,
,,,0.000041180000,  32.00000,
,,,0.000041190000,  32.80000,
,,,0.000041200000,  32.00000,
,,,0.000041210000,  32.00000,
,,,0.000041220000,  32.00000,
,,,0.000041230000,  32.00000,
,,,0.000041240000,  32.00000,
,,,0.000041250000,  32.00000,
,,,0.000041260000,  32.00000,
,,,0.000041270000,  32.00000,
,,,0.000041280000,  31.20000,
,,,0.000041290000,  32.00000,
,,,0.000041300000,  31.20000,
,,,0.000041310000,  32.00000,
,,,0.000041320000,  32.00000,
,,,0.000041330000,  32.00000,
,,,0.000041340000,  32.00000,
,,,0.000041350000,  31.20000,
,,,0.000041360000,  31.20000,
,,,0.000041370000,  32.00000,
,,,0.000041380000,  32.00000,
,,,0.000041390000,  31.20000,
,,,0.000041400000,  32.00000,
,,,0.000041410000,  32.80000,
,,,0.000041420000,  32.80000,
,,,0.000041430000,  32.00000,
,,,0.000041440000,  32.80000,
,,,0.000041450000,  32.00000,
,,,0.000041460000,  32.80000,
,,,0.000041470000,  32.00000,
,,,0.000041480000,  32.00000,
,,,0.000041490000,  32.80000,
,,,0.000041500000,  32.00000,
,,,0.000041510000,  32.00000,
,,,0.000041520000,  32.80000,
,,,0.000041530000,  32.00000,
,,,0.000041540000,  32.80000,
,,,0.000041550000,  32.80000,
,,,0.000041560000,  32.00000,
,,,0.000041570000,  32.00000,
,,,0.000041580000,  32.00000,
,,,0.000041590000,  31.20000,
,,,0.000041600000,  32.00000,
,,,0.000041610000,  32.00000,
,,,0.000041620000,  32.00000,
,,,0.000041630000,  32.00000,
,,,0.000041640000,  31.20000,
,,,0.000041650000,  32.00000,
,,,0.000041660000,  31.20000,
,,,0.000041670000,  31.20000,
,,,0.000041680000,  32.00000,
,,,0.000041690000,  30.40000,
,,,0.000041700000,  32.00000,
,,,0.000041710000,  30.40000,
,,,0.000041720000,  30.40000,
,,,0.000041730000,  30.40000,
,,,0.000041740000,  30.40000,
,,,0.000041750000,  31.20000,
,,,0.000041760000,  30.40000,
,,,0.000041770000,  28.80000,
,,,0.000041780000,  28.80000,
,,,0.000041790000,  28.00000,
,,,0.000041800000,  27.20000,
,,,0.000041810000,  27.20000,
,,,0.000041820000,  27.20000,
,,,0.000041830000,  25.60000,
,,,0.000041840000,  25.60000,
,,,0.000041850000,  24.80000,
,,,0.000041860000,  24.00000,
,,,0.000041870000,  22.40000,
,,,0.000041880000,  21.60000,
,,,0.000041890000,  20.00000,
,,,0.000041900000,  19.20000,
,,,0.000041910000,  16.80000,
,,,0.000041920000,  14.40000,
,,,0.000041930000,  12.80000,
,,,0.000041940000,   9.60000,
,,,0.000041950000,   8.80000,
,,,0.000041960000,   5.60000,
,,,0.000041970000,   4.80000,
,,,0.000041980000,   1.60000,
,,,0.000041990000,   0.00000,
,,,0.000042000000,  -2.40000,
,,,0.000042010000,  -2.40000,
,,,0.000042020000,  -4.00000,
,,,0.000042030000,  -4.00000,
,,,0.000042040000,  -4.80000,
,,,0.000042050000,  -6.40000,
,,,0.000042060000,  -4.80000,
,,,0.000042070000,  -4.80000,
,,,0.000042080000,  -5.60000,
,,,0.000042090000,  -4.80000,
,,,0.000042100000,  -5.60000,
,,,0.000042110000,  -5.60000,
,,,0.000042120000,  -5.60000,
,,,0.000042130000,  -7.20000,
,,,0.000042140000,  -5.60000,
,,,0.000042150000,  -5.60000,
,,,0.000042160000,  -6.40000,
,,,0.000042170000,  -5.60000,
,,,0.000042180000,  -5.60000,
,,,0.000042190000,  -5.60000,
,,,0.000042200000,  -6.40000,
,,,0.000042210000,  -6.40000,
,,,0.000042220000,  -6.40000,
,,,0.000042230000,  -6.40000,
,,,0.000042240000,  -7.20000,
,,,0.000042250000,  -8.00000,
,,,0.000042260000,  -8.00000,
,,,0.000042270000,  -7.20000,
,,,0.000042280000,  -7.20000,
,,,0.000042290000,  -8.00000,
,,,0.000042300000,  -7.20000,
,,,0.000042310000,  -7.20000,
,,,0.000042320000,  -8.00000,
,,,0.000042330000,  -7.20000,
,,,0.000042340000,  -7.20000,
,,,0.000042350000,  -7.20000,
,,,0.000042360000,  -7.20000,
,,,0.000042370000,  -5.60000,
,,,0.000042380000,  -6.40000,
,,,0.000042390000,  -5.60000,
,,,0.000042400000,  -5.60000,
,,,0.000042410000,  -4.80000,
,,,0.000042420000,  -4.80000,
,,,0.000042430000,  -4.80000,
,,,0.000042440000,  -4.80000,
,,,0.000042450000,  -4.80000,
,,,0.000042460000,  -4.80000,
,,,0.000042470000,  -4.00000,
,,,0.000042480000,  -4.00000,
,,,0.000042490000,  -4.00000,
,,,0.000042500000,  -4.00000,
,,,0.000042510000,  -4.00000,
,,,0.000042520000,  -4.80000,
,,,0.000042530000,  -4.80000,
,,,0.000042540000,  -5.60000,
,,,0.000042550000,  -6.40000,
,,,0.000042560000,  -8.00000,
,,,0.000042570000,  -8.00000,
,,,0.000042580000,  -8.00000,
,,,0.000042590000, -10.40000,
,,,0.000042600000, -11.20000,
,,,0.000042610000, -13.60000,
,,,0.000042620000, -16.00000,
,,,0.000042630000, -18.40000,
,,,0.000042640000, -19.20000,
,,,0.000042650000, -20.00000,
,,,0.000042660000, -21.60000,
,,,0.000042670000, -23.20000,
,,,0.000042680000, -24.80000,
,,,0.000042690000, -25.60000,
,,,0.000042700000, -27.20000,
,,,0.000042710000, -28.80000,
,,,0.000042720000, -29.60000,
,,,0.000042730000, -30.40000,
,,,0.000042740000, -32.00000,
,,,0.000042750000, -32.80000,
,,,0.000042760000, -33.60000,
,,,0.000042770000, -33.60000,
,,,0.000042780000, -33.60000,
,,,0.000042790000, -34.40000,
,,,0.000042800000, -34.40000,
,,,0.000042810000, -34.40000,
,,,0.000042820000, -34.40000,
,,,0.000042830000, -35.20000,
,,,0.000042840000, -34.40000,
,,,0.000042850000, -33.60000,
,,,0.000042860000, -33.60000,
,,,0.000042870000, -34.40000,
,,,0.000042880000, -33.60000,
,,,0.000042890000, -33.60000,
,,,0.000042900000, -33.60000,
,,,0.000042910000, -33.60000,
,,,0.000042920000, -33.60000,
,,,0.000042930000, -33.60000,
,,,0.000042940000, -32.80000,
,,,0.000042950000, -32.80000,
,,,0.000042960000, -32.00000,
,,,0.000042970000, -32.80000,
,,,0.000042980000, -32.80000,
,,,0.000042990000, -34.40000,
,,,0.000043000000, -33.60000,
,,,0.000043010000, -32.80000,
,,,0.000043020000, -32.80000,
,,,0.000043030000, -33.60000,
,,,0.000043040000, -34.40000,
,,,0.000043050000, -33.60000,
,,,0.000043060000, -35.20000,
,,,0.000043070000, -34.40000,
,,,0.000043080000, -33.60000,
,,,0.000043090000, -34.40000,
,,,0.000043100000, -34.40000,
,,,0.000043110000, -34.40000,
,,,0.000043120000, -35.20000,
,,,0.000043130000, -35.20000,
,,,0.000043140000, -36.00000,
,,,0.000043150000, -35.20000,
,,,0.000043160000, -35.20000,
,,,0.000043170000, -35.20000,
,,,0.000043180000, -34.40000,
,,,0.000043190000, -35.20000,
,,,0.000043200000, -34.40000,
,,,0.000043210000, -33.60000,
,,,0.000043220000, -34.40000,
,,,0.000043230000, -33.60000,
,,,0.000043240000, -34.40000,
,,,0.000043250000, -34.40000,
,,,0.000043260000, -34.40000,
,,,0.000043270000, -33.60000,
,,,0.000043280000, -33.60000,
,,,0.000043290000, -33.60000,
,,,0.000043300000, -33.60000,
,,,0.000043310000, -33.60000,
,,,0.000043320000, -32.80000,
,,,0.000043330000, -33.60000,
,,,0.000043340000, -33.60000,
,,,0.000043350000, -34.40000,
,,,0.000043360000, -32.80000,
,,,0.000043370000, -33.60000,
,,,0.000043380000, -34.40000,
,,,0.000043390000, -33.60000,
,,,0.000043400000, -33.60000,
,,,0.000043410000, -33.60000,
,,,0.000043420000, -34.40000,
,,,0.000043430000, -34.40000,
,,,0.000043440000, -33.60000,
,,,0.000043450000, -34.40000,
,,,0.000043460000, -34.40000,
,,,0.000043470000, -33.60000,
,,,0.000043480000, -33.60000,
,,,0.000043490000, -34.40000,
,,,0.000043500000, -35.20000,
,,,0.000043510000, -34.40000,
,,,0.000043520000, -33.60000,
,,,0.000043530000, -34.40000,
,,,0.000043540000, -33.60000,
,,,0.000043550000, -35.20000,
,,,0.000043560000, -34.40000,
,,,0.000043570000, -34.40000,
,,,0.000043580000, -33.60000,
,,,0.000043590000, -34.40000,
,,,0.000043600000, -33.60000,
,,,0.000043610000, -34.40000,
,,,0.000043620000, -33.60000,
,,,0.000043630000, -33.60000,
,,,0.000043640000, -33.60000,
,,,0.000043650000, -33.60000,
,,,0.000043660000, -34.40000,
,,,0.000043670000, -33.60000,
,,,0.000043680000, -33.60000,
,,,0.000043690000, -33.60000,
,,,0.000043700000, -34.40000,
,,,0.000043710000, -33.60000,
,,,0.000043720000, -33.60000,
,,,0.000043730000, -33.60000,
,,,0.000043740000, -34.40000,
,,,0.000043750000, -34.40000,
,,,0.000043760000, -33.60000,
,,,0.000043770000, -33.60000,
,,,0.000043780000, -34.40000,
,,,0.000043790000, -34.40000,
,,,0.000043800000, -34.40000,
,,,0.000043810000, -33.60000,
,,,0.000043820000, -33.60000,
,,,0.000043830000, -34.40000,
,,,0.000043840000, -33.60000,
,,,0.000043850000, -34.40000,
,,,0.000043860000, -33.60000,
,,,0.000043870000, -34.40000,
,,,0.000043880000, -34.40000,
,,,0.000043890000, -34.40000,
,,,0.000043900000, -33.60000,
,,,0.000043910000, -34.40000,
,,,0.000043920000, -34.40000,
,,,0.000043930000, -33.60000,
,,,0.000043940000, -34.40000,
,,,0.000043950000, -33.60000,
,,,0.000043960000, -33.60000,
,,,0.000043970000, -34.40000,
,,,0.000043980000, -34.40000,
,,,0.000043990000, -33.60000,
,,,0.000044000000, -33.60000,
,,,0.000044010000, -33.60000,
,,,0.000044020000, -34.40000,
,,,0.000044030000, -33.60000,
,,,0.000044040000, -32.80000,
,,,0.000044050000, -33.60000,
,,,0.000044060000, -33.60000,
,,,0.000044070000, -33.60000,
,,,0.000044080000, -33.60000,
,,,0.000044090000, -33.60000,
,,,0.000044100000, -33.60000,
,,,0.000044110000, -34.40000,
,,,0.000044120000, -34.40000,
,,,0.000044130000, -33.60000,
,,,0.000044140000, -33.60000,
,,,0.000044150000, -33.60000,
,,,0.000044160000, -33.60000,
,,,0.000044170000, -33.60000,
,,,0.000044180000, -34.40000,
,,,0.000044190000, -32.80000,
,,,0.000044200000, -33.60000,
,,,0.000044210000, -34.40000,
,,,0.000044220000, -33.60000,
,,,0.000044230000, -34.40000,
,,,0.000044240000, -34.40000,
,,,0.000044250000, -33.60000,
,,,0.000044260000, -33.60000,
,,,0.000044270000, -33.60000,
,,,0.000044280000, -33.60000,
,,,0.000044290000, -34.40000,
,,,0.000044300000, -33.60000,
,,,0.000044310000, -34.40000,
,,,0.000044320000, -33.60000,
,,,0.000044330000, -34.40000,
,,,0.000044340000, -34.40000,
,,,0.000044350000, -33.60000,
,,,0.000044360000, -34.40000,
,,,0.000044370000, -33.60000,
,,,0.000044380000, -33.60000,
,,,0.000044390000, -33.60000,
,,,0.000044400000, -33.60000,
,,,0.000044410000, -34.40000,
,,,0.000044420000, -33.60000,
,,,0.000044430000, -34.40000,
,,,0.000044440000, -34.40000,
,,,0.000044450000, -34.40000,
,,,0.000044460000, -33.60000,
,,,0.000044470000, -33.60000,
,,,0.000044480000, -33.60000,
,,,0.000044490000, -33.60000,
,,,0.000044500000, -33.60000,
,,,0.000044510000, -33.60000,
,,,0.000044520000, -33.60000,
,,,0.000044530000, -34.40000,
,,,0.000044540000, -35.20000,
,,,0.000044550000, -33.60000,
,,,0.000044560000, -33.60000,
,,,0.000044570000, -34.40000,
,,,0.000044580000, -34.40000,
,,,0.000044590000, -34.40000,
,,,0.000044600000, -33.60000,
,,,0.000044610000, -34.40000,
,,,0.000044620000, -33.60000,
,,,0.000044630000, -33.60000,
,,,0.000044640000, -33.60000,
,,,0.000044650000, -33.60000,
,,,0.000044660000, -33.60000,
,,,0.000044670000, -32.80000,
,,,0.000044680000, -33.60000,
,,,0.000044690000, -34.40000,
,,,0.000044700000, -34.40000,
,,,0.000044710000, -32.80000,
,,,0.000044720000, -33.60000,
,,,0.000044730000, -33.60000,
,,,0.000044740000, -33.60000,
,,,0.000044750000, -33.60000,
,,,0.000044760000, -32.80000,
,,,0.000044770000, -33.60000,
,,,0.000044780000, -34.40000,
,,,0.000044790000, -33.60000,
,,,0.000044800000, -33.60000,
,,,0.000044810000, -33.60000,
,,,0.000044820000, -33.60000,
,,,0.000044830000, -33.60000,
,,,0.000044840000, -33.60000,
,,,0.000044850000, -33.60000,
,,,0.000044860000, -33.60000,
,,,0.000044870000, -33.60000,
,,,0.000044880000, -33.60000,
,,,0.000044890000, -32.80000,
,,,0.000044900000, -32.80000,
,,,0.000044910000, -34.40000,
,,,0.000044920000, -33.60000,
,,,0.000044930000, -34.40000,
,,,0.000044940000, -32.80000,
,,,0.000044950000, -33.60000,
,,,0.000044960000, -33.60000,
,,,0.000044970000, -34.40000,
,,,0.000044980000, -32.80000,
,,,0.000044990000, -33.60000,
,,,0.000045000000, -33.60000,
,,,0.000045010000, -33.60000,
,,,0.000045020000, -33.60000,
,,,0.000045030000, -32.80000,
,,,0.000045040000, -33.60000,
,,,0.000045050000, -33.60000,
,,,0.000045060000, -33.60000,
,,,0.000045070000, -33.60000,
,,,0.000045080000, -32.80000,
,,,0.000045090000, -32.80000,
,,,0.000045100000, -34.40000,
,,,0.000045110000, -33.60000,
,,,0.000045120000, -32.80000,
,,,0.000045130000, -33.60000,
,,,0.000045140000, -33.60000,
,,,0.000045150000, -33.60000,
,,,0.000045160000, -33.60000,
,,,0.000045170000, -34.40000,
,,,0.000045180000, -33.60000,
,,,0.000045190000, -33.60000,
,,,0.000045200000, -33.60000,
,,,0.000045210000, -33.60000,
,,,0.000045220000, -33.60000,
,,,0.000045230000, -34.40000,
,,,0.000045240000, -33.60000,
,,,0.000045250000, -33.60000,
,,,0.000045260000, -33.60000,
,,,0.000045270000, -33.60000,
,,,0.000045280000, -34.40000,
,,,0.000045290000, -33.60000,
,,,0.000045300000, -33.60000,
,,,0.000045310000, -33.60000,
,,,0.000045320000, -33.60000,
,,,0.000045330000, -33.60000,
,,,0.000045340000, -33.60000,
,,,0.000045350000, -33.60000,
,,,0.000045360000, -33.60000,
,,,0.000045370000, -33.60000,
,,,0.000045380000, -33.60000,
,,,0.000045390000, -33.60000,
,,,0.000045400000, -33.60000,
,,,0.000045410000, -33.60000,
,,,0.000045420000, -32.80000,
,,,0.000045430000, -34.40000,
,,,0.000045440000, -33.60000,
,,,0.000045450000, -33.60000,
,,,0.000045460000, -32.80000,
,,,0.000045470000, -33.60000,
,,,0.000045480000, -33.60000,
,,,0.000045490000, -33.60000,
,,,0.000045500000, -33.60000,
,,,0.000045510000, -33.60000,
,,,0.000045520000, -33.60000,
,,,0.000045530000, -33.60000,
